^C:\USERS\X'MOE\DESKTOP\KRKREXTRACT\KRKREXTRACT\KRKREXTRACTDLL\ONIG\ENC\ASCII.C
/c /I.\ /Zi /nologo /W3 /WX- /Ox /Ob2 /Oi /Ot /Oy- /GL /D ONIG_EXTERN=extern /D HAVE_CONFIG_H /D NOT_RUBY /D EXPORT /D WIN32 /D NDEBUG /D _LIB /D _UNICODE /D UNICODE /Gm- /EHsc /MT /GS /Gy /fp:precise /Zc:wchar_t /Zc:forScope /Fo"RELEASE\\" /Fd"RELEASE\VC120.PDB" /Gd /TC /analyze- C:\USERS\X'MOE\DESKTOP\KRKREXTRACT\KRKREXTRACT\KRKREXTRACTDLL\ONIG\ENC\ASCII.C
^C:\USERS\X'MOE\DESKTOP\KRKREXTRACT\KRKREXTRACT\KRKREXTRACTDLL\ONIG\ENC\BIG5.C
/c /I.\ /Zi /nologo /W3 /WX- /Ox /Ob2 /Oi /Ot /Oy- /GL /D ONIG_EXTERN=extern /D HAVE_CONFIG_H /D NOT_RUBY /D EXPORT /D WIN32 /D NDEBUG /D _LIB /D _UNICODE /D UNICODE /Gm- /EHsc /MT /GS /Gy /fp:precise /Zc:wchar_t /Zc:forScope /Fo"RELEASE\\" /Fd"RELEASE\VC120.PDB" /Gd /TC /analyze- C:\USERS\X'MOE\DESKTOP\KRKREXTRACT\KRKREXTRACT\KRKREXTRACTDLL\ONIG\ENC\BIG5.C
^C:\USERS\X'MOE\DESKTOP\KRKREXTRACT\KRKREXTRACT\KRKREXTRACTDLL\ONIG\ENC\CP1251.C
/c /I.\ /Zi /nologo /W3 /WX- /Ox /Ob2 /Oi /Ot /Oy- /GL /D ONIG_EXTERN=extern /D HAVE_CONFIG_H /D NOT_RUBY /D EXPORT /D WIN32 /D NDEBUG /D _LIB /D _UNICODE /D UNICODE /Gm- /EHsc /MT /GS /Gy /fp:precise /Zc:wchar_t /Zc:forScope /Fo"RELEASE\\" /Fd"RELEASE\VC120.PDB" /Gd /TC /analyze- C:\USERS\X'MOE\DESKTOP\KRKREXTRACT\KRKREXTRACT\KRKREXTRACTDLL\ONIG\ENC\CP1251.C
^C:\USERS\X'MOE\DESKTOP\KRKREXTRACT\KRKREXTRACT\KRKREXTRACTDLL\ONIG\ENC\EUC_JP.C
/c /I.\ /Zi /nologo /W3 /WX- /Ox /Ob2 /Oi /Ot /Oy- /GL /D ONIG_EXTERN=extern /D HAVE_CONFIG_H /D NOT_RUBY /D EXPORT /D WIN32 /D NDEBUG /D _LIB /D _UNICODE /D UNICODE /Gm- /EHsc /MT /GS /Gy /fp:precise /Zc:wchar_t /Zc:forScope /Fo"RELEASE\\" /Fd"RELEASE\VC120.PDB" /Gd /TC /analyze- C:\USERS\X'MOE\DESKTOP\KRKREXTRACT\KRKREXTRACT\KRKREXTRACTDLL\ONIG\ENC\EUC_JP.C
^C:\USERS\X'MOE\DESKTOP\KRKREXTRACT\KRKREXTRACT\KRKREXTRACTDLL\ONIG\ENC\EUC_KR.C
/c /I.\ /Zi /nologo /W3 /WX- /Ox /Ob2 /Oi /Ot /Oy- /GL /D ONIG_EXTERN=extern /D HAVE_CONFIG_H /D NOT_RUBY /D EXPORT /D WIN32 /D NDEBUG /D _LIB /D _UNICODE /D UNICODE /Gm- /EHsc /MT /GS /Gy /fp:precise /Zc:wchar_t /Zc:forScope /Fo"RELEASE\\" /Fd"RELEASE\VC120.PDB" /Gd /TC /analyze- C:\USERS\X'MOE\DESKTOP\KRKREXTRACT\KRKREXTRACT\KRKREXTRACTDLL\ONIG\ENC\EUC_KR.C
^C:\USERS\X'MOE\DESKTOP\KRKREXTRACT\KRKREXTRACT\KRKREXTRACTDLL\ONIG\ENC\EUC_TW.C
/c /I.\ /Zi /nologo /W3 /WX- /Ox /Ob2 /Oi /Ot /Oy- /GL /D ONIG_EXTERN=extern /D HAVE_CONFIG_H /D NOT_RUBY /D EXPORT /D WIN32 /D NDEBUG /D _LIB /D _UNICODE /D UNICODE /Gm- /EHsc /MT /GS /Gy /fp:precise /Zc:wchar_t /Zc:forScope /Fo"RELEASE\\" /Fd"RELEASE\VC120.PDB" /Gd /TC /analyze- C:\USERS\X'MOE\DESKTOP\KRKREXTRACT\KRKREXTRACT\KRKREXTRACTDLL\ONIG\ENC\EUC_TW.C
^C:\USERS\X'MOE\DESKTOP\KRKREXTRACT\KRKREXTRACT\KRKREXTRACTDLL\ONIG\ENC\GB18030.C
/c /I.\ /Zi /nologo /W3 /WX- /Ox /Ob2 /Oi /Ot /Oy- /GL /D ONIG_EXTERN=extern /D HAVE_CONFIG_H /D NOT_RUBY /D EXPORT /D WIN32 /D NDEBUG /D _LIB /D _UNICODE /D UNICODE /Gm- /EHsc /MT /GS /Gy /fp:precise /Zc:wchar_t /Zc:forScope /Fo"RELEASE\\" /Fd"RELEASE\VC120.PDB" /Gd /TC /analyze- C:\USERS\X'MOE\DESKTOP\KRKREXTRACT\KRKREXTRACT\KRKREXTRACTDLL\ONIG\ENC\GB18030.C
^C:\USERS\X'MOE\DESKTOP\KRKREXTRACT\KRKREXTRACT\KRKREXTRACTDLL\ONIG\ENC\ISO8859_1.C
/c /I.\ /Zi /nologo /W3 /WX- /Ox /Ob2 /Oi /Ot /Oy- /GL /D ONIG_EXTERN=extern /D HAVE_CONFIG_H /D NOT_RUBY /D EXPORT /D WIN32 /D NDEBUG /D _LIB /D _UNICODE /D UNICODE /Gm- /EHsc /MT /GS /Gy /fp:precise /Zc:wchar_t /Zc:forScope /Fo"RELEASE\\" /Fd"RELEASE\VC120.PDB" /Gd /TC /analyze- C:\USERS\X'MOE\DESKTOP\KRKREXTRACT\KRKREXTRACT\KRKREXTRACTDLL\ONIG\ENC\ISO8859_1.C
^C:\USERS\X'MOE\DESKTOP\KRKREXTRACT\KRKREXTRACT\KRKREXTRACTDLL\ONIG\ENC\ISO8859_10.C
/c /I.\ /Zi /nologo /W3 /WX- /Ox /Ob2 /Oi /Ot /Oy- /GL /D ONIG_EXTERN=extern /D HAVE_CONFIG_H /D NOT_RUBY /D EXPORT /D WIN32 /D NDEBUG /D _LIB /D _UNICODE /D UNICODE /Gm- /EHsc /MT /GS /Gy /fp:precise /Zc:wchar_t /Zc:forScope /Fo"RELEASE\\" /Fd"RELEASE\VC120.PDB" /Gd /TC /analyze- C:\USERS\X'MOE\DESKTOP\KRKREXTRACT\KRKREXTRACT\KRKREXTRACTDLL\ONIG\ENC\ISO8859_10.C
^C:\USERS\X'MOE\DESKTOP\KRKREXTRACT\KRKREXTRACT\KRKREXTRACTDLL\ONIG\ENC\ISO8859_11.C
/c /I.\ /Zi /nologo /W3 /WX- /Ox /Ob2 /Oi /Ot /Oy- /GL /D ONIG_EXTERN=extern /D HAVE_CONFIG_H /D NOT_RUBY /D EXPORT /D WIN32 /D NDEBUG /D _LIB /D _UNICODE /D UNICODE /Gm- /EHsc /MT /GS /Gy /fp:precise /Zc:wchar_t /Zc:forScope /Fo"RELEASE\\" /Fd"RELEASE\VC120.PDB" /Gd /TC /analyze- C:\USERS\X'MOE\DESKTOP\KRKREXTRACT\KRKREXTRACT\KRKREXTRACTDLL\ONIG\ENC\ISO8859_11.C
^C:\USERS\X'MOE\DESKTOP\KRKREXTRACT\KRKREXTRACT\KRKREXTRACTDLL\ONIG\ENC\ISO8859_13.C
/c /I.\ /Zi /nologo /W3 /WX- /Ox /Ob2 /Oi /Ot /Oy- /GL /D ONIG_EXTERN=extern /D HAVE_CONFIG_H /D NOT_RUBY /D EXPORT /D WIN32 /D NDEBUG /D _LIB /D _UNICODE /D UNICODE /Gm- /EHsc /MT /GS /Gy /fp:precise /Zc:wchar_t /Zc:forScope /Fo"RELEASE\\" /Fd"RELEASE\VC120.PDB" /Gd /TC /analyze- C:\USERS\X'MOE\DESKTOP\KRKREXTRACT\KRKREXTRACT\KRKREXTRACTDLL\ONIG\ENC\ISO8859_13.C
^C:\USERS\X'MOE\DESKTOP\KRKREXTRACT\KRKREXTRACT\KRKREXTRACTDLL\ONIG\ENC\ISO8859_14.C
/c /I.\ /Zi /nologo /W3 /WX- /Ox /Ob2 /Oi /Ot /Oy- /GL /D ONIG_EXTERN=extern /D HAVE_CONFIG_H /D NOT_RUBY /D EXPORT /D WIN32 /D NDEBUG /D _LIB /D _UNICODE /D UNICODE /Gm- /EHsc /MT /GS /Gy /fp:precise /Zc:wchar_t /Zc:forScope /Fo"RELEASE\\" /Fd"RELEASE\VC120.PDB" /Gd /TC /analyze- C:\USERS\X'MOE\DESKTOP\KRKREXTRACT\KRKREXTRACT\KRKREXTRACTDLL\ONIG\ENC\ISO8859_14.C
^C:\USERS\X'MOE\DESKTOP\KRKREXTRACT\KRKREXTRACT\KRKREXTRACTDLL\ONIG\ENC\ISO8859_15.C
/c /I.\ /Zi /nologo /W3 /WX- /Ox /Ob2 /Oi /Ot /Oy- /GL /D ONIG_EXTERN=extern /D HAVE_CONFIG_H /D NOT_RUBY /D EXPORT /D WIN32 /D NDEBUG /D _LIB /D _UNICODE /D UNICODE /Gm- /EHsc /MT /GS /Gy /fp:precise /Zc:wchar_t /Zc:forScope /Fo"RELEASE\\" /Fd"RELEASE\VC120.PDB" /Gd /TC /analyze- C:\USERS\X'MOE\DESKTOP\KRKREXTRACT\KRKREXTRACT\KRKREXTRACTDLL\ONIG\ENC\ISO8859_15.C
^C:\USERS\X'MOE\DESKTOP\KRKREXTRACT\KRKREXTRACT\KRKREXTRACTDLL\ONIG\ENC\ISO8859_16.C
/c /I.\ /Zi /nologo /W3 /WX- /Ox /Ob2 /Oi /Ot /Oy- /GL /D ONIG_EXTERN=extern /D HAVE_CONFIG_H /D NOT_RUBY /D EXPORT /D WIN32 /D NDEBUG /D _LIB /D _UNICODE /D UNICODE /Gm- /EHsc /MT /GS /Gy /fp:precise /Zc:wchar_t /Zc:forScope /Fo"RELEASE\\" /Fd"RELEASE\VC120.PDB" /Gd /TC /analyze- C:\USERS\X'MOE\DESKTOP\KRKREXTRACT\KRKREXTRACT\KRKREXTRACTDLL\ONIG\ENC\ISO8859_16.C
^C:\USERS\X'MOE\DESKTOP\KRKREXTRACT\KRKREXTRACT\KRKREXTRACTDLL\ONIG\ENC\ISO8859_2.C
/c /I.\ /Zi /nologo /W3 /WX- /Ox /Ob2 /Oi /Ot /Oy- /GL /D ONIG_EXTERN=extern /D HAVE_CONFIG_H /D NOT_RUBY /D EXPORT /D WIN32 /D NDEBUG /D _LIB /D _UNICODE /D UNICODE /Gm- /EHsc /MT /GS /Gy /fp:precise /Zc:wchar_t /Zc:forScope /Fo"RELEASE\\" /Fd"RELEASE\VC120.PDB" /Gd /TC /analyze- C:\USERS\X'MOE\DESKTOP\KRKREXTRACT\KRKREXTRACT\KRKREXTRACTDLL\ONIG\ENC\ISO8859_2.C
^C:\USERS\X'MOE\DESKTOP\KRKREXTRACT\KRKREXTRACT\KRKREXTRACTDLL\ONIG\ENC\ISO8859_3.C
/c /I.\ /Zi /nologo /W3 /WX- /Ox /Ob2 /Oi /Ot /Oy- /GL /D ONIG_EXTERN=extern /D HAVE_CONFIG_H /D NOT_RUBY /D EXPORT /D WIN32 /D NDEBUG /D _LIB /D _UNICODE /D UNICODE /Gm- /EHsc /MT /GS /Gy /fp:precise /Zc:wchar_t /Zc:forScope /Fo"RELEASE\\" /Fd"RELEASE\VC120.PDB" /Gd /TC /analyze- C:\USERS\X'MOE\DESKTOP\KRKREXTRACT\KRKREXTRACT\KRKREXTRACTDLL\ONIG\ENC\ISO8859_3.C
^C:\USERS\X'MOE\DESKTOP\KRKREXTRACT\KRKREXTRACT\KRKREXTRACTDLL\ONIG\ENC\ISO8859_4.C
/c /I.\ /Zi /nologo /W3 /WX- /Ox /Ob2 /Oi /Ot /Oy- /GL /D ONIG_EXTERN=extern /D HAVE_CONFIG_H /D NOT_RUBY /D EXPORT /D WIN32 /D NDEBUG /D _LIB /D _UNICODE /D UNICODE /Gm- /EHsc /MT /GS /Gy /fp:precise /Zc:wchar_t /Zc:forScope /Fo"RELEASE\\" /Fd"RELEASE\VC120.PDB" /Gd /TC /analyze- C:\USERS\X'MOE\DESKTOP\KRKREXTRACT\KRKREXTRACT\KRKREXTRACTDLL\ONIG\ENC\ISO8859_4.C
^C:\USERS\X'MOE\DESKTOP\KRKREXTRACT\KRKREXTRACT\KRKREXTRACTDLL\ONIG\ENC\ISO8859_5.C
/c /I.\ /Zi /nologo /W3 /WX- /Ox /Ob2 /Oi /Ot /Oy- /GL /D ONIG_EXTERN=extern /D HAVE_CONFIG_H /D NOT_RUBY /D EXPORT /D WIN32 /D NDEBUG /D _LIB /D _UNICODE /D UNICODE /Gm- /EHsc /MT /GS /Gy /fp:precise /Zc:wchar_t /Zc:forScope /Fo"RELEASE\\" /Fd"RELEASE\VC120.PDB" /Gd /TC /analyze- C:\USERS\X'MOE\DESKTOP\KRKREXTRACT\KRKREXTRACT\KRKREXTRACTDLL\ONIG\ENC\ISO8859_5.C
^C:\USERS\X'MOE\DESKTOP\KRKREXTRACT\KRKREXTRACT\KRKREXTRACTDLL\ONIG\ENC\ISO8859_6.C
/c /I.\ /Zi /nologo /W3 /WX- /Ox /Ob2 /Oi /Ot /Oy- /GL /D ONIG_EXTERN=extern /D HAVE_CONFIG_H /D NOT_RUBY /D EXPORT /D WIN32 /D NDEBUG /D _LIB /D _UNICODE /D UNICODE /Gm- /EHsc /MT /GS /Gy /fp:precise /Zc:wchar_t /Zc:forScope /Fo"RELEASE\\" /Fd"RELEASE\VC120.PDB" /Gd /TC /analyze- C:\USERS\X'MOE\DESKTOP\KRKREXTRACT\KRKREXTRACT\KRKREXTRACTDLL\ONIG\ENC\ISO8859_6.C
^C:\USERS\X'MOE\DESKTOP\KRKREXTRACT\KRKREXTRACT\KRKREXTRACTDLL\ONIG\ENC\ISO8859_7.C
/c /I.\ /Zi /nologo /W3 /WX- /Ox /Ob2 /Oi /Ot /Oy- /GL /D ONIG_EXTERN=extern /D HAVE_CONFIG_H /D NOT_RUBY /D EXPORT /D WIN32 /D NDEBUG /D _LIB /D _UNICODE /D UNICODE /Gm- /EHsc /MT /GS /Gy /fp:precise /Zc:wchar_t /Zc:forScope /Fo"RELEASE\\" /Fd"RELEASE\VC120.PDB" /Gd /TC /analyze- C:\USERS\X'MOE\DESKTOP\KRKREXTRACT\KRKREXTRACT\KRKREXTRACTDLL\ONIG\ENC\ISO8859_7.C
^C:\USERS\X'MOE\DESKTOP\KRKREXTRACT\KRKREXTRACT\KRKREXTRACTDLL\ONIG\ENC\ISO8859_8.C
/c /I.\ /Zi /nologo /W3 /WX- /Ox /Ob2 /Oi /Ot /Oy- /GL /D ONIG_EXTERN=extern /D HAVE_CONFIG_H /D NOT_RUBY /D EXPORT /D WIN32 /D NDEBUG /D _LIB /D _UNICODE /D UNICODE /Gm- /EHsc /MT /GS /Gy /fp:precise /Zc:wchar_t /Zc:forScope /Fo"RELEASE\\" /Fd"RELEASE\VC120.PDB" /Gd /TC /analyze- C:\USERS\X'MOE\DESKTOP\KRKREXTRACT\KRKREXTRACT\KRKREXTRACTDLL\ONIG\ENC\ISO8859_8.C
^C:\USERS\X'MOE\DESKTOP\KRKREXTRACT\KRKREXTRACT\KRKREXTRACTDLL\ONIG\ENC\ISO8859_9.C
/c /I.\ /Zi /nologo /W3 /WX- /Ox /Ob2 /Oi /Ot /Oy- /GL /D ONIG_EXTERN=extern /D HAVE_CONFIG_H /D NOT_RUBY /D EXPORT /D WIN32 /D NDEBUG /D _LIB /D _UNICODE /D UNICODE /Gm- /EHsc /MT /GS /Gy /fp:precise /Zc:wchar_t /Zc:forScope /Fo"RELEASE\\" /Fd"RELEASE\VC120.PDB" /Gd /TC /analyze- C:\USERS\X'MOE\DESKTOP\KRKREXTRACT\KRKREXTRACT\KRKREXTRACTDLL\ONIG\ENC\ISO8859_9.C
^C:\USERS\X'MOE\DESKTOP\KRKREXTRACT\KRKREXTRACT\KRKREXTRACTDLL\ONIG\ENC\KOI8.C
/c /I.\ /Zi /nologo /W3 /WX- /Ox /Ob2 /Oi /Ot /Oy- /GL /D ONIG_EXTERN=extern /D HAVE_CONFIG_H /D NOT_RUBY /D EXPORT /D WIN32 /D NDEBUG /D _LIB /D _UNICODE /D UNICODE /Gm- /EHsc /MT /GS /Gy /fp:precise /Zc:wchar_t /Zc:forScope /Fo"RELEASE\\" /Fd"RELEASE\VC120.PDB" /Gd /TC /analyze- C:\USERS\X'MOE\DESKTOP\KRKREXTRACT\KRKREXTRACT\KRKREXTRACTDLL\ONIG\ENC\KOI8.C
^C:\USERS\X'MOE\DESKTOP\KRKREXTRACT\KRKREXTRACT\KRKREXTRACTDLL\ONIG\ENC\KOI8_R.C
/c /I.\ /Zi /nologo /W3 /WX- /Ox /Ob2 /Oi /Ot /Oy- /GL /D ONIG_EXTERN=extern /D HAVE_CONFIG_H /D NOT_RUBY /D EXPORT /D WIN32 /D NDEBUG /D _LIB /D _UNICODE /D UNICODE /Gm- /EHsc /MT /GS /Gy /fp:precise /Zc:wchar_t /Zc:forScope /Fo"RELEASE\\" /Fd"RELEASE\VC120.PDB" /Gd /TC /analyze- C:\USERS\X'MOE\DESKTOP\KRKREXTRACT\KRKREXTRACT\KRKREXTRACTDLL\ONIG\ENC\KOI8_R.C
^C:\USERS\X'MOE\DESKTOP\KRKREXTRACT\KRKREXTRACT\KRKREXTRACTDLL\ONIG\ENC\SJIS.C
/c /I.\ /Zi /nologo /W3 /WX- /Ox /Ob2 /Oi /Ot /Oy- /GL /D ONIG_EXTERN=extern /D HAVE_CONFIG_H /D NOT_RUBY /D EXPORT /D WIN32 /D NDEBUG /D _LIB /D _UNICODE /D UNICODE /Gm- /EHsc /MT /GS /Gy /fp:precise /Zc:wchar_t /Zc:forScope /Fo"RELEASE\\" /Fd"RELEASE\VC120.PDB" /Gd /TC /analyze- C:\USERS\X'MOE\DESKTOP\KRKREXTRACT\KRKREXTRACT\KRKREXTRACTDLL\ONIG\ENC\SJIS.C
^C:\USERS\X'MOE\DESKTOP\KRKREXTRACT\KRKREXTRACT\KRKREXTRACTDLL\ONIG\ENC\UNICODE.C
/c /I.\ /Zi /nologo /W3 /WX- /Ox /Ob2 /Oi /Ot /Oy- /GL /D ONIG_EXTERN=extern /D HAVE_CONFIG_H /D NOT_RUBY /D EXPORT /D WIN32 /D NDEBUG /D _LIB /D _UNICODE /D UNICODE /Gm- /EHsc /MT /GS /Gy /fp:precise /Zc:wchar_t /Zc:forScope /Fo"RELEASE\\" /Fd"RELEASE\VC120.PDB" /Gd /TC /analyze- C:\USERS\X'MOE\DESKTOP\KRKREXTRACT\KRKREXTRACT\KRKREXTRACTDLL\ONIG\ENC\UNICODE.C
^C:\USERS\X'MOE\DESKTOP\KRKREXTRACT\KRKREXTRACT\KRKREXTRACTDLL\ONIG\ENC\UTF16_BE.C
/c /I.\ /Zi /nologo /W3 /WX- /Ox /Ob2 /Oi /Ot /Oy- /GL /D ONIG_EXTERN=extern /D HAVE_CONFIG_H /D NOT_RUBY /D EXPORT /D WIN32 /D NDEBUG /D _LIB /D _UNICODE /D UNICODE /Gm- /EHsc /MT /GS /Gy /fp:precise /Zc:wchar_t /Zc:forScope /Fo"RELEASE\\" /Fd"RELEASE\VC120.PDB" /Gd /TC /analyze- C:\USERS\X'MOE\DESKTOP\KRKREXTRACT\KRKREXTRACT\KRKREXTRACTDLL\ONIG\ENC\UTF16_BE.C
^C:\USERS\X'MOE\DESKTOP\KRKREXTRACT\KRKREXTRACT\KRKREXTRACTDLL\ONIG\ENC\UTF16_LE.C
/c /I.\ /Zi /nologo /W3 /WX- /Ox /Ob2 /Oi /Ot /Oy- /GL /D ONIG_EXTERN=extern /D HAVE_CONFIG_H /D NOT_RUBY /D EXPORT /D WIN32 /D NDEBUG /D _LIB /D _UNICODE /D UNICODE /Gm- /EHsc /MT /GS /Gy /fp:precise /Zc:wchar_t /Zc:forScope /Fo"RELEASE\\" /Fd"RELEASE\VC120.PDB" /Gd /TC /analyze- C:\USERS\X'MOE\DESKTOP\KRKREXTRACT\KRKREXTRACT\KRKREXTRACTDLL\ONIG\ENC\UTF16_LE.C
^C:\USERS\X'MOE\DESKTOP\KRKREXTRACT\KRKREXTRACT\KRKREXTRACTDLL\ONIG\ENC\UTF32_BE.C
/c /I.\ /Zi /nologo /W3 /WX- /Ox /Ob2 /Oi /Ot /Oy- /GL /D ONIG_EXTERN=extern /D HAVE_CONFIG_H /D NOT_RUBY /D EXPORT /D WIN32 /D NDEBUG /D _LIB /D _UNICODE /D UNICODE /Gm- /EHsc /MT /GS /Gy /fp:precise /Zc:wchar_t /Zc:forScope /Fo"RELEASE\\" /Fd"RELEASE\VC120.PDB" /Gd /TC /analyze- C:\USERS\X'MOE\DESKTOP\KRKREXTRACT\KRKREXTRACT\KRKREXTRACTDLL\ONIG\ENC\UTF32_BE.C
^C:\USERS\X'MOE\DESKTOP\KRKREXTRACT\KRKREXTRACT\KRKREXTRACTDLL\ONIG\ENC\UTF32_LE.C
/c /I.\ /Zi /nologo /W3 /WX- /Ox /Ob2 /Oi /Ot /Oy- /GL /D ONIG_EXTERN=extern /D HAVE_CONFIG_H /D NOT_RUBY /D EXPORT /D WIN32 /D NDEBUG /D _LIB /D _UNICODE /D UNICODE /Gm- /EHsc /MT /GS /Gy /fp:precise /Zc:wchar_t /Zc:forScope /Fo"RELEASE\\" /Fd"RELEASE\VC120.PDB" /Gd /TC /analyze- C:\USERS\X'MOE\DESKTOP\KRKREXTRACT\KRKREXTRACT\KRKREXTRACTDLL\ONIG\ENC\UTF32_LE.C
^C:\USERS\X'MOE\DESKTOP\KRKREXTRACT\KRKREXTRACT\KRKREXTRACTDLL\ONIG\ENC\UTF8.C
/c /I.\ /Zi /nologo /W3 /WX- /Ox /Ob2 /Oi /Ot /Oy- /GL /D ONIG_EXTERN=extern /D HAVE_CONFIG_H /D NOT_RUBY /D EXPORT /D WIN32 /D NDEBUG /D _LIB /D _UNICODE /D UNICODE /Gm- /EHsc /MT /GS /Gy /fp:precise /Zc:wchar_t /Zc:forScope /Fo"RELEASE\\" /Fd"RELEASE\VC120.PDB" /Gd /TC /analyze- C:\USERS\X'MOE\DESKTOP\KRKREXTRACT\KRKREXTRACT\KRKREXTRACTDLL\ONIG\ENC\UTF8.C
^C:\USERS\X'MOE\DESKTOP\KRKREXTRACT\KRKREXTRACT\KRKREXTRACTDLL\ONIG\REGCOMP.C
/c /I.\ /Zi /nologo /W3 /WX- /Ox /Ob2 /Oi /Ot /Oy- /GL /D ONIG_EXTERN=extern /D HAVE_CONFIG_H /D NOT_RUBY /D EXPORT /D WIN32 /D NDEBUG /D _LIB /D _UNICODE /D UNICODE /Gm- /EHsc /MT /GS /Gy /fp:precise /Zc:wchar_t /Zc:forScope /Fo"RELEASE\\" /Fd"RELEASE\VC120.PDB" /Gd /TC /analyze- C:\USERS\X'MOE\DESKTOP\KRKREXTRACT\KRKREXTRACT\KRKREXTRACTDLL\ONIG\REGCOMP.C
^C:\USERS\X'MOE\DESKTOP\KRKREXTRACT\KRKREXTRACT\KRKREXTRACTDLL\ONIG\REGENC.C
/c /I.\ /Zi /nologo /W3 /WX- /Ox /Ob2 /Oi /Ot /Oy- /GL /D ONIG_EXTERN=extern /D HAVE_CONFIG_H /D NOT_RUBY /D EXPORT /D WIN32 /D NDEBUG /D _LIB /D _UNICODE /D UNICODE /Gm- /EHsc /MT /GS /Gy /fp:precise /Zc:wchar_t /Zc:forScope /Fo"RELEASE\\" /Fd"RELEASE\VC120.PDB" /Gd /TC /analyze- C:\USERS\X'MOE\DESKTOP\KRKREXTRACT\KRKREXTRACT\KRKREXTRACTDLL\ONIG\REGENC.C
^C:\USERS\X'MOE\DESKTOP\KRKREXTRACT\KRKREXTRACT\KRKREXTRACTDLL\ONIG\REGERROR.C
/c /I.\ /Zi /nologo /W3 /WX- /Ox /Ob2 /Oi /Ot /Oy- /GL /D ONIG_EXTERN=extern /D HAVE_CONFIG_H /D NOT_RUBY /D EXPORT /D WIN32 /D NDEBUG /D _LIB /D _UNICODE /D UNICODE /Gm- /EHsc /MT /GS /Gy /fp:precise /Zc:wchar_t /Zc:forScope /Fo"RELEASE\\" /Fd"RELEASE\VC120.PDB" /Gd /TC /analyze- C:\USERS\X'MOE\DESKTOP\KRKREXTRACT\KRKREXTRACT\KRKREXTRACTDLL\ONIG\REGERROR.C
^C:\USERS\X'MOE\DESKTOP\KRKREXTRACT\KRKREXTRACT\KRKREXTRACTDLL\ONIG\REGEXEC.C
/c /I.\ /Zi /nologo /W3 /WX- /Ox /Ob2 /Oi /Ot /Oy- /GL /D ONIG_EXTERN=extern /D HAVE_CONFIG_H /D NOT_RUBY /D EXPORT /D WIN32 /D NDEBUG /D _LIB /D _UNICODE /D UNICODE /Gm- /EHsc /MT /GS /Gy /fp:precise /Zc:wchar_t /Zc:forScope /Fo"RELEASE\\" /Fd"RELEASE\VC120.PDB" /Gd /TC /analyze- C:\USERS\X'MOE\DESKTOP\KRKREXTRACT\KRKREXTRACT\KRKREXTRACTDLL\ONIG\REGEXEC.C
^C:\USERS\X'MOE\DESKTOP\KRKREXTRACT\KRKREXTRACT\KRKREXTRACTDLL\ONIG\REGEXT.C
/c /I.\ /Zi /nologo /W3 /WX- /Ox /Ob2 /Oi /Ot /Oy- /GL /D ONIG_EXTERN=extern /D HAVE_CONFIG_H /D NOT_RUBY /D EXPORT /D WIN32 /D NDEBUG /D _LIB /D _UNICODE /D UNICODE /Gm- /EHsc /MT /GS /Gy /fp:precise /Zc:wchar_t /Zc:forScope /Fo"RELEASE\\" /Fd"RELEASE\VC120.PDB" /Gd /TC /analyze- C:\USERS\X'MOE\DESKTOP\KRKREXTRACT\KRKREXTRACT\KRKREXTRACTDLL\ONIG\REGEXT.C
^C:\USERS\X'MOE\DESKTOP\KRKREXTRACT\KRKREXTRACT\KRKREXTRACTDLL\ONIG\REGGNU.C
/c /I.\ /Zi /nologo /W3 /WX- /Ox /Ob2 /Oi /Ot /Oy- /GL /D ONIG_EXTERN=extern /D HAVE_CONFIG_H /D NOT_RUBY /D EXPORT /D WIN32 /D NDEBUG /D _LIB /D _UNICODE /D UNICODE /Gm- /EHsc /MT /GS /Gy /fp:precise /Zc:wchar_t /Zc:forScope /Fo"RELEASE\\" /Fd"RELEASE\VC120.PDB" /Gd /TC /analyze- C:\USERS\X'MOE\DESKTOP\KRKREXTRACT\KRKREXTRACT\KRKREXTRACTDLL\ONIG\REGGNU.C
^C:\USERS\X'MOE\DESKTOP\KRKREXTRACT\KRKREXTRACT\KRKREXTRACTDLL\ONIG\REGPARSE.C
/c /I.\ /Zi /nologo /W3 /WX- /Ox /Ob2 /Oi /Ot /Oy- /GL /D ONIG_EXTERN=extern /D HAVE_CONFIG_H /D NOT_RUBY /D EXPORT /D WIN32 /D NDEBUG /D _LIB /D _UNICODE /D UNICODE /Gm- /EHsc /MT /GS /Gy /fp:precise /Zc:wchar_t /Zc:forScope /Fo"RELEASE\\" /Fd"RELEASE\VC120.PDB" /Gd /TC /analyze- C:\USERS\X'MOE\DESKTOP\KRKREXTRACT\KRKREXTRACT\KRKREXTRACTDLL\ONIG\REGPARSE.C
^C:\USERS\X'MOE\DESKTOP\KRKREXTRACT\KRKREXTRACT\KRKREXTRACTDLL\ONIG\REGPOSERR.C
/c /I.\ /Zi /nologo /W3 /WX- /Ox /Ob2 /Oi /Ot /Oy- /GL /D ONIG_EXTERN=extern /D HAVE_CONFIG_H /D NOT_RUBY /D EXPORT /D WIN32 /D NDEBUG /D _LIB /D _UNICODE /D UNICODE /Gm- /EHsc /MT /GS /Gy /fp:precise /Zc:wchar_t /Zc:forScope /Fo"RELEASE\\" /Fd"RELEASE\VC120.PDB" /Gd /TC /analyze- C:\USERS\X'MOE\DESKTOP\KRKREXTRACT\KRKREXTRACT\KRKREXTRACTDLL\ONIG\REGPOSERR.C
^C:\USERS\X'MOE\DESKTOP\KRKREXTRACT\KRKREXTRACT\KRKREXTRACTDLL\ONIG\REGPOSIX.C
/c /I.\ /Zi /nologo /W3 /WX- /Ox /Ob2 /Oi /Ot /Oy- /GL /D ONIG_EXTERN=extern /D HAVE_CONFIG_H /D NOT_RUBY /D EXPORT /D WIN32 /D NDEBUG /D _LIB /D _UNICODE /D UNICODE /Gm- /EHsc /MT /GS /Gy /fp:precise /Zc:wchar_t /Zc:forScope /Fo"RELEASE\\" /Fd"RELEASE\VC120.PDB" /Gd /TC /analyze- C:\USERS\X'MOE\DESKTOP\KRKREXTRACT\KRKREXTRACT\KRKREXTRACTDLL\ONIG\REGPOSIX.C
^C:\USERS\X'MOE\DESKTOP\KRKREXTRACT\KRKREXTRACT\KRKREXTRACTDLL\ONIG\REGSYNTAX.C
/c /I.\ /Zi /nologo /W3 /WX- /Ox /Ob2 /Oi /Ot /Oy- /GL /D ONIG_EXTERN=extern /D HAVE_CONFIG_H /D NOT_RUBY /D EXPORT /D WIN32 /D NDEBUG /D _LIB /D _UNICODE /D UNICODE /Gm- /EHsc /MT /GS /Gy /fp:precise /Zc:wchar_t /Zc:forScope /Fo"RELEASE\\" /Fd"RELEASE\VC120.PDB" /Gd /TC /analyze- C:\USERS\X'MOE\DESKTOP\KRKREXTRACT\KRKREXTRACT\KRKREXTRACTDLL\ONIG\REGSYNTAX.C
^C:\USERS\X'MOE\DESKTOP\KRKREXTRACT\KRKREXTRACT\KRKREXTRACTDLL\ONIG\REGTRAV.C
/c /I.\ /Zi /nologo /W3 /WX- /Ox /Ob2 /Oi /Ot /Oy- /GL /D ONIG_EXTERN=extern /D HAVE_CONFIG_H /D NOT_RUBY /D EXPORT /D WIN32 /D NDEBUG /D _LIB /D _UNICODE /D UNICODE /Gm- /EHsc /MT /GS /Gy /fp:precise /Zc:wchar_t /Zc:forScope /Fo"RELEASE\\" /Fd"RELEASE\VC120.PDB" /Gd /TC /analyze- C:\USERS\X'MOE\DESKTOP\KRKREXTRACT\KRKREXTRACT\KRKREXTRACTDLL\ONIG\REGTRAV.C
^C:\USERS\X'MOE\DESKTOP\KRKREXTRACT\KRKREXTRACT\KRKREXTRACTDLL\ONIG\REGVERSION.C
/c /I.\ /Zi /nologo /W3 /WX- /Ox /Ob2 /Oi /Ot /Oy- /GL /D ONIG_EXTERN=extern /D HAVE_CONFIG_H /D NOT_RUBY /D EXPORT /D WIN32 /D NDEBUG /D _LIB /D _UNICODE /D UNICODE /Gm- /EHsc /MT /GS /Gy /fp:precise /Zc:wchar_t /Zc:forScope /Fo"RELEASE\\" /Fd"RELEASE\VC120.PDB" /Gd /TC /analyze- C:\USERS\X'MOE\DESKTOP\KRKREXTRACT\KRKREXTRACT\KRKREXTRACTDLL\ONIG\REGVERSION.C
^C:\USERS\X'MOE\DESKTOP\KRKREXTRACT\KRKREXTRACT\KRKREXTRACTDLL\ONIG\ST.C
/c /I.\ /Zi /nologo /W3 /WX- /Ox /Ob2 /Oi /Ot /Oy- /GL /D ONIG_EXTERN=extern /D HAVE_CONFIG_H /D NOT_RUBY /D EXPORT /D WIN32 /D NDEBUG /D _LIB /D _UNICODE /D UNICODE /Gm- /EHsc /MT /GS /Gy /fp:precise /Zc:wchar_t /Zc:forScope /Fo"RELEASE\\" /Fd"RELEASE\VC120.PDB" /Gd /TC /analyze- C:\USERS\X'MOE\DESKTOP\KRKREXTRACT\KRKREXTRACT\KRKREXTRACTDLL\ONIG\ST.C
^E:\GITPOOL\KRKREXTRACT\KRKREXTRACT\KRKREXTRACT\KRKREXTRACTDLL\ONIG\ENC\ASCII.C
/c /I.\ /Zi /nologo /W3 /WX- /Ox /Ob2 /Oi /Ot /Oy- /GL /D ONIG_EXTERN=extern /D HAVE_CONFIG_H /D NOT_RUBY /D EXPORT /D WIN32 /D NDEBUG /D _LIB /D _UNICODE /D UNICODE /Gm- /EHsc /MT /GS /Gy /Zc:wchar_t /Zc:forScope /Fo"RELEASE\\" /Fd"RELEASE\VC120.PDB" /Gd /TC /analyze- E:\GITPOOL\KRKREXTRACT\KRKREXTRACT\KRKREXTRACT\KRKREXTRACTDLL\ONIG\ENC\ASCII.C
^E:\GITPOOL\KRKREXTRACT\KRKREXTRACT\KRKREXTRACT\KRKREXTRACTDLL\ONIG\ENC\BIG5.C
/c /I.\ /Zi /nologo /W3 /WX- /Ox /Ob2 /Oi /Ot /Oy- /GL /D ONIG_EXTERN=extern /D HAVE_CONFIG_H /D NOT_RUBY /D EXPORT /D WIN32 /D NDEBUG /D _LIB /D _UNICODE /D UNICODE /Gm- /EHsc /MT /GS /Gy /Zc:wchar_t /Zc:forScope /Fo"RELEASE\\" /Fd"RELEASE\VC120.PDB" /Gd /TC /analyze- E:\GITPOOL\KRKREXTRACT\KRKREXTRACT\KRKREXTRACT\KRKREXTRACTDLL\ONIG\ENC\BIG5.C
^E:\GITPOOL\KRKREXTRACT\KRKREXTRACT\KRKREXTRACT\KRKREXTRACTDLL\ONIG\ENC\CP1251.C
/c /I.\ /Zi /nologo /W3 /WX- /Ox /Ob2 /Oi /Ot /Oy- /GL /D ONIG_EXTERN=extern /D HAVE_CONFIG_H /D NOT_RUBY /D EXPORT /D WIN32 /D NDEBUG /D _LIB /D _UNICODE /D UNICODE /Gm- /EHsc /MT /GS /Gy /Zc:wchar_t /Zc:forScope /Fo"RELEASE\\" /Fd"RELEASE\VC120.PDB" /Gd /TC /analyze- E:\GITPOOL\KRKREXTRACT\KRKREXTRACT\KRKREXTRACT\KRKREXTRACTDLL\ONIG\ENC\CP1251.C
^E:\GITPOOL\KRKREXTRACT\KRKREXTRACT\KRKREXTRACT\KRKREXTRACTDLL\ONIG\ENC\EUC_JP.C
/c /I.\ /Zi /nologo /W3 /WX- /Ox /Ob2 /Oi /Ot /Oy- /GL /D ONIG_EXTERN=extern /D HAVE_CONFIG_H /D NOT_RUBY /D EXPORT /D WIN32 /D NDEBUG /D _LIB /D _UNICODE /D UNICODE /Gm- /EHsc /MT /GS /Gy /Zc:wchar_t /Zc:forScope /Fo"RELEASE\\" /Fd"RELEASE\VC120.PDB" /Gd /TC /analyze- E:\GITPOOL\KRKREXTRACT\KRKREXTRACT\KRKREXTRACT\KRKREXTRACTDLL\ONIG\ENC\EUC_JP.C
^E:\GITPOOL\KRKREXTRACT\KRKREXTRACT\KRKREXTRACT\KRKREXTRACTDLL\ONIG\ENC\EUC_KR.C
/c /I.\ /Zi /nologo /W3 /WX- /Ox /Ob2 /Oi /Ot /Oy- /GL /D ONIG_EXTERN=extern /D HAVE_CONFIG_H /D NOT_RUBY /D EXPORT /D WIN32 /D NDEBUG /D _LIB /D _UNICODE /D UNICODE /Gm- /EHsc /MT /GS /Gy /Zc:wchar_t /Zc:forScope /Fo"RELEASE\\" /Fd"RELEASE\VC120.PDB" /Gd /TC /analyze- E:\GITPOOL\KRKREXTRACT\KRKREXTRACT\KRKREXTRACT\KRKREXTRACTDLL\ONIG\ENC\EUC_KR.C
^E:\GITPOOL\KRKREXTRACT\KRKREXTRACT\KRKREXTRACT\KRKREXTRACTDLL\ONIG\ENC\EUC_TW.C
/c /I.\ /Zi /nologo /W3 /WX- /Ox /Ob2 /Oi /Ot /Oy- /GL /D ONIG_EXTERN=extern /D HAVE_CONFIG_H /D NOT_RUBY /D EXPORT /D WIN32 /D NDEBUG /D _LIB /D _UNICODE /D UNICODE /Gm- /EHsc /MT /GS /Gy /Zc:wchar_t /Zc:forScope /Fo"RELEASE\\" /Fd"RELEASE\VC120.PDB" /Gd /TC /analyze- E:\GITPOOL\KRKREXTRACT\KRKREXTRACT\KRKREXTRACT\KRKREXTRACTDLL\ONIG\ENC\EUC_TW.C
^E:\GITPOOL\KRKREXTRACT\KRKREXTRACT\KRKREXTRACT\KRKREXTRACTDLL\ONIG\ENC\GB18030.C
/c /I.\ /Zi /nologo /W3 /WX- /Ox /Ob2 /Oi /Ot /Oy- /GL /D ONIG_EXTERN=extern /D HAVE_CONFIG_H /D NOT_RUBY /D EXPORT /D WIN32 /D NDEBUG /D _LIB /D _UNICODE /D UNICODE /Gm- /EHsc /MT /GS /Gy /Zc:wchar_t /Zc:forScope /Fo"RELEASE\\" /Fd"RELEASE\VC120.PDB" /Gd /TC /analyze- E:\GITPOOL\KRKREXTRACT\KRKREXTRACT\KRKREXTRACT\KRKREXTRACTDLL\ONIG\ENC\GB18030.C
^E:\GITPOOL\KRKREXTRACT\KRKREXTRACT\KRKREXTRACT\KRKREXTRACTDLL\ONIG\ENC\ISO8859_1.C
/c /I.\ /Zi /nologo /W3 /WX- /Ox /Ob2 /Oi /Ot /Oy- /GL /D ONIG_EXTERN=extern /D HAVE_CONFIG_H /D NOT_RUBY /D EXPORT /D WIN32 /D NDEBUG /D _LIB /D _UNICODE /D UNICODE /Gm- /EHsc /MT /GS /Gy /Zc:wchar_t /Zc:forScope /Fo"RELEASE\\" /Fd"RELEASE\VC120.PDB" /Gd /TC /analyze- E:\GITPOOL\KRKREXTRACT\KRKREXTRACT\KRKREXTRACT\KRKREXTRACTDLL\ONIG\ENC\ISO8859_1.C
^E:\GITPOOL\KRKREXTRACT\KRKREXTRACT\KRKREXTRACT\KRKREXTRACTDLL\ONIG\ENC\ISO8859_10.C
/c /I.\ /Zi /nologo /W3 /WX- /Ox /Ob2 /Oi /Ot /Oy- /GL /D ONIG_EXTERN=extern /D HAVE_CONFIG_H /D NOT_RUBY /D EXPORT /D WIN32 /D NDEBUG /D _LIB /D _UNICODE /D UNICODE /Gm- /EHsc /MT /GS /Gy /Zc:wchar_t /Zc:forScope /Fo"RELEASE\\" /Fd"RELEASE\VC120.PDB" /Gd /TC /analyze- E:\GITPOOL\KRKREXTRACT\KRKREXTRACT\KRKREXTRACT\KRKREXTRACTDLL\ONIG\ENC\ISO8859_10.C
^E:\GITPOOL\KRKREXTRACT\KRKREXTRACT\KRKREXTRACT\KRKREXTRACTDLL\ONIG\ENC\ISO8859_11.C
/c /I.\ /Zi /nologo /W3 /WX- /Ox /Ob2 /Oi /Ot /Oy- /GL /D ONIG_EXTERN=extern /D HAVE_CONFIG_H /D NOT_RUBY /D EXPORT /D WIN32 /D NDEBUG /D _LIB /D _UNICODE /D UNICODE /Gm- /EHsc /MT /GS /Gy /Zc:wchar_t /Zc:forScope /Fo"RELEASE\\" /Fd"RELEASE\VC120.PDB" /Gd /TC /analyze- E:\GITPOOL\KRKREXTRACT\KRKREXTRACT\KRKREXTRACT\KRKREXTRACTDLL\ONIG\ENC\ISO8859_11.C
^E:\GITPOOL\KRKREXTRACT\KRKREXTRACT\KRKREXTRACT\KRKREXTRACTDLL\ONIG\ENC\ISO8859_13.C
/c /I.\ /Zi /nologo /W3 /WX- /Ox /Ob2 /Oi /Ot /Oy- /GL /D ONIG_EXTERN=extern /D HAVE_CONFIG_H /D NOT_RUBY /D EXPORT /D WIN32 /D NDEBUG /D _LIB /D _UNICODE /D UNICODE /Gm- /EHsc /MT /GS /Gy /Zc:wchar_t /Zc:forScope /Fo"RELEASE\\" /Fd"RELEASE\VC120.PDB" /Gd /TC /analyze- E:\GITPOOL\KRKREXTRACT\KRKREXTRACT\KRKREXTRACT\KRKREXTRACTDLL\ONIG\ENC\ISO8859_13.C
^E:\GITPOOL\KRKREXTRACT\KRKREXTRACT\KRKREXTRACT\KRKREXTRACTDLL\ONIG\ENC\ISO8859_14.C
/c /I.\ /Zi /nologo /W3 /WX- /Ox /Ob2 /Oi /Ot /Oy- /GL /D ONIG_EXTERN=extern /D HAVE_CONFIG_H /D NOT_RUBY /D EXPORT /D WIN32 /D NDEBUG /D _LIB /D _UNICODE /D UNICODE /Gm- /EHsc /MT /GS /Gy /Zc:wchar_t /Zc:forScope /Fo"RELEASE\\" /Fd"RELEASE\VC120.PDB" /Gd /TC /analyze- E:\GITPOOL\KRKREXTRACT\KRKREXTRACT\KRKREXTRACT\KRKREXTRACTDLL\ONIG\ENC\ISO8859_14.C
^E:\GITPOOL\KRKREXTRACT\KRKREXTRACT\KRKREXTRACT\KRKREXTRACTDLL\ONIG\ENC\ISO8859_15.C
/c /I.\ /Zi /nologo /W3 /WX- /Ox /Ob2 /Oi /Ot /Oy- /GL /D ONIG_EXTERN=extern /D HAVE_CONFIG_H /D NOT_RUBY /D EXPORT /D WIN32 /D NDEBUG /D _LIB /D _UNICODE /D UNICODE /Gm- /EHsc /MT /GS /Gy /Zc:wchar_t /Zc:forScope /Fo"RELEASE\\" /Fd"RELEASE\VC120.PDB" /Gd /TC /analyze- E:\GITPOOL\KRKREXTRACT\KRKREXTRACT\KRKREXTRACT\KRKREXTRACTDLL\ONIG\ENC\ISO8859_15.C
^E:\GITPOOL\KRKREXTRACT\KRKREXTRACT\KRKREXTRACT\KRKREXTRACTDLL\ONIG\ENC\ISO8859_16.C
/c /I.\ /Zi /nologo /W3 /WX- /Ox /Ob2 /Oi /Ot /Oy- /GL /D ONIG_EXTERN=extern /D HAVE_CONFIG_H /D NOT_RUBY /D EXPORT /D WIN32 /D NDEBUG /D _LIB /D _UNICODE /D UNICODE /Gm- /EHsc /MT /GS /Gy /Zc:wchar_t /Zc:forScope /Fo"RELEASE\\" /Fd"RELEASE\VC120.PDB" /Gd /TC /analyze- E:\GITPOOL\KRKREXTRACT\KRKREXTRACT\KRKREXTRACT\KRKREXTRACTDLL\ONIG\ENC\ISO8859_16.C
^E:\GITPOOL\KRKREXTRACT\KRKREXTRACT\KRKREXTRACT\KRKREXTRACTDLL\ONIG\ENC\ISO8859_2.C
/c /I.\ /Zi /nologo /W3 /WX- /Ox /Ob2 /Oi /Ot /Oy- /GL /D ONIG_EXTERN=extern /D HAVE_CONFIG_H /D NOT_RUBY /D EXPORT /D WIN32 /D NDEBUG /D _LIB /D _UNICODE /D UNICODE /Gm- /EHsc /MT /GS /Gy /Zc:wchar_t /Zc:forScope /Fo"RELEASE\\" /Fd"RELEASE\VC120.PDB" /Gd /TC /analyze- E:\GITPOOL\KRKREXTRACT\KRKREXTRACT\KRKREXTRACT\KRKREXTRACTDLL\ONIG\ENC\ISO8859_2.C
^E:\GITPOOL\KRKREXTRACT\KRKREXTRACT\KRKREXTRACT\KRKREXTRACTDLL\ONIG\ENC\ISO8859_3.C
/c /I.\ /Zi /nologo /W3 /WX- /Ox /Ob2 /Oi /Ot /Oy- /GL /D ONIG_EXTERN=extern /D HAVE_CONFIG_H /D NOT_RUBY /D EXPORT /D WIN32 /D NDEBUG /D _LIB /D _UNICODE /D UNICODE /Gm- /EHsc /MT /GS /Gy /Zc:wchar_t /Zc:forScope /Fo"RELEASE\\" /Fd"RELEASE\VC120.PDB" /Gd /TC /analyze- E:\GITPOOL\KRKREXTRACT\KRKREXTRACT\KRKREXTRACT\KRKREXTRACTDLL\ONIG\ENC\ISO8859_3.C
^E:\GITPOOL\KRKREXTRACT\KRKREXTRACT\KRKREXTRACT\KRKREXTRACTDLL\ONIG\ENC\ISO8859_4.C
/c /I.\ /Zi /nologo /W3 /WX- /Ox /Ob2 /Oi /Ot /Oy- /GL /D ONIG_EXTERN=extern /D HAVE_CONFIG_H /D NOT_RUBY /D EXPORT /D WIN32 /D NDEBUG /D _LIB /D _UNICODE /D UNICODE /Gm- /EHsc /MT /GS /Gy /Zc:wchar_t /Zc:forScope /Fo"RELEASE\\" /Fd"RELEASE\VC120.PDB" /Gd /TC /analyze- E:\GITPOOL\KRKREXTRACT\KRKREXTRACT\KRKREXTRACT\KRKREXTRACTDLL\ONIG\ENC\ISO8859_4.C
^E:\GITPOOL\KRKREXTRACT\KRKREXTRACT\KRKREXTRACT\KRKREXTRACTDLL\ONIG\ENC\ISO8859_5.C
/c /I.\ /Zi /nologo /W3 /WX- /Ox /Ob2 /Oi /Ot /Oy- /GL /D ONIG_EXTERN=extern /D HAVE_CONFIG_H /D NOT_RUBY /D EXPORT /D WIN32 /D NDEBUG /D _LIB /D _UNICODE /D UNICODE /Gm- /EHsc /MT /GS /Gy /Zc:wchar_t /Zc:forScope /Fo"RELEASE\\" /Fd"RELEASE\VC120.PDB" /Gd /TC /analyze- E:\GITPOOL\KRKREXTRACT\KRKREXTRACT\KRKREXTRACT\KRKREXTRACTDLL\ONIG\ENC\ISO8859_5.C
^E:\GITPOOL\KRKREXTRACT\KRKREXTRACT\KRKREXTRACT\KRKREXTRACTDLL\ONIG\ENC\ISO8859_6.C
/c /I.\ /Zi /nologo /W3 /WX- /Ox /Ob2 /Oi /Ot /Oy- /GL /D ONIG_EXTERN=extern /D HAVE_CONFIG_H /D NOT_RUBY /D EXPORT /D WIN32 /D NDEBUG /D _LIB /D _UNICODE /D UNICODE /Gm- /EHsc /MT /GS /Gy /Zc:wchar_t /Zc:forScope /Fo"RELEASE\\" /Fd"RELEASE\VC120.PDB" /Gd /TC /analyze- E:\GITPOOL\KRKREXTRACT\KRKREXTRACT\KRKREXTRACT\KRKREXTRACTDLL\ONIG\ENC\ISO8859_6.C
^E:\GITPOOL\KRKREXTRACT\KRKREXTRACT\KRKREXTRACT\KRKREXTRACTDLL\ONIG\ENC\ISO8859_7.C
/c /I.\ /Zi /nologo /W3 /WX- /Ox /Ob2 /Oi /Ot /Oy- /GL /D ONIG_EXTERN=extern /D HAVE_CONFIG_H /D NOT_RUBY /D EXPORT /D WIN32 /D NDEBUG /D _LIB /D _UNICODE /D UNICODE /Gm- /EHsc /MT /GS /Gy /Zc:wchar_t /Zc:forScope /Fo"RELEASE\\" /Fd"RELEASE\VC120.PDB" /Gd /TC /analyze- E:\GITPOOL\KRKREXTRACT\KRKREXTRACT\KRKREXTRACT\KRKREXTRACTDLL\ONIG\ENC\ISO8859_7.C
^E:\GITPOOL\KRKREXTRACT\KRKREXTRACT\KRKREXTRACT\KRKREXTRACTDLL\ONIG\ENC\ISO8859_8.C
/c /I.\ /Zi /nologo /W3 /WX- /Ox /Ob2 /Oi /Ot /Oy- /GL /D ONIG_EXTERN=extern /D HAVE_CONFIG_H /D NOT_RUBY /D EXPORT /D WIN32 /D NDEBUG /D _LIB /D _UNICODE /D UNICODE /Gm- /EHsc /MT /GS /Gy /Zc:wchar_t /Zc:forScope /Fo"RELEASE\\" /Fd"RELEASE\VC120.PDB" /Gd /TC /analyze- E:\GITPOOL\KRKREXTRACT\KRKREXTRACT\KRKREXTRACT\KRKREXTRACTDLL\ONIG\ENC\ISO8859_8.C
^E:\GITPOOL\KRKREXTRACT\KRKREXTRACT\KRKREXTRACT\KRKREXTRACTDLL\ONIG\ENC\ISO8859_9.C
/c /I.\ /Zi /nologo /W3 /WX- /Ox /Ob2 /Oi /Ot /Oy- /GL /D ONIG_EXTERN=extern /D HAVE_CONFIG_H /D NOT_RUBY /D EXPORT /D WIN32 /D NDEBUG /D _LIB /D _UNICODE /D UNICODE /Gm- /EHsc /MT /GS /Gy /Zc:wchar_t /Zc:forScope /Fo"RELEASE\\" /Fd"RELEASE\VC120.PDB" /Gd /TC /analyze- E:\GITPOOL\KRKREXTRACT\KRKREXTRACT\KRKREXTRACT\KRKREXTRACTDLL\ONIG\ENC\ISO8859_9.C
^E:\GITPOOL\KRKREXTRACT\KRKREXTRACT\KRKREXTRACT\KRKREXTRACTDLL\ONIG\ENC\KOI8.C
/c /I.\ /Zi /nologo /W3 /WX- /Ox /Ob2 /Oi /Ot /Oy- /GL /D ONIG_EXTERN=extern /D HAVE_CONFIG_H /D NOT_RUBY /D EXPORT /D WIN32 /D NDEBUG /D _LIB /D _UNICODE /D UNICODE /Gm- /EHsc /MT /GS /Gy /Zc:wchar_t /Zc:forScope /Fo"RELEASE\\" /Fd"RELEASE\VC120.PDB" /Gd /TC /analyze- E:\GITPOOL\KRKREXTRACT\KRKREXTRACT\KRKREXTRACT\KRKREXTRACTDLL\ONIG\ENC\KOI8.C
^E:\GITPOOL\KRKREXTRACT\KRKREXTRACT\KRKREXTRACT\KRKREXTRACTDLL\ONIG\ENC\KOI8_R.C
/c /I.\ /Zi /nologo /W3 /WX- /Ox /Ob2 /Oi /Ot /Oy- /GL /D ONIG_EXTERN=extern /D HAVE_CONFIG_H /D NOT_RUBY /D EXPORT /D WIN32 /D NDEBUG /D _LIB /D _UNICODE /D UNICODE /Gm- /EHsc /MT /GS /Gy /Zc:wchar_t /Zc:forScope /Fo"RELEASE\\" /Fd"RELEASE\VC120.PDB" /Gd /TC /analyze- E:\GITPOOL\KRKREXTRACT\KRKREXTRACT\KRKREXTRACT\KRKREXTRACTDLL\ONIG\ENC\KOI8_R.C
^E:\GITPOOL\KRKREXTRACT\KRKREXTRACT\KRKREXTRACT\KRKREXTRACTDLL\ONIG\ENC\SJIS.C
/c /I.\ /Zi /nologo /W3 /WX- /Ox /Ob2 /Oi /Ot /Oy- /GL /D ONIG_EXTERN=extern /D HAVE_CONFIG_H /D NOT_RUBY /D EXPORT /D WIN32 /D NDEBUG /D _LIB /D _UNICODE /D UNICODE /Gm- /EHsc /MT /GS /Gy /Zc:wchar_t /Zc:forScope /Fo"RELEASE\\" /Fd"RELEASE\VC120.PDB" /Gd /TC /analyze- E:\GITPOOL\KRKREXTRACT\KRKREXTRACT\KRKREXTRACT\KRKREXTRACTDLL\ONIG\ENC\SJIS.C
^E:\GITPOOL\KRKREXTRACT\KRKREXTRACT\KRKREXTRACT\KRKREXTRACTDLL\ONIG\ENC\UNICODE.C
/c /I.\ /Zi /nologo /W3 /WX- /Ox /Ob2 /Oi /Ot /Oy- /GL /D ONIG_EXTERN=extern /D HAVE_CONFIG_H /D NOT_RUBY /D EXPORT /D WIN32 /D NDEBUG /D _LIB /D _UNICODE /D UNICODE /Gm- /EHsc /MT /GS /Gy /Zc:wchar_t /Zc:forScope /Fo"RELEASE\\" /Fd"RELEASE\VC120.PDB" /Gd /TC /analyze- E:\GITPOOL\KRKREXTRACT\KRKREXTRACT\KRKREXTRACT\KRKREXTRACTDLL\ONIG\ENC\UNICODE.C
^E:\GITPOOL\KRKREXTRACT\KRKREXTRACT\KRKREXTRACT\KRKREXTRACTDLL\ONIG\ENC\UTF16_BE.C
/c /I.\ /Zi /nologo /W3 /WX- /Ox /Ob2 /Oi /Ot /Oy- /GL /D ONIG_EXTERN=extern /D HAVE_CONFIG_H /D NOT_RUBY /D EXPORT /D WIN32 /D NDEBUG /D _LIB /D _UNICODE /D UNICODE /Gm- /EHsc /MT /GS /Gy /Zc:wchar_t /Zc:forScope /Fo"RELEASE\\" /Fd"RELEASE\VC120.PDB" /Gd /TC /analyze- E:\GITPOOL\KRKREXTRACT\KRKREXTRACT\KRKREXTRACT\KRKREXTRACTDLL\ONIG\ENC\UTF16_BE.C
^E:\GITPOOL\KRKREXTRACT\KRKREXTRACT\KRKREXTRACT\KRKREXTRACTDLL\ONIG\ENC\UTF16_LE.C
/c /I.\ /Zi /nologo /W3 /WX- /Ox /Ob2 /Oi /Ot /Oy- /GL /D ONIG_EXTERN=extern /D HAVE_CONFIG_H /D NOT_RUBY /D EXPORT /D WIN32 /D NDEBUG /D _LIB /D _UNICODE /D UNICODE /Gm- /EHsc /MT /GS /Gy /Zc:wchar_t /Zc:forScope /Fo"RELEASE\\" /Fd"RELEASE\VC120.PDB" /Gd /TC /analyze- E:\GITPOOL\KRKREXTRACT\KRKREXTRACT\KRKREXTRACT\KRKREXTRACTDLL\ONIG\ENC\UTF16_LE.C
^E:\GITPOOL\KRKREXTRACT\KRKREXTRACT\KRKREXTRACT\KRKREXTRACTDLL\ONIG\ENC\UTF32_BE.C
/c /I.\ /Zi /nologo /W3 /WX- /Ox /Ob2 /Oi /Ot /Oy- /GL /D ONIG_EXTERN=extern /D HAVE_CONFIG_H /D NOT_RUBY /D EXPORT /D WIN32 /D NDEBUG /D _LIB /D _UNICODE /D UNICODE /Gm- /EHsc /MT /GS /Gy /Zc:wchar_t /Zc:forScope /Fo"RELEASE\\" /Fd"RELEASE\VC120.PDB" /Gd /TC /analyze- E:\GITPOOL\KRKREXTRACT\KRKREXTRACT\KRKREXTRACT\KRKREXTRACTDLL\ONIG\ENC\UTF32_BE.C
^E:\GITPOOL\KRKREXTRACT\KRKREXTRACT\KRKREXTRACT\KRKREXTRACTDLL\ONIG\ENC\UTF32_LE.C
/c /I.\ /Zi /nologo /W3 /WX- /Ox /Ob2 /Oi /Ot /Oy- /GL /D ONIG_EXTERN=extern /D HAVE_CONFIG_H /D NOT_RUBY /D EXPORT /D WIN32 /D NDEBUG /D _LIB /D _UNICODE /D UNICODE /Gm- /EHsc /MT /GS /Gy /Zc:wchar_t /Zc:forScope /Fo"RELEASE\\" /Fd"RELEASE\VC120.PDB" /Gd /TC /analyze- E:\GITPOOL\KRKREXTRACT\KRKREXTRACT\KRKREXTRACT\KRKREXTRACTDLL\ONIG\ENC\UTF32_LE.C
^E:\GITPOOL\KRKREXTRACT\KRKREXTRACT\KRKREXTRACT\KRKREXTRACTDLL\ONIG\ENC\UTF8.C
/c /I.\ /Zi /nologo /W3 /WX- /Ox /Ob2 /Oi /Ot /Oy- /GL /D ONIG_EXTERN=extern /D HAVE_CONFIG_H /D NOT_RUBY /D EXPORT /D WIN32 /D NDEBUG /D _LIB /D _UNICODE /D UNICODE /Gm- /EHsc /MT /GS /Gy /Zc:wchar_t /Zc:forScope /Fo"RELEASE\\" /Fd"RELEASE\VC120.PDB" /Gd /TC /analyze- E:\GITPOOL\KRKREXTRACT\KRKREXTRACT\KRKREXTRACT\KRKREXTRACTDLL\ONIG\ENC\UTF8.C
^E:\GITPOOL\KRKREXTRACT\KRKREXTRACT\KRKREXTRACT\KRKREXTRACTDLL\ONIG\REGCOMP.C
/c /I.\ /Zi /nologo /W3 /WX- /Ox /Ob2 /Oi /Ot /Oy- /GL /D ONIG_EXTERN=extern /D HAVE_CONFIG_H /D NOT_RUBY /D EXPORT /D WIN32 /D NDEBUG /D _LIB /D _UNICODE /D UNICODE /Gm- /EHsc /MT /GS /Gy /Zc:wchar_t /Zc:forScope /Fo"RELEASE\\" /Fd"RELEASE\VC120.PDB" /Gd /TC /analyze- E:\GITPOOL\KRKREXTRACT\KRKREXTRACT\KRKREXTRACT\KRKREXTRACTDLL\ONIG\REGCOMP.C
^E:\GITPOOL\KRKREXTRACT\KRKREXTRACT\KRKREXTRACT\KRKREXTRACTDLL\ONIG\REGENC.C
/c /I.\ /Zi /nologo /W3 /WX- /Ox /Ob2 /Oi /Ot /Oy- /GL /D ONIG_EXTERN=extern /D HAVE_CONFIG_H /D NOT_RUBY /D EXPORT /D WIN32 /D NDEBUG /D _LIB /D _UNICODE /D UNICODE /Gm- /EHsc /MT /GS /Gy /Zc:wchar_t /Zc:forScope /Fo"RELEASE\\" /Fd"RELEASE\VC120.PDB" /Gd /TC /analyze- E:\GITPOOL\KRKREXTRACT\KRKREXTRACT\KRKREXTRACT\KRKREXTRACTDLL\ONIG\REGENC.C
^E:\GITPOOL\KRKREXTRACT\KRKREXTRACT\KRKREXTRACT\KRKREXTRACTDLL\ONIG\REGERROR.C
/c /I.\ /Zi /nologo /W3 /WX- /Ox /Ob2 /Oi /Ot /Oy- /GL /D ONIG_EXTERN=extern /D HAVE_CONFIG_H /D NOT_RUBY /D EXPORT /D WIN32 /D NDEBUG /D _LIB /D _UNICODE /D UNICODE /Gm- /EHsc /MT /GS /Gy /Zc:wchar_t /Zc:forScope /Fo"RELEASE\\" /Fd"RELEASE\VC120.PDB" /Gd /TC /analyze- E:\GITPOOL\KRKREXTRACT\KRKREXTRACT\KRKREXTRACT\KRKREXTRACTDLL\ONIG\REGERROR.C
^E:\GITPOOL\KRKREXTRACT\KRKREXTRACT\KRKREXTRACT\KRKREXTRACTDLL\ONIG\REGEXEC.C
/c /I.\ /Zi /nologo /W3 /WX- /Ox /Ob2 /Oi /Ot /Oy- /GL /D ONIG_EXTERN=extern /D HAVE_CONFIG_H /D NOT_RUBY /D EXPORT /D WIN32 /D NDEBUG /D _LIB /D _UNICODE /D UNICODE /Gm- /EHsc /MT /GS /Gy /Zc:wchar_t /Zc:forScope /Fo"RELEASE\\" /Fd"RELEASE\VC120.PDB" /Gd /TC /analyze- E:\GITPOOL\KRKREXTRACT\KRKREXTRACT\KRKREXTRACT\KRKREXTRACTDLL\ONIG\REGEXEC.C
^E:\GITPOOL\KRKREXTRACT\KRKREXTRACT\KRKREXTRACT\KRKREXTRACTDLL\ONIG\REGEXT.C
/c /I.\ /Zi /nologo /W3 /WX- /Ox /Ob2 /Oi /Ot /Oy- /GL /D ONIG_EXTERN=extern /D HAVE_CONFIG_H /D NOT_RUBY /D EXPORT /D WIN32 /D NDEBUG /D _LIB /D _UNICODE /D UNICODE /Gm- /EHsc /MT /GS /Gy /Zc:wchar_t /Zc:forScope /Fo"RELEASE\\" /Fd"RELEASE\VC120.PDB" /Gd /TC /analyze- E:\GITPOOL\KRKREXTRACT\KRKREXTRACT\KRKREXTRACT\KRKREXTRACTDLL\ONIG\REGEXT.C
^E:\GITPOOL\KRKREXTRACT\KRKREXTRACT\KRKREXTRACT\KRKREXTRACTDLL\ONIG\REGGNU.C
/c /I.\ /Zi /nologo /W3 /WX- /Ox /Ob2 /Oi /Ot /Oy- /GL /D ONIG_EXTERN=extern /D HAVE_CONFIG_H /D NOT_RUBY /D EXPORT /D WIN32 /D NDEBUG /D _LIB /D _UNICODE /D UNICODE /Gm- /EHsc /MT /GS /Gy /Zc:wchar_t /Zc:forScope /Fo"RELEASE\\" /Fd"RELEASE\VC120.PDB" /Gd /TC /analyze- E:\GITPOOL\KRKREXTRACT\KRKREXTRACT\KRKREXTRACT\KRKREXTRACTDLL\ONIG\REGGNU.C
^E:\GITPOOL\KRKREXTRACT\KRKREXTRACT\KRKREXTRACT\KRKREXTRACTDLL\ONIG\REGPARSE.C
/c /I.\ /Zi /nologo /W3 /WX- /Ox /Ob2 /Oi /Ot /Oy- /GL /D ONIG_EXTERN=extern /D HAVE_CONFIG_H /D NOT_RUBY /D EXPORT /D WIN32 /D NDEBUG /D _LIB /D _UNICODE /D UNICODE /Gm- /EHsc /MT /GS /Gy /Zc:wchar_t /Zc:forScope /Fo"RELEASE\\" /Fd"RELEASE\VC120.PDB" /Gd /TC /analyze- E:\GITPOOL\KRKREXTRACT\KRKREXTRACT\KRKREXTRACT\KRKREXTRACTDLL\ONIG\REGPARSE.C
^E:\GITPOOL\KRKREXTRACT\KRKREXTRACT\KRKREXTRACT\KRKREXTRACTDLL\ONIG\REGPOSERR.C
/c /I.\ /Zi /nologo /W3 /WX- /Ox /Ob2 /Oi /Ot /Oy- /GL /D ONIG_EXTERN=extern /D HAVE_CONFIG_H /D NOT_RUBY /D EXPORT /D WIN32 /D NDEBUG /D _LIB /D _UNICODE /D UNICODE /Gm- /EHsc /MT /GS /Gy /Zc:wchar_t /Zc:forScope /Fo"RELEASE\\" /Fd"RELEASE\VC120.PDB" /Gd /TC /analyze- E:\GITPOOL\KRKREXTRACT\KRKREXTRACT\KRKREXTRACT\KRKREXTRACTDLL\ONIG\REGPOSERR.C
^E:\GITPOOL\KRKREXTRACT\KRKREXTRACT\KRKREXTRACT\KRKREXTRACTDLL\ONIG\REGPOSIX.C
/c /I.\ /Zi /nologo /W3 /WX- /Ox /Ob2 /Oi /Ot /Oy- /GL /D ONIG_EXTERN=extern /D HAVE_CONFIG_H /D NOT_RUBY /D EXPORT /D WIN32 /D NDEBUG /D _LIB /D _UNICODE /D UNICODE /Gm- /EHsc /MT /GS /Gy /Zc:wchar_t /Zc:forScope /Fo"RELEASE\\" /Fd"RELEASE\VC120.PDB" /Gd /TC /analyze- E:\GITPOOL\KRKREXTRACT\KRKREXTRACT\KRKREXTRACT\KRKREXTRACTDLL\ONIG\REGPOSIX.C
^E:\GITPOOL\KRKREXTRACT\KRKREXTRACT\KRKREXTRACT\KRKREXTRACTDLL\ONIG\REGSYNTAX.C
/c /I.\ /Zi /nologo /W3 /WX- /Ox /Ob2 /Oi /Ot /Oy- /GL /D ONIG_EXTERN=extern /D HAVE_CONFIG_H /D NOT_RUBY /D EXPORT /D WIN32 /D NDEBUG /D _LIB /D _UNICODE /D UNICODE /Gm- /EHsc /MT /GS /Gy /Zc:wchar_t /Zc:forScope /Fo"RELEASE\\" /Fd"RELEASE\VC120.PDB" /Gd /TC /analyze- E:\GITPOOL\KRKREXTRACT\KRKREXTRACT\KRKREXTRACT\KRKREXTRACTDLL\ONIG\REGSYNTAX.C
^E:\GITPOOL\KRKREXTRACT\KRKREXTRACT\KRKREXTRACT\KRKREXTRACTDLL\ONIG\REGTRAV.C
/c /I.\ /Zi /nologo /W3 /WX- /Ox /Ob2 /Oi /Ot /Oy- /GL /D ONIG_EXTERN=extern /D HAVE_CONFIG_H /D NOT_RUBY /D EXPORT /D WIN32 /D NDEBUG /D _LIB /D _UNICODE /D UNICODE /Gm- /EHsc /MT /GS /Gy /Zc:wchar_t /Zc:forScope /Fo"RELEASE\\" /Fd"RELEASE\VC120.PDB" /Gd /TC /analyze- E:\GITPOOL\KRKREXTRACT\KRKREXTRACT\KRKREXTRACT\KRKREXTRACTDLL\ONIG\REGTRAV.C
^E:\GITPOOL\KRKREXTRACT\KRKREXTRACT\KRKREXTRACT\KRKREXTRACTDLL\ONIG\REGVERSION.C
/c /I.\ /Zi /nologo /W3 /WX- /Ox /Ob2 /Oi /Ot /Oy- /GL /D ONIG_EXTERN=extern /D HAVE_CONFIG_H /D NOT_RUBY /D EXPORT /D WIN32 /D NDEBUG /D _LIB /D _UNICODE /D UNICODE /Gm- /EHsc /MT /GS /Gy /Zc:wchar_t /Zc:forScope /Fo"RELEASE\\" /Fd"RELEASE\VC120.PDB" /Gd /TC /analyze- E:\GITPOOL\KRKREXTRACT\KRKREXTRACT\KRKREXTRACT\KRKREXTRACTDLL\ONIG\REGVERSION.C
^E:\GITPOOL\KRKREXTRACT\KRKREXTRACT\KRKREXTRACT\KRKREXTRACTDLL\ONIG\ST.C
/c /I.\ /Zi /nologo /W3 /WX- /Ox /Ob2 /Oi /Ot /Oy- /GL /D ONIG_EXTERN=extern /D HAVE_CONFIG_H /D NOT_RUBY /D EXPORT /D WIN32 /D NDEBUG /D _LIB /D _UNICODE /D UNICODE /Gm- /EHsc /MT /GS /Gy /Zc:wchar_t /Zc:forScope /Fo"RELEASE\\" /Fd"RELEASE\VC120.PDB" /Gd /TC /analyze- E:\GITPOOL\KRKREXTRACT\KRKREXTRACT\KRKREXTRACT\KRKREXTRACTDLL\ONIG\ST.C
^D:\GITPOOL\KRKREXTRACT\KRKREXTRACT\KRKREXTRACTDLL\ONIG\ENC\ASCII.C
/c /I.\ /Zi /nologo /W3 /WX- /Ox /Ob2 /Oi /Ot /Oy- /GL /D ONIG_EXTERN=extern /D HAVE_CONFIG_H /D NOT_RUBY /D EXPORT /D WIN32 /D NDEBUG /D _LIB /D _UNICODE /D UNICODE /Gm- /EHsc /MT /GS /Gy /fp:precise /Zc:wchar_t /Zc:forScope /Fo"RELEASE\\" /Fd"RELEASE\VC120.PDB" /Gd /TC /analyze- D:\GITPOOL\KRKREXTRACT\KRKREXTRACT\KRKREXTRACTDLL\ONIG\ENC\ASCII.C
^D:\GITPOOL\KRKREXTRACT\KRKREXTRACT\KRKREXTRACTDLL\ONIG\ENC\BIG5.C
/c /I.\ /Zi /nologo /W3 /WX- /Ox /Ob2 /Oi /Ot /Oy- /GL /D ONIG_EXTERN=extern /D HAVE_CONFIG_H /D NOT_RUBY /D EXPORT /D WIN32 /D NDEBUG /D _LIB /D _UNICODE /D UNICODE /Gm- /EHsc /MT /GS /Gy /fp:precise /Zc:wchar_t /Zc:forScope /Fo"RELEASE\\" /Fd"RELEASE\VC120.PDB" /Gd /TC /analyze- D:\GITPOOL\KRKREXTRACT\KRKREXTRACT\KRKREXTRACTDLL\ONIG\ENC\BIG5.C
^D:\GITPOOL\KRKREXTRACT\KRKREXTRACT\KRKREXTRACTDLL\ONIG\ENC\CP1251.C
/c /I.\ /Zi /nologo /W3 /WX- /Ox /Ob2 /Oi /Ot /Oy- /GL /D ONIG_EXTERN=extern /D HAVE_CONFIG_H /D NOT_RUBY /D EXPORT /D WIN32 /D NDEBUG /D _LIB /D _UNICODE /D UNICODE /Gm- /EHsc /MT /GS /Gy /fp:precise /Zc:wchar_t /Zc:forScope /Fo"RELEASE\\" /Fd"RELEASE\VC120.PDB" /Gd /TC /analyze- D:\GITPOOL\KRKREXTRACT\KRKREXTRACT\KRKREXTRACTDLL\ONIG\ENC\CP1251.C
^D:\GITPOOL\KRKREXTRACT\KRKREXTRACT\KRKREXTRACTDLL\ONIG\ENC\EUC_JP.C
/c /I.\ /Zi /nologo /W3 /WX- /Ox /Ob2 /Oi /Ot /Oy- /GL /D ONIG_EXTERN=extern /D HAVE_CONFIG_H /D NOT_RUBY /D EXPORT /D WIN32 /D NDEBUG /D _LIB /D _UNICODE /D UNICODE /Gm- /EHsc /MT /GS /Gy /fp:precise /Zc:wchar_t /Zc:forScope /Fo"RELEASE\\" /Fd"RELEASE\VC120.PDB" /Gd /TC /analyze- D:\GITPOOL\KRKREXTRACT\KRKREXTRACT\KRKREXTRACTDLL\ONIG\ENC\EUC_JP.C
^D:\GITPOOL\KRKREXTRACT\KRKREXTRACT\KRKREXTRACTDLL\ONIG\ENC\EUC_KR.C
/c /I.\ /Zi /nologo /W3 /WX- /Ox /Ob2 /Oi /Ot /Oy- /GL /D ONIG_EXTERN=extern /D HAVE_CONFIG_H /D NOT_RUBY /D EXPORT /D WIN32 /D NDEBUG /D _LIB /D _UNICODE /D UNICODE /Gm- /EHsc /MT /GS /Gy /fp:precise /Zc:wchar_t /Zc:forScope /Fo"RELEASE\\" /Fd"RELEASE\VC120.PDB" /Gd /TC /analyze- D:\GITPOOL\KRKREXTRACT\KRKREXTRACT\KRKREXTRACTDLL\ONIG\ENC\EUC_KR.C
^D:\GITPOOL\KRKREXTRACT\KRKREXTRACT\KRKREXTRACTDLL\ONIG\ENC\EUC_TW.C
/c /I.\ /Zi /nologo /W3 /WX- /Ox /Ob2 /Oi /Ot /Oy- /GL /D ONIG_EXTERN=extern /D HAVE_CONFIG_H /D NOT_RUBY /D EXPORT /D WIN32 /D NDEBUG /D _LIB /D _UNICODE /D UNICODE /Gm- /EHsc /MT /GS /Gy /fp:precise /Zc:wchar_t /Zc:forScope /Fo"RELEASE\\" /Fd"RELEASE\VC120.PDB" /Gd /TC /analyze- D:\GITPOOL\KRKREXTRACT\KRKREXTRACT\KRKREXTRACTDLL\ONIG\ENC\EUC_TW.C
^D:\GITPOOL\KRKREXTRACT\KRKREXTRACT\KRKREXTRACTDLL\ONIG\ENC\GB18030.C
/c /I.\ /Zi /nologo /W3 /WX- /Ox /Ob2 /Oi /Ot /Oy- /GL /D ONIG_EXTERN=extern /D HAVE_CONFIG_H /D NOT_RUBY /D EXPORT /D WIN32 /D NDEBUG /D _LIB /D _UNICODE /D UNICODE /Gm- /EHsc /MT /GS /Gy /fp:precise /Zc:wchar_t /Zc:forScope /Fo"RELEASE\\" /Fd"RELEASE\VC120.PDB" /Gd /TC /analyze- D:\GITPOOL\KRKREXTRACT\KRKREXTRACT\KRKREXTRACTDLL\ONIG\ENC\GB18030.C
^D:\GITPOOL\KRKREXTRACT\KRKREXTRACT\KRKREXTRACTDLL\ONIG\ENC\ISO8859_1.C
/c /I.\ /Zi /nologo /W3 /WX- /Ox /Ob2 /Oi /Ot /Oy- /GL /D ONIG_EXTERN=extern /D HAVE_CONFIG_H /D NOT_RUBY /D EXPORT /D WIN32 /D NDEBUG /D _LIB /D _UNICODE /D UNICODE /Gm- /EHsc /MT /GS /Gy /fp:precise /Zc:wchar_t /Zc:forScope /Fo"RELEASE\\" /Fd"RELEASE\VC120.PDB" /Gd /TC /analyze- D:\GITPOOL\KRKREXTRACT\KRKREXTRACT\KRKREXTRACTDLL\ONIG\ENC\ISO8859_1.C
^D:\GITPOOL\KRKREXTRACT\KRKREXTRACT\KRKREXTRACTDLL\ONIG\ENC\ISO8859_10.C
/c /I.\ /Zi /nologo /W3 /WX- /Ox /Ob2 /Oi /Ot /Oy- /GL /D ONIG_EXTERN=extern /D HAVE_CONFIG_H /D NOT_RUBY /D EXPORT /D WIN32 /D NDEBUG /D _LIB /D _UNICODE /D UNICODE /Gm- /EHsc /MT /GS /Gy /fp:precise /Zc:wchar_t /Zc:forScope /Fo"RELEASE\\" /Fd"RELEASE\VC120.PDB" /Gd /TC /analyze- D:\GITPOOL\KRKREXTRACT\KRKREXTRACT\KRKREXTRACTDLL\ONIG\ENC\ISO8859_10.C
^D:\GITPOOL\KRKREXTRACT\KRKREXTRACT\KRKREXTRACTDLL\ONIG\ENC\ISO8859_11.C
/c /I.\ /Zi /nologo /W3 /WX- /Ox /Ob2 /Oi /Ot /Oy- /GL /D ONIG_EXTERN=extern /D HAVE_CONFIG_H /D NOT_RUBY /D EXPORT /D WIN32 /D NDEBUG /D _LIB /D _UNICODE /D UNICODE /Gm- /EHsc /MT /GS /Gy /fp:precise /Zc:wchar_t /Zc:forScope /Fo"RELEASE\\" /Fd"RELEASE\VC120.PDB" /Gd /TC /analyze- D:\GITPOOL\KRKREXTRACT\KRKREXTRACT\KRKREXTRACTDLL\ONIG\ENC\ISO8859_11.C
^D:\GITPOOL\KRKREXTRACT\KRKREXTRACT\KRKREXTRACTDLL\ONIG\ENC\ISO8859_13.C
/c /I.\ /Zi /nologo /W3 /WX- /Ox /Ob2 /Oi /Ot /Oy- /GL /D ONIG_EXTERN=extern /D HAVE_CONFIG_H /D NOT_RUBY /D EXPORT /D WIN32 /D NDEBUG /D _LIB /D _UNICODE /D UNICODE /Gm- /EHsc /MT /GS /Gy /fp:precise /Zc:wchar_t /Zc:forScope /Fo"RELEASE\\" /Fd"RELEASE\VC120.PDB" /Gd /TC /analyze- D:\GITPOOL\KRKREXTRACT\KRKREXTRACT\KRKREXTRACTDLL\ONIG\ENC\ISO8859_13.C
^D:\GITPOOL\KRKREXTRACT\KRKREXTRACT\KRKREXTRACTDLL\ONIG\ENC\ISO8859_14.C
/c /I.\ /Zi /nologo /W3 /WX- /Ox /Ob2 /Oi /Ot /Oy- /GL /D ONIG_EXTERN=extern /D HAVE_CONFIG_H /D NOT_RUBY /D EXPORT /D WIN32 /D NDEBUG /D _LIB /D _UNICODE /D UNICODE /Gm- /EHsc /MT /GS /Gy /fp:precise /Zc:wchar_t /Zc:forScope /Fo"RELEASE\\" /Fd"RELEASE\VC120.PDB" /Gd /TC /analyze- D:\GITPOOL\KRKREXTRACT\KRKREXTRACT\KRKREXTRACTDLL\ONIG\ENC\ISO8859_14.C
^D:\GITPOOL\KRKREXTRACT\KRKREXTRACT\KRKREXTRACTDLL\ONIG\ENC\ISO8859_15.C
/c /I.\ /Zi /nologo /W3 /WX- /Ox /Ob2 /Oi /Ot /Oy- /GL /D ONIG_EXTERN=extern /D HAVE_CONFIG_H /D NOT_RUBY /D EXPORT /D WIN32 /D NDEBUG /D _LIB /D _UNICODE /D UNICODE /Gm- /EHsc /MT /GS /Gy /fp:precise /Zc:wchar_t /Zc:forScope /Fo"RELEASE\\" /Fd"RELEASE\VC120.PDB" /Gd /TC /analyze- D:\GITPOOL\KRKREXTRACT\KRKREXTRACT\KRKREXTRACTDLL\ONIG\ENC\ISO8859_15.C
^D:\GITPOOL\KRKREXTRACT\KRKREXTRACT\KRKREXTRACTDLL\ONIG\ENC\ISO8859_16.C
/c /I.\ /Zi /nologo /W3 /WX- /Ox /Ob2 /Oi /Ot /Oy- /GL /D ONIG_EXTERN=extern /D HAVE_CONFIG_H /D NOT_RUBY /D EXPORT /D WIN32 /D NDEBUG /D _LIB /D _UNICODE /D UNICODE /Gm- /EHsc /MT /GS /Gy /fp:precise /Zc:wchar_t /Zc:forScope /Fo"RELEASE\\" /Fd"RELEASE\VC120.PDB" /Gd /TC /analyze- D:\GITPOOL\KRKREXTRACT\KRKREXTRACT\KRKREXTRACTDLL\ONIG\ENC\ISO8859_16.C
^D:\GITPOOL\KRKREXTRACT\KRKREXTRACT\KRKREXTRACTDLL\ONIG\ENC\ISO8859_2.C
/c /I.\ /Zi /nologo /W3 /WX- /Ox /Ob2 /Oi /Ot /Oy- /GL /D ONIG_EXTERN=extern /D HAVE_CONFIG_H /D NOT_RUBY /D EXPORT /D WIN32 /D NDEBUG /D _LIB /D _UNICODE /D UNICODE /Gm- /EHsc /MT /GS /Gy /fp:precise /Zc:wchar_t /Zc:forScope /Fo"RELEASE\\" /Fd"RELEASE\VC120.PDB" /Gd /TC /analyze- D:\GITPOOL\KRKREXTRACT\KRKREXTRACT\KRKREXTRACTDLL\ONIG\ENC\ISO8859_2.C
^D:\GITPOOL\KRKREXTRACT\KRKREXTRACT\KRKREXTRACTDLL\ONIG\ENC\ISO8859_3.C
/c /I.\ /Zi /nologo /W3 /WX- /Ox /Ob2 /Oi /Ot /Oy- /GL /D ONIG_EXTERN=extern /D HAVE_CONFIG_H /D NOT_RUBY /D EXPORT /D WIN32 /D NDEBUG /D _LIB /D _UNICODE /D UNICODE /Gm- /EHsc /MT /GS /Gy /fp:precise /Zc:wchar_t /Zc:forScope /Fo"RELEASE\\" /Fd"RELEASE\VC120.PDB" /Gd /TC /analyze- D:\GITPOOL\KRKREXTRACT\KRKREXTRACT\KRKREXTRACTDLL\ONIG\ENC\ISO8859_3.C
^D:\GITPOOL\KRKREXTRACT\KRKREXTRACT\KRKREXTRACTDLL\ONIG\ENC\ISO8859_4.C
/c /I.\ /Zi /nologo /W3 /WX- /Ox /Ob2 /Oi /Ot /Oy- /GL /D ONIG_EXTERN=extern /D HAVE_CONFIG_H /D NOT_RUBY /D EXPORT /D WIN32 /D NDEBUG /D _LIB /D _UNICODE /D UNICODE /Gm- /EHsc /MT /GS /Gy /fp:precise /Zc:wchar_t /Zc:forScope /Fo"RELEASE\\" /Fd"RELEASE\VC120.PDB" /Gd /TC /analyze- D:\GITPOOL\KRKREXTRACT\KRKREXTRACT\KRKREXTRACTDLL\ONIG\ENC\ISO8859_4.C
^D:\GITPOOL\KRKREXTRACT\KRKREXTRACT\KRKREXTRACTDLL\ONIG\ENC\ISO8859_5.C
/c /I.\ /Zi /nologo /W3 /WX- /Ox /Ob2 /Oi /Ot /Oy- /GL /D ONIG_EXTERN=extern /D HAVE_CONFIG_H /D NOT_RUBY /D EXPORT /D WIN32 /D NDEBUG /D _LIB /D _UNICODE /D UNICODE /Gm- /EHsc /MT /GS /Gy /fp:precise /Zc:wchar_t /Zc:forScope /Fo"RELEASE\\" /Fd"RELEASE\VC120.PDB" /Gd /TC /analyze- D:\GITPOOL\KRKREXTRACT\KRKREXTRACT\KRKREXTRACTDLL\ONIG\ENC\ISO8859_5.C
^D:\GITPOOL\KRKREXTRACT\KRKREXTRACT\KRKREXTRACTDLL\ONIG\ENC\ISO8859_6.C
/c /I.\ /Zi /nologo /W3 /WX- /Ox /Ob2 /Oi /Ot /Oy- /GL /D ONIG_EXTERN=extern /D HAVE_CONFIG_H /D NOT_RUBY /D EXPORT /D WIN32 /D NDEBUG /D _LIB /D _UNICODE /D UNICODE /Gm- /EHsc /MT /GS /Gy /fp:precise /Zc:wchar_t /Zc:forScope /Fo"RELEASE\\" /Fd"RELEASE\VC120.PDB" /Gd /TC /analyze- D:\GITPOOL\KRKREXTRACT\KRKREXTRACT\KRKREXTRACTDLL\ONIG\ENC\ISO8859_6.C
^D:\GITPOOL\KRKREXTRACT\KRKREXTRACT\KRKREXTRACTDLL\ONIG\ENC\ISO8859_7.C
/c /I.\ /Zi /nologo /W3 /WX- /Ox /Ob2 /Oi /Ot /Oy- /GL /D ONIG_EXTERN=extern /D HAVE_CONFIG_H /D NOT_RUBY /D EXPORT /D WIN32 /D NDEBUG /D _LIB /D _UNICODE /D UNICODE /Gm- /EHsc /MT /GS /Gy /fp:precise /Zc:wchar_t /Zc:forScope /Fo"RELEASE\\" /Fd"RELEASE\VC120.PDB" /Gd /TC /analyze- D:\GITPOOL\KRKREXTRACT\KRKREXTRACT\KRKREXTRACTDLL\ONIG\ENC\ISO8859_7.C
^D:\GITPOOL\KRKREXTRACT\KRKREXTRACT\KRKREXTRACTDLL\ONIG\ENC\ISO8859_8.C
/c /I.\ /Zi /nologo /W3 /WX- /Ox /Ob2 /Oi /Ot /Oy- /GL /D ONIG_EXTERN=extern /D HAVE_CONFIG_H /D NOT_RUBY /D EXPORT /D WIN32 /D NDEBUG /D _LIB /D _UNICODE /D UNICODE /Gm- /EHsc /MT /GS /Gy /fp:precise /Zc:wchar_t /Zc:forScope /Fo"RELEASE\\" /Fd"RELEASE\VC120.PDB" /Gd /TC /analyze- D:\GITPOOL\KRKREXTRACT\KRKREXTRACT\KRKREXTRACTDLL\ONIG\ENC\ISO8859_8.C
^D:\GITPOOL\KRKREXTRACT\KRKREXTRACT\KRKREXTRACTDLL\ONIG\ENC\ISO8859_9.C
/c /I.\ /Zi /nologo /W3 /WX- /Ox /Ob2 /Oi /Ot /Oy- /GL /D ONIG_EXTERN=extern /D HAVE_CONFIG_H /D NOT_RUBY /D EXPORT /D WIN32 /D NDEBUG /D _LIB /D _UNICODE /D UNICODE /Gm- /EHsc /MT /GS /Gy /fp:precise /Zc:wchar_t /Zc:forScope /Fo"RELEASE\\" /Fd"RELEASE\VC120.PDB" /Gd /TC /analyze- D:\GITPOOL\KRKREXTRACT\KRKREXTRACT\KRKREXTRACTDLL\ONIG\ENC\ISO8859_9.C
^D:\GITPOOL\KRKREXTRACT\KRKREXTRACT\KRKREXTRACTDLL\ONIG\ENC\KOI8.C
/c /I.\ /Zi /nologo /W3 /WX- /Ox /Ob2 /Oi /Ot /Oy- /GL /D ONIG_EXTERN=extern /D HAVE_CONFIG_H /D NOT_RUBY /D EXPORT /D WIN32 /D NDEBUG /D _LIB /D _UNICODE /D UNICODE /Gm- /EHsc /MT /GS /Gy /fp:precise /Zc:wchar_t /Zc:forScope /Fo"RELEASE\\" /Fd"RELEASE\VC120.PDB" /Gd /TC /analyze- D:\GITPOOL\KRKREXTRACT\KRKREXTRACT\KRKREXTRACTDLL\ONIG\ENC\KOI8.C
^D:\GITPOOL\KRKREXTRACT\KRKREXTRACT\KRKREXTRACTDLL\ONIG\ENC\KOI8_R.C
/c /I.\ /Zi /nologo /W3 /WX- /Ox /Ob2 /Oi /Ot /Oy- /GL /D ONIG_EXTERN=extern /D HAVE_CONFIG_H /D NOT_RUBY /D EXPORT /D WIN32 /D NDEBUG /D _LIB /D _UNICODE /D UNICODE /Gm- /EHsc /MT /GS /Gy /fp:precise /Zc:wchar_t /Zc:forScope /Fo"RELEASE\\" /Fd"RELEASE\VC120.PDB" /Gd /TC /analyze- D:\GITPOOL\KRKREXTRACT\KRKREXTRACT\KRKREXTRACTDLL\ONIG\ENC\KOI8_R.C
^D:\GITPOOL\KRKREXTRACT\KRKREXTRACT\KRKREXTRACTDLL\ONIG\ENC\SJIS.C
/c /I.\ /Zi /nologo /W3 /WX- /Ox /Ob2 /Oi /Ot /Oy- /GL /D ONIG_EXTERN=extern /D HAVE_CONFIG_H /D NOT_RUBY /D EXPORT /D WIN32 /D NDEBUG /D _LIB /D _UNICODE /D UNICODE /Gm- /EHsc /MT /GS /Gy /fp:precise /Zc:wchar_t /Zc:forScope /Fo"RELEASE\\" /Fd"RELEASE\VC120.PDB" /Gd /TC /analyze- D:\GITPOOL\KRKREXTRACT\KRKREXTRACT\KRKREXTRACTDLL\ONIG\ENC\SJIS.C
^D:\GITPOOL\KRKREXTRACT\KRKREXTRACT\KRKREXTRACTDLL\ONIG\ENC\UNICODE.C
/c /I.\ /Zi /nologo /W3 /WX- /Ox /Ob2 /Oi /Ot /Oy- /GL /D ONIG_EXTERN=extern /D HAVE_CONFIG_H /D NOT_RUBY /D EXPORT /D WIN32 /D NDEBUG /D _LIB /D _UNICODE /D UNICODE /Gm- /EHsc /MT /GS /Gy /fp:precise /Zc:wchar_t /Zc:forScope /Fo"RELEASE\\" /Fd"RELEASE\VC120.PDB" /Gd /TC /analyze- D:\GITPOOL\KRKREXTRACT\KRKREXTRACT\KRKREXTRACTDLL\ONIG\ENC\UNICODE.C
^D:\GITPOOL\KRKREXTRACT\KRKREXTRACT\KRKREXTRACTDLL\ONIG\ENC\UTF16_BE.C
/c /I.\ /Zi /nologo /W3 /WX- /Ox /Ob2 /Oi /Ot /Oy- /GL /D ONIG_EXTERN=extern /D HAVE_CONFIG_H /D NOT_RUBY /D EXPORT /D WIN32 /D NDEBUG /D _LIB /D _UNICODE /D UNICODE /Gm- /EHsc /MT /GS /Gy /fp:precise /Zc:wchar_t /Zc:forScope /Fo"RELEASE\\" /Fd"RELEASE\VC120.PDB" /Gd /TC /analyze- D:\GITPOOL\KRKREXTRACT\KRKREXTRACT\KRKREXTRACTDLL\ONIG\ENC\UTF16_BE.C
^D:\GITPOOL\KRKREXTRACT\KRKREXTRACT\KRKREXTRACTDLL\ONIG\ENC\UTF16_LE.C
/c /I.\ /Zi /nologo /W3 /WX- /Ox /Ob2 /Oi /Ot /Oy- /GL /D ONIG_EXTERN=extern /D HAVE_CONFIG_H /D NOT_RUBY /D EXPORT /D WIN32 /D NDEBUG /D _LIB /D _UNICODE /D UNICODE /Gm- /EHsc /MT /GS /Gy /fp:precise /Zc:wchar_t /Zc:forScope /Fo"RELEASE\\" /Fd"RELEASE\VC120.PDB" /Gd /TC /analyze- D:\GITPOOL\KRKREXTRACT\KRKREXTRACT\KRKREXTRACTDLL\ONIG\ENC\UTF16_LE.C
^D:\GITPOOL\KRKREXTRACT\KRKREXTRACT\KRKREXTRACTDLL\ONIG\ENC\UTF32_BE.C
/c /I.\ /Zi /nologo /W3 /WX- /Ox /Ob2 /Oi /Ot /Oy- /GL /D ONIG_EXTERN=extern /D HAVE_CONFIG_H /D NOT_RUBY /D EXPORT /D WIN32 /D NDEBUG /D _LIB /D _UNICODE /D UNICODE /Gm- /EHsc /MT /GS /Gy /fp:precise /Zc:wchar_t /Zc:forScope /Fo"RELEASE\\" /Fd"RELEASE\VC120.PDB" /Gd /TC /analyze- D:\GITPOOL\KRKREXTRACT\KRKREXTRACT\KRKREXTRACTDLL\ONIG\ENC\UTF32_BE.C
^D:\GITPOOL\KRKREXTRACT\KRKREXTRACT\KRKREXTRACTDLL\ONIG\ENC\UTF32_LE.C
/c /I.\ /Zi /nologo /W3 /WX- /Ox /Ob2 /Oi /Ot /Oy- /GL /D ONIG_EXTERN=extern /D HAVE_CONFIG_H /D NOT_RUBY /D EXPORT /D WIN32 /D NDEBUG /D _LIB /D _UNICODE /D UNICODE /Gm- /EHsc /MT /GS /Gy /fp:precise /Zc:wchar_t /Zc:forScope /Fo"RELEASE\\" /Fd"RELEASE\VC120.PDB" /Gd /TC /analyze- D:\GITPOOL\KRKREXTRACT\KRKREXTRACT\KRKREXTRACTDLL\ONIG\ENC\UTF32_LE.C
^D:\GITPOOL\KRKREXTRACT\KRKREXTRACT\KRKREXTRACTDLL\ONIG\ENC\UTF8.C
/c /I.\ /Zi /nologo /W3 /WX- /Ox /Ob2 /Oi /Ot /Oy- /GL /D ONIG_EXTERN=extern /D HAVE_CONFIG_H /D NOT_RUBY /D EXPORT /D WIN32 /D NDEBUG /D _LIB /D _UNICODE /D UNICODE /Gm- /EHsc /MT /GS /Gy /fp:precise /Zc:wchar_t /Zc:forScope /Fo"RELEASE\\" /Fd"RELEASE\VC120.PDB" /Gd /TC /analyze- D:\GITPOOL\KRKREXTRACT\KRKREXTRACT\KRKREXTRACTDLL\ONIG\ENC\UTF8.C
^D:\GITPOOL\KRKREXTRACT\KRKREXTRACT\KRKREXTRACTDLL\ONIG\REGCOMP.C
/c /I.\ /Zi /nologo /W3 /WX- /Ox /Ob2 /Oi /Ot /Oy- /GL /D ONIG_EXTERN=extern /D HAVE_CONFIG_H /D NOT_RUBY /D EXPORT /D WIN32 /D NDEBUG /D _LIB /D _UNICODE /D UNICODE /Gm- /EHsc /MT /GS /Gy /fp:precise /Zc:wchar_t /Zc:forScope /Fo"RELEASE\\" /Fd"RELEASE\VC120.PDB" /Gd /TC /analyze- D:\GITPOOL\KRKREXTRACT\KRKREXTRACT\KRKREXTRACTDLL\ONIG\REGCOMP.C
^D:\GITPOOL\KRKREXTRACT\KRKREXTRACT\KRKREXTRACTDLL\ONIG\REGENC.C
/c /I.\ /Zi /nologo /W3 /WX- /Ox /Ob2 /Oi /Ot /Oy- /GL /D ONIG_EXTERN=extern /D HAVE_CONFIG_H /D NOT_RUBY /D EXPORT /D WIN32 /D NDEBUG /D _LIB /D _UNICODE /D UNICODE /Gm- /EHsc /MT /GS /Gy /fp:precise /Zc:wchar_t /Zc:forScope /Fo"RELEASE\\" /Fd"RELEASE\VC120.PDB" /Gd /TC /analyze- D:\GITPOOL\KRKREXTRACT\KRKREXTRACT\KRKREXTRACTDLL\ONIG\REGENC.C
^D:\GITPOOL\KRKREXTRACT\KRKREXTRACT\KRKREXTRACTDLL\ONIG\REGERROR.C
/c /I.\ /Zi /nologo /W3 /WX- /Ox /Ob2 /Oi /Ot /Oy- /GL /D ONIG_EXTERN=extern /D HAVE_CONFIG_H /D NOT_RUBY /D EXPORT /D WIN32 /D NDEBUG /D _LIB /D _UNICODE /D UNICODE /Gm- /EHsc /MT /GS /Gy /fp:precise /Zc:wchar_t /Zc:forScope /Fo"RELEASE\\" /Fd"RELEASE\VC120.PDB" /Gd /TC /analyze- D:\GITPOOL\KRKREXTRACT\KRKREXTRACT\KRKREXTRACTDLL\ONIG\REGERROR.C
^D:\GITPOOL\KRKREXTRACT\KRKREXTRACT\KRKREXTRACTDLL\ONIG\REGEXEC.C
/c /I.\ /Zi /nologo /W3 /WX- /Ox /Ob2 /Oi /Ot /Oy- /GL /D ONIG_EXTERN=extern /D HAVE_CONFIG_H /D NOT_RUBY /D EXPORT /D WIN32 /D NDEBUG /D _LIB /D _UNICODE /D UNICODE /Gm- /EHsc /MT /GS /Gy /fp:precise /Zc:wchar_t /Zc:forScope /Fo"RELEASE\\" /Fd"RELEASE\VC120.PDB" /Gd /TC /analyze- D:\GITPOOL\KRKREXTRACT\KRKREXTRACT\KRKREXTRACTDLL\ONIG\REGEXEC.C
^D:\GITPOOL\KRKREXTRACT\KRKREXTRACT\KRKREXTRACTDLL\ONIG\REGEXT.C
/c /I.\ /Zi /nologo /W3 /WX- /Ox /Ob2 /Oi /Ot /Oy- /GL /D ONIG_EXTERN=extern /D HAVE_CONFIG_H /D NOT_RUBY /D EXPORT /D WIN32 /D NDEBUG /D _LIB /D _UNICODE /D UNICODE /Gm- /EHsc /MT /GS /Gy /fp:precise /Zc:wchar_t /Zc:forScope /Fo"RELEASE\\" /Fd"RELEASE\VC120.PDB" /Gd /TC /analyze- D:\GITPOOL\KRKREXTRACT\KRKREXTRACT\KRKREXTRACTDLL\ONIG\REGEXT.C
^D:\GITPOOL\KRKREXTRACT\KRKREXTRACT\KRKREXTRACTDLL\ONIG\REGGNU.C
/c /I.\ /Zi /nologo /W3 /WX- /Ox /Ob2 /Oi /Ot /Oy- /GL /D ONIG_EXTERN=extern /D HAVE_CONFIG_H /D NOT_RUBY /D EXPORT /D WIN32 /D NDEBUG /D _LIB /D _UNICODE /D UNICODE /Gm- /EHsc /MT /GS /Gy /fp:precise /Zc:wchar_t /Zc:forScope /Fo"RELEASE\\" /Fd"RELEASE\VC120.PDB" /Gd /TC /analyze- D:\GITPOOL\KRKREXTRACT\KRKREXTRACT\KRKREXTRACTDLL\ONIG\REGGNU.C
^D:\GITPOOL\KRKREXTRACT\KRKREXTRACT\KRKREXTRACTDLL\ONIG\REGPARSE.C
/c /I.\ /Zi /nologo /W3 /WX- /Ox /Ob2 /Oi /Ot /Oy- /GL /D ONIG_EXTERN=extern /D HAVE_CONFIG_H /D NOT_RUBY /D EXPORT /D WIN32 /D NDEBUG /D _LIB /D _UNICODE /D UNICODE /Gm- /EHsc /MT /GS /Gy /fp:precise /Zc:wchar_t /Zc:forScope /Fo"RELEASE\\" /Fd"RELEASE\VC120.PDB" /Gd /TC /analyze- D:\GITPOOL\KRKREXTRACT\KRKREXTRACT\KRKREXTRACTDLL\ONIG\REGPARSE.C
^D:\GITPOOL\KRKREXTRACT\KRKREXTRACT\KRKREXTRACTDLL\ONIG\REGPOSERR.C
/c /I.\ /Zi /nologo /W3 /WX- /Ox /Ob2 /Oi /Ot /Oy- /GL /D ONIG_EXTERN=extern /D HAVE_CONFIG_H /D NOT_RUBY /D EXPORT /D WIN32 /D NDEBUG /D _LIB /D _UNICODE /D UNICODE /Gm- /EHsc /MT /GS /Gy /fp:precise /Zc:wchar_t /Zc:forScope /Fo"RELEASE\\" /Fd"RELEASE\VC120.PDB" /Gd /TC /analyze- D:\GITPOOL\KRKREXTRACT\KRKREXTRACT\KRKREXTRACTDLL\ONIG\REGPOSERR.C
^D:\GITPOOL\KRKREXTRACT\KRKREXTRACT\KRKREXTRACTDLL\ONIG\REGPOSIX.C
/c /I.\ /Zi /nologo /W3 /WX- /Ox /Ob2 /Oi /Ot /Oy- /GL /D ONIG_EXTERN=extern /D HAVE_CONFIG_H /D NOT_RUBY /D EXPORT /D WIN32 /D NDEBUG /D _LIB /D _UNICODE /D UNICODE /Gm- /EHsc /MT /GS /Gy /fp:precise /Zc:wchar_t /Zc:forScope /Fo"RELEASE\\" /Fd"RELEASE\VC120.PDB" /Gd /TC /analyze- D:\GITPOOL\KRKREXTRACT\KRKREXTRACT\KRKREXTRACTDLL\ONIG\REGPOSIX.C
^D:\GITPOOL\KRKREXTRACT\KRKREXTRACT\KRKREXTRACTDLL\ONIG\REGSYNTAX.C
/c /I.\ /Zi /nologo /W3 /WX- /Ox /Ob2 /Oi /Ot /Oy- /GL /D ONIG_EXTERN=extern /D HAVE_CONFIG_H /D NOT_RUBY /D EXPORT /D WIN32 /D NDEBUG /D _LIB /D _UNICODE /D UNICODE /Gm- /EHsc /MT /GS /Gy /fp:precise /Zc:wchar_t /Zc:forScope /Fo"RELEASE\\" /Fd"RELEASE\VC120.PDB" /Gd /TC /analyze- D:\GITPOOL\KRKREXTRACT\KRKREXTRACT\KRKREXTRACTDLL\ONIG\REGSYNTAX.C
^D:\GITPOOL\KRKREXTRACT\KRKREXTRACT\KRKREXTRACTDLL\ONIG\REGTRAV.C
/c /I.\ /Zi /nologo /W3 /WX- /Ox /Ob2 /Oi /Ot /Oy- /GL /D ONIG_EXTERN=extern /D HAVE_CONFIG_H /D NOT_RUBY /D EXPORT /D WIN32 /D NDEBUG /D _LIB /D _UNICODE /D UNICODE /Gm- /EHsc /MT /GS /Gy /fp:precise /Zc:wchar_t /Zc:forScope /Fo"RELEASE\\" /Fd"RELEASE\VC120.PDB" /Gd /TC /analyze- D:\GITPOOL\KRKREXTRACT\KRKREXTRACT\KRKREXTRACTDLL\ONIG\REGTRAV.C
^D:\GITPOOL\KRKREXTRACT\KRKREXTRACT\KRKREXTRACTDLL\ONIG\REGVERSION.C
/c /I.\ /Zi /nologo /W3 /WX- /Ox /Ob2 /Oi /Ot /Oy- /GL /D ONIG_EXTERN=extern /D HAVE_CONFIG_H /D NOT_RUBY /D EXPORT /D WIN32 /D NDEBUG /D _LIB /D _UNICODE /D UNICODE /Gm- /EHsc /MT /GS /Gy /fp:precise /Zc:wchar_t /Zc:forScope /Fo"RELEASE\\" /Fd"RELEASE\VC120.PDB" /Gd /TC /analyze- D:\GITPOOL\KRKREXTRACT\KRKREXTRACT\KRKREXTRACTDLL\ONIG\REGVERSION.C
^D:\GITPOOL\KRKREXTRACT\KRKREXTRACT\KRKREXTRACTDLL\ONIG\ST.C
/c /I.\ /Zi /nologo /W3 /WX- /Ox /Ob2 /Oi /Ot /Oy- /GL /D ONIG_EXTERN=extern /D HAVE_CONFIG_H /D NOT_RUBY /D EXPORT /D WIN32 /D NDEBUG /D _LIB /D _UNICODE /D UNICODE /Gm- /EHsc /MT /GS /Gy /fp:precise /Zc:wchar_t /Zc:forScope /Fo"RELEASE\\" /Fd"RELEASE\VC120.PDB" /Gd /TC /analyze- D:\GITPOOL\KRKREXTRACT\KRKREXTRACT\KRKREXTRACTDLL\ONIG\ST.C
