^D:\GITPOOL\KRKREXTRACT\KRKREXTRACT\KRKREXTRACTDLL\ONIG\ENC\ISO8859_1.C
D:\GITPOOL\KRKREXTRACT\KRKREXTRACT\KRKREXTRACTDLL\ONIG\REGENC.H
D:\GITPOOL\KRKREXTRACT\KRKREXTRACT\KRKREXTRACTDLL\ONIG\CONFIG.H
D:\GITPOOL\KRKREXTRACT\KRKREXTRACT\KRKREXTRACTDLL\ONIG\ONIGURUMA.H
^D:\GITPOOL\KRKREXTRACT\KRKREXTRACT\KRKREXTRACTDLL\ONIG\ENC\ISO8859_6.C
D:\GITPOOL\KRKREXTRACT\KRKREXTRACT\KRKREXTRACTDLL\ONIG\REGENC.H
D:\GITPOOL\KRKREXTRACT\KRKREXTRACT\KRKREXTRACTDLL\ONIG\CONFIG.H
D:\GITPOOL\KRKREXTRACT\KRKREXTRACT\KRKREXTRACTDLL\ONIG\ONIGURUMA.H
^D:\GITPOOL\KRKREXTRACT\KRKREXTRACT\KRKREXTRACTDLL\ONIG\ENC\UTF32_LE.C
D:\GITPOOL\KRKREXTRACT\KRKREXTRACT\KRKREXTRACTDLL\ONIG\REGENC.H
D:\GITPOOL\KRKREXTRACT\KRKREXTRACT\KRKREXTRACTDLL\ONIG\CONFIG.H
D:\GITPOOL\KRKREXTRACT\KRKREXTRACT\KRKREXTRACTDLL\ONIG\ONIGURUMA.H
^D:\GITPOOL\KRKREXTRACT\KRKREXTRACT\KRKREXTRACTDLL\ONIG\REGSYNTAX.C
D:\GITPOOL\KRKREXTRACT\KRKREXTRACT\KRKREXTRACTDLL\ONIG\REGINT.H
D:\GITPOOL\KRKREXTRACT\KRKREXTRACT\KRKREXTRACTDLL\ONIG\CONFIG.H
D:\VSPROGRAM\MICROSOFT VISUAL STUDIO 12.0\VC\INCLUDE\STDLIB.H
D:\VSPROGRAM\MICROSOFT VISUAL STUDIO 12.0\VC\INCLUDE\CRTDEFS.H
D:\VSPROGRAM\MICROSOFT VISUAL STUDIO 12.0\VC\INCLUDE\SAL.H
D:\VSPROGRAM\MICROSOFT VISUAL STUDIO 12.0\VC\INCLUDE\CONCURRENCYSAL.H
D:\VSPROGRAM\MICROSOFT VISUAL STUDIO 12.0\VC\INCLUDE\VADEFS.H
D:\VSPROGRAM\MICROSOFT VISUAL STUDIO 12.0\VC\INCLUDE\LIMITS.H
D:\VSPROGRAM\MICROSOFT VISUAL STUDIO 12.0\VC\INCLUDE\STRING.H
D:\VSPROGRAM\MICROSOFT VISUAL STUDIO 12.0\VC\INCLUDE\CTYPE.H
D:\VSPROGRAM\MICROSOFT VISUAL STUDIO 12.0\VC\INCLUDE\SYS\TYPES.H
D:\GITPOOL\KRKREXTRACT\KRKREXTRACT\KRKREXTRACTDLL\ONIG\REGENC.H
D:\GITPOOL\KRKREXTRACT\KRKREXTRACT\KRKREXTRACTDLL\ONIG\ONIGURUMA.H
^D:\GITPOOL\KRKREXTRACT\KRKREXTRACT\KRKREXTRACTDLL\ONIG\ENC\ISO8859_13.C
D:\GITPOOL\KRKREXTRACT\KRKREXTRACT\KRKREXTRACTDLL\ONIG\REGENC.H
D:\GITPOOL\KRKREXTRACT\KRKREXTRACT\KRKREXTRACTDLL\ONIG\CONFIG.H
D:\GITPOOL\KRKREXTRACT\KRKREXTRACT\KRKREXTRACTDLL\ONIG\ONIGURUMA.H
^D:\GITPOOL\KRKREXTRACT\KRKREXTRACT\KRKREXTRACTDLL\ONIG\ENC\ISO8859_7.C
D:\GITPOOL\KRKREXTRACT\KRKREXTRACT\KRKREXTRACTDLL\ONIG\REGENC.H
D:\GITPOOL\KRKREXTRACT\KRKREXTRACT\KRKREXTRACTDLL\ONIG\CONFIG.H
D:\GITPOOL\KRKREXTRACT\KRKREXTRACT\KRKREXTRACTDLL\ONIG\ONIGURUMA.H
^D:\GITPOOL\KRKREXTRACT\KRKREXTRACT\KRKREXTRACTDLL\ONIG\REGEXT.C
D:\GITPOOL\KRKREXTRACT\KRKREXTRACT\KRKREXTRACTDLL\ONIG\REGINT.H
D:\GITPOOL\KRKREXTRACT\KRKREXTRACT\KRKREXTRACTDLL\ONIG\CONFIG.H
D:\VSPROGRAM\MICROSOFT VISUAL STUDIO 12.0\VC\INCLUDE\STDLIB.H
D:\VSPROGRAM\MICROSOFT VISUAL STUDIO 12.0\VC\INCLUDE\CRTDEFS.H
D:\VSPROGRAM\MICROSOFT VISUAL STUDIO 12.0\VC\INCLUDE\SAL.H
D:\VSPROGRAM\MICROSOFT VISUAL STUDIO 12.0\VC\INCLUDE\CONCURRENCYSAL.H
D:\VSPROGRAM\MICROSOFT VISUAL STUDIO 12.0\VC\INCLUDE\VADEFS.H
D:\VSPROGRAM\MICROSOFT VISUAL STUDIO 12.0\VC\INCLUDE\LIMITS.H
D:\VSPROGRAM\MICROSOFT VISUAL STUDIO 12.0\VC\INCLUDE\STRING.H
D:\VSPROGRAM\MICROSOFT VISUAL STUDIO 12.0\VC\INCLUDE\CTYPE.H
D:\VSPROGRAM\MICROSOFT VISUAL STUDIO 12.0\VC\INCLUDE\SYS\TYPES.H
D:\GITPOOL\KRKREXTRACT\KRKREXTRACT\KRKREXTRACTDLL\ONIG\REGENC.H
D:\GITPOOL\KRKREXTRACT\KRKREXTRACT\KRKREXTRACTDLL\ONIG\ONIGURUMA.H
^D:\GITPOOL\KRKREXTRACT\KRKREXTRACT\KRKREXTRACTDLL\ONIG\REGVERSION.C
D:\GITPOOL\KRKREXTRACT\KRKREXTRACT\KRKREXTRACTDLL\ONIG\CONFIG.H
D:\GITPOOL\KRKREXTRACT\KRKREXTRACT\KRKREXTRACTDLL\ONIG\ONIGURUMA.H
D:\VSPROGRAM\MICROSOFT VISUAL STUDIO 12.0\VC\INCLUDE\STDIO.H
D:\VSPROGRAM\MICROSOFT VISUAL STUDIO 12.0\VC\INCLUDE\CRTDEFS.H
D:\VSPROGRAM\MICROSOFT VISUAL STUDIO 12.0\VC\INCLUDE\SAL.H
D:\VSPROGRAM\MICROSOFT VISUAL STUDIO 12.0\VC\INCLUDE\CONCURRENCYSAL.H
D:\VSPROGRAM\MICROSOFT VISUAL STUDIO 12.0\VC\INCLUDE\VADEFS.H
D:\VSPROGRAM\MICROSOFT VISUAL STUDIO 12.0\VC\INCLUDE\SWPRINTF.INL
^D:\GITPOOL\KRKREXTRACT\KRKREXTRACT\KRKREXTRACTDLL\ONIG\ENC\ASCII.C
D:\GITPOOL\KRKREXTRACT\KRKREXTRACT\KRKREXTRACTDLL\ONIG\REGENC.H
D:\GITPOOL\KRKREXTRACT\KRKREXTRACT\KRKREXTRACTDLL\ONIG\CONFIG.H
D:\GITPOOL\KRKREXTRACT\KRKREXTRACT\KRKREXTRACTDLL\ONIG\ONIGURUMA.H
^D:\GITPOOL\KRKREXTRACT\KRKREXTRACT\KRKREXTRACTDLL\ONIG\ENC\ISO8859_9.C
D:\GITPOOL\KRKREXTRACT\KRKREXTRACT\KRKREXTRACTDLL\ONIG\REGENC.H
D:\GITPOOL\KRKREXTRACT\KRKREXTRACT\KRKREXTRACTDLL\ONIG\CONFIG.H
D:\GITPOOL\KRKREXTRACT\KRKREXTRACT\KRKREXTRACTDLL\ONIG\ONIGURUMA.H
^D:\GITPOOL\KRKREXTRACT\KRKREXTRACT\KRKREXTRACTDLL\ONIG\ENC\UTF8.C
D:\GITPOOL\KRKREXTRACT\KRKREXTRACT\KRKREXTRACTDLL\ONIG\REGENC.H
D:\GITPOOL\KRKREXTRACT\KRKREXTRACT\KRKREXTRACTDLL\ONIG\CONFIG.H
D:\GITPOOL\KRKREXTRACT\KRKREXTRACT\KRKREXTRACTDLL\ONIG\ONIGURUMA.H
^D:\GITPOOL\KRKREXTRACT\KRKREXTRACT\KRKREXTRACTDLL\ONIG\REGPOSIX.C
D:\GITPOOL\KRKREXTRACT\KRKREXTRACT\KRKREXTRACTDLL\ONIG\REGINT.H
D:\GITPOOL\KRKREXTRACT\KRKREXTRACT\KRKREXTRACTDLL\ONIG\CONFIG.H
D:\VSPROGRAM\MICROSOFT VISUAL STUDIO 12.0\VC\INCLUDE\STDLIB.H
D:\VSPROGRAM\MICROSOFT VISUAL STUDIO 12.0\VC\INCLUDE\CRTDEFS.H
D:\VSPROGRAM\MICROSOFT VISUAL STUDIO 12.0\VC\INCLUDE\SAL.H
D:\VSPROGRAM\MICROSOFT VISUAL STUDIO 12.0\VC\INCLUDE\CONCURRENCYSAL.H
D:\VSPROGRAM\MICROSOFT VISUAL STUDIO 12.0\VC\INCLUDE\VADEFS.H
D:\VSPROGRAM\MICROSOFT VISUAL STUDIO 12.0\VC\INCLUDE\LIMITS.H
D:\VSPROGRAM\MICROSOFT VISUAL STUDIO 12.0\VC\INCLUDE\STRING.H
D:\VSPROGRAM\MICROSOFT VISUAL STUDIO 12.0\VC\INCLUDE\CTYPE.H
D:\VSPROGRAM\MICROSOFT VISUAL STUDIO 12.0\VC\INCLUDE\SYS\TYPES.H
D:\GITPOOL\KRKREXTRACT\KRKREXTRACT\KRKREXTRACTDLL\ONIG\REGENC.H
D:\GITPOOL\KRKREXTRACT\KRKREXTRACT\KRKREXTRACTDLL\ONIG\ONIGURUMA.H
D:\GITPOOL\KRKREXTRACT\KRKREXTRACT\KRKREXTRACTDLL\ONIG\ONIGPOSIX.H
^D:\GITPOOL\KRKREXTRACT\KRKREXTRACT\KRKREXTRACTDLL\ONIG\ENC\EUC_TW.C
D:\GITPOOL\KRKREXTRACT\KRKREXTRACT\KRKREXTRACTDLL\ONIG\REGENC.H
D:\GITPOOL\KRKREXTRACT\KRKREXTRACT\KRKREXTRACTDLL\ONIG\CONFIG.H
D:\GITPOOL\KRKREXTRACT\KRKREXTRACT\KRKREXTRACTDLL\ONIG\ONIGURUMA.H
^D:\GITPOOL\KRKREXTRACT\KRKREXTRACT\KRKREXTRACTDLL\ONIG\ENC\ISO8859_8.C
D:\GITPOOL\KRKREXTRACT\KRKREXTRACT\KRKREXTRACTDLL\ONIG\REGENC.H
D:\GITPOOL\KRKREXTRACT\KRKREXTRACT\KRKREXTRACTDLL\ONIG\CONFIG.H
D:\GITPOOL\KRKREXTRACT\KRKREXTRACT\KRKREXTRACTDLL\ONIG\ONIGURUMA.H
^D:\GITPOOL\KRKREXTRACT\KRKREXTRACT\KRKREXTRACTDLL\ONIG\ENC\UTF16_LE.C
D:\GITPOOL\KRKREXTRACT\KRKREXTRACT\KRKREXTRACTDLL\ONIG\REGENC.H
D:\GITPOOL\KRKREXTRACT\KRKREXTRACT\KRKREXTRACTDLL\ONIG\CONFIG.H
D:\GITPOOL\KRKREXTRACT\KRKREXTRACT\KRKREXTRACTDLL\ONIG\ONIGURUMA.H
^D:\GITPOOL\KRKREXTRACT\KRKREXTRACT\KRKREXTRACTDLL\ONIG\REGPARSE.C
D:\GITPOOL\KRKREXTRACT\KRKREXTRACT\KRKREXTRACTDLL\ONIG\REGPARSE.H
D:\GITPOOL\KRKREXTRACT\KRKREXTRACT\KRKREXTRACTDLL\ONIG\REGINT.H
D:\GITPOOL\KRKREXTRACT\KRKREXTRACT\KRKREXTRACTDLL\ONIG\CONFIG.H
D:\VSPROGRAM\MICROSOFT VISUAL STUDIO 12.0\VC\INCLUDE\STDLIB.H
D:\VSPROGRAM\MICROSOFT VISUAL STUDIO 12.0\VC\INCLUDE\CRTDEFS.H
D:\VSPROGRAM\MICROSOFT VISUAL STUDIO 12.0\VC\INCLUDE\SAL.H
D:\VSPROGRAM\MICROSOFT VISUAL STUDIO 12.0\VC\INCLUDE\CONCURRENCYSAL.H
D:\VSPROGRAM\MICROSOFT VISUAL STUDIO 12.0\VC\INCLUDE\VADEFS.H
D:\VSPROGRAM\MICROSOFT VISUAL STUDIO 12.0\VC\INCLUDE\LIMITS.H
D:\VSPROGRAM\MICROSOFT VISUAL STUDIO 12.0\VC\INCLUDE\STRING.H
D:\VSPROGRAM\MICROSOFT VISUAL STUDIO 12.0\VC\INCLUDE\CTYPE.H
D:\VSPROGRAM\MICROSOFT VISUAL STUDIO 12.0\VC\INCLUDE\SYS\TYPES.H
D:\GITPOOL\KRKREXTRACT\KRKREXTRACT\KRKREXTRACTDLL\ONIG\REGENC.H
D:\GITPOOL\KRKREXTRACT\KRKREXTRACT\KRKREXTRACTDLL\ONIG\ONIGURUMA.H
D:\GITPOOL\KRKREXTRACT\KRKREXTRACT\KRKREXTRACTDLL\ONIG\ST.H
^D:\GITPOOL\KRKREXTRACT\KRKREXTRACT\KRKREXTRACTDLL\ONIG\ENC\GB18030.C
D:\GITPOOL\KRKREXTRACT\KRKREXTRACT\KRKREXTRACTDLL\ONIG\REGENC.H
D:\GITPOOL\KRKREXTRACT\KRKREXTRACT\KRKREXTRACTDLL\ONIG\CONFIG.H
D:\GITPOOL\KRKREXTRACT\KRKREXTRACT\KRKREXTRACTDLL\ONIG\ONIGURUMA.H
^D:\GITPOOL\KRKREXTRACT\KRKREXTRACT\KRKREXTRACTDLL\ONIG\ENC\ISO8859_16.C
D:\GITPOOL\KRKREXTRACT\KRKREXTRACT\KRKREXTRACTDLL\ONIG\REGENC.H
D:\GITPOOL\KRKREXTRACT\KRKREXTRACT\KRKREXTRACTDLL\ONIG\CONFIG.H
D:\GITPOOL\KRKREXTRACT\KRKREXTRACT\KRKREXTRACTDLL\ONIG\ONIGURUMA.H
^D:\GITPOOL\KRKREXTRACT\KRKREXTRACT\KRKREXTRACTDLL\ONIG\REGENC.C
D:\GITPOOL\KRKREXTRACT\KRKREXTRACT\KRKREXTRACTDLL\ONIG\REGINT.H
D:\GITPOOL\KRKREXTRACT\KRKREXTRACT\KRKREXTRACTDLL\ONIG\CONFIG.H
D:\VSPROGRAM\MICROSOFT VISUAL STUDIO 12.0\VC\INCLUDE\STDLIB.H
D:\VSPROGRAM\MICROSOFT VISUAL STUDIO 12.0\VC\INCLUDE\CRTDEFS.H
D:\VSPROGRAM\MICROSOFT VISUAL STUDIO 12.0\VC\INCLUDE\SAL.H
D:\VSPROGRAM\MICROSOFT VISUAL STUDIO 12.0\VC\INCLUDE\CONCURRENCYSAL.H
D:\VSPROGRAM\MICROSOFT VISUAL STUDIO 12.0\VC\INCLUDE\VADEFS.H
D:\VSPROGRAM\MICROSOFT VISUAL STUDIO 12.0\VC\INCLUDE\LIMITS.H
D:\VSPROGRAM\MICROSOFT VISUAL STUDIO 12.0\VC\INCLUDE\STRING.H
D:\VSPROGRAM\MICROSOFT VISUAL STUDIO 12.0\VC\INCLUDE\CTYPE.H
D:\VSPROGRAM\MICROSOFT VISUAL STUDIO 12.0\VC\INCLUDE\SYS\TYPES.H
D:\GITPOOL\KRKREXTRACT\KRKREXTRACT\KRKREXTRACTDLL\ONIG\REGENC.H
D:\GITPOOL\KRKREXTRACT\KRKREXTRACT\KRKREXTRACTDLL\ONIG\ONIGURUMA.H
^D:\GITPOOL\KRKREXTRACT\KRKREXTRACT\KRKREXTRACTDLL\ONIG\ENC\EUC_KR.C
D:\VSPROGRAM\MICROSOFT VISUAL STUDIO 12.0\VC\BIN\MSPDBSRV.EXE
D:\GITPOOL\KRKREXTRACT\KRKREXTRACT\KRKREXTRACTDLL\ONIG\REGENC.H
D:\GITPOOL\KRKREXTRACT\KRKREXTRACT\KRKREXTRACTDLL\ONIG\CONFIG.H
D:\GITPOOL\KRKREXTRACT\KRKREXTRACT\KRKREXTRACTDLL\ONIG\ONIGURUMA.H
^D:\GITPOOL\KRKREXTRACT\KRKREXTRACT\KRKREXTRACTDLL\ONIG\ENC\KOI8.C
D:\GITPOOL\KRKREXTRACT\KRKREXTRACT\KRKREXTRACTDLL\ONIG\REGENC.H
D:\GITPOOL\KRKREXTRACT\KRKREXTRACT\KRKREXTRACTDLL\ONIG\CONFIG.H
D:\GITPOOL\KRKREXTRACT\KRKREXTRACT\KRKREXTRACTDLL\ONIG\ONIGURUMA.H
^D:\GITPOOL\KRKREXTRACT\KRKREXTRACT\KRKREXTRACTDLL\ONIG\REGCOMP.C
D:\GITPOOL\KRKREXTRACT\KRKREXTRACT\KRKREXTRACTDLL\ONIG\REGPARSE.H
D:\GITPOOL\KRKREXTRACT\KRKREXTRACT\KRKREXTRACTDLL\ONIG\REGINT.H
D:\GITPOOL\KRKREXTRACT\KRKREXTRACT\KRKREXTRACTDLL\ONIG\CONFIG.H
D:\VSPROGRAM\MICROSOFT VISUAL STUDIO 12.0\VC\INCLUDE\STDLIB.H
D:\VSPROGRAM\MICROSOFT VISUAL STUDIO 12.0\VC\INCLUDE\CRTDEFS.H
D:\VSPROGRAM\MICROSOFT VISUAL STUDIO 12.0\VC\INCLUDE\SAL.H
D:\VSPROGRAM\MICROSOFT VISUAL STUDIO 12.0\VC\INCLUDE\CONCURRENCYSAL.H
D:\VSPROGRAM\MICROSOFT VISUAL STUDIO 12.0\VC\INCLUDE\VADEFS.H
D:\VSPROGRAM\MICROSOFT VISUAL STUDIO 12.0\VC\INCLUDE\LIMITS.H
D:\VSPROGRAM\MICROSOFT VISUAL STUDIO 12.0\VC\INCLUDE\STRING.H
D:\VSPROGRAM\MICROSOFT VISUAL STUDIO 12.0\VC\INCLUDE\CTYPE.H
D:\VSPROGRAM\MICROSOFT VISUAL STUDIO 12.0\VC\INCLUDE\SYS\TYPES.H
D:\GITPOOL\KRKREXTRACT\KRKREXTRACT\KRKREXTRACTDLL\ONIG\REGENC.H
D:\GITPOOL\KRKREXTRACT\KRKREXTRACT\KRKREXTRACTDLL\ONIG\ONIGURUMA.H
^D:\GITPOOL\KRKREXTRACT\KRKREXTRACT\KRKREXTRACTDLL\ONIG\ENC\ISO8859_10.C
D:\GITPOOL\KRKREXTRACT\KRKREXTRACT\KRKREXTRACTDLL\ONIG\REGENC.H
D:\GITPOOL\KRKREXTRACT\KRKREXTRACT\KRKREXTRACTDLL\ONIG\CONFIG.H
D:\GITPOOL\KRKREXTRACT\KRKREXTRACT\KRKREXTRACTDLL\ONIG\ONIGURUMA.H
^D:\GITPOOL\KRKREXTRACT\KRKREXTRACT\KRKREXTRACTDLL\ONIG\ENC\ISO8859_5.C
D:\GITPOOL\KRKREXTRACT\KRKREXTRACT\KRKREXTRACTDLL\ONIG\REGENC.H
D:\GITPOOL\KRKREXTRACT\KRKREXTRACT\KRKREXTRACTDLL\ONIG\CONFIG.H
D:\GITPOOL\KRKREXTRACT\KRKREXTRACT\KRKREXTRACTDLL\ONIG\ONIGURUMA.H
^D:\GITPOOL\KRKREXTRACT\KRKREXTRACT\KRKREXTRACTDLL\ONIG\ENC\SJIS.C
D:\GITPOOL\KRKREXTRACT\KRKREXTRACT\KRKREXTRACTDLL\ONIG\REGINT.H
D:\GITPOOL\KRKREXTRACT\KRKREXTRACT\KRKREXTRACTDLL\ONIG\CONFIG.H
D:\VSPROGRAM\MICROSOFT VISUAL STUDIO 12.0\VC\INCLUDE\STDLIB.H
D:\VSPROGRAM\MICROSOFT VISUAL STUDIO 12.0\VC\INCLUDE\CRTDEFS.H
D:\VSPROGRAM\MICROSOFT VISUAL STUDIO 12.0\VC\INCLUDE\SAL.H
D:\VSPROGRAM\MICROSOFT VISUAL STUDIO 12.0\VC\INCLUDE\CONCURRENCYSAL.H
D:\VSPROGRAM\MICROSOFT VISUAL STUDIO 12.0\VC\INCLUDE\VADEFS.H
D:\VSPROGRAM\MICROSOFT VISUAL STUDIO 12.0\VC\INCLUDE\LIMITS.H
D:\VSPROGRAM\MICROSOFT VISUAL STUDIO 12.0\VC\INCLUDE\STRING.H
D:\VSPROGRAM\MICROSOFT VISUAL STUDIO 12.0\VC\INCLUDE\CTYPE.H
D:\VSPROGRAM\MICROSOFT VISUAL STUDIO 12.0\VC\INCLUDE\SYS\TYPES.H
D:\GITPOOL\KRKREXTRACT\KRKREXTRACT\KRKREXTRACTDLL\ONIG\REGENC.H
D:\GITPOOL\KRKREXTRACT\KRKREXTRACT\KRKREXTRACTDLL\ONIG\ONIGURUMA.H
^D:\GITPOOL\KRKREXTRACT\KRKREXTRACT\KRKREXTRACTDLL\ONIG\REGTRAV.C
D:\GITPOOL\KRKREXTRACT\KRKREXTRACT\KRKREXTRACTDLL\ONIG\REGINT.H
D:\GITPOOL\KRKREXTRACT\KRKREXTRACT\KRKREXTRACTDLL\ONIG\CONFIG.H
D:\VSPROGRAM\MICROSOFT VISUAL STUDIO 12.0\VC\INCLUDE\STDLIB.H
D:\VSPROGRAM\MICROSOFT VISUAL STUDIO 12.0\VC\INCLUDE\CRTDEFS.H
D:\VSPROGRAM\MICROSOFT VISUAL STUDIO 12.0\VC\INCLUDE\SAL.H
D:\VSPROGRAM\MICROSOFT VISUAL STUDIO 12.0\VC\INCLUDE\CONCURRENCYSAL.H
D:\VSPROGRAM\MICROSOFT VISUAL STUDIO 12.0\VC\INCLUDE\VADEFS.H
D:\VSPROGRAM\MICROSOFT VISUAL STUDIO 12.0\VC\INCLUDE\LIMITS.H
D:\VSPROGRAM\MICROSOFT VISUAL STUDIO 12.0\VC\INCLUDE\STRING.H
D:\VSPROGRAM\MICROSOFT VISUAL STUDIO 12.0\VC\INCLUDE\CTYPE.H
D:\VSPROGRAM\MICROSOFT VISUAL STUDIO 12.0\VC\INCLUDE\SYS\TYPES.H
D:\GITPOOL\KRKREXTRACT\KRKREXTRACT\KRKREXTRACTDLL\ONIG\REGENC.H
D:\GITPOOL\KRKREXTRACT\KRKREXTRACT\KRKREXTRACTDLL\ONIG\ONIGURUMA.H
^D:\GITPOOL\KRKREXTRACT\KRKREXTRACT\KRKREXTRACTDLL\ONIG\ENC\BIG5.C
D:\GITPOOL\KRKREXTRACT\KRKREXTRACT\KRKREXTRACTDLL\ONIG\REGENC.H
D:\GITPOOL\KRKREXTRACT\KRKREXTRACT\KRKREXTRACTDLL\ONIG\CONFIG.H
D:\GITPOOL\KRKREXTRACT\KRKREXTRACT\KRKREXTRACTDLL\ONIG\ONIGURUMA.H
^D:\GITPOOL\KRKREXTRACT\KRKREXTRACT\KRKREXTRACTDLL\ONIG\ENC\ISO8859_3.C
D:\GITPOOL\KRKREXTRACT\KRKREXTRACT\KRKREXTRACTDLL\ONIG\REGENC.H
D:\GITPOOL\KRKREXTRACT\KRKREXTRACT\KRKREXTRACTDLL\ONIG\CONFIG.H
D:\GITPOOL\KRKREXTRACT\KRKREXTRACT\KRKREXTRACTDLL\ONIG\ONIGURUMA.H
^D:\GITPOOL\KRKREXTRACT\KRKREXTRACT\KRKREXTRACTDLL\ONIG\ENC\UTF32_BE.C
D:\GITPOOL\KRKREXTRACT\KRKREXTRACT\KRKREXTRACTDLL\ONIG\REGENC.H
D:\GITPOOL\KRKREXTRACT\KRKREXTRACT\KRKREXTRACTDLL\ONIG\CONFIG.H
D:\GITPOOL\KRKREXTRACT\KRKREXTRACT\KRKREXTRACTDLL\ONIG\ONIGURUMA.H
^D:\GITPOOL\KRKREXTRACT\KRKREXTRACT\KRKREXTRACTDLL\ONIG\REGPOSERR.C
D:\GITPOOL\KRKREXTRACT\KRKREXTRACT\KRKREXTRACTDLL\ONIG\CONFIG.H
D:\GITPOOL\KRKREXTRACT\KRKREXTRACT\KRKREXTRACTDLL\ONIG\ONIGPOSIX.H
D:\VSPROGRAM\MICROSOFT VISUAL STUDIO 12.0\VC\INCLUDE\STDLIB.H
D:\VSPROGRAM\MICROSOFT VISUAL STUDIO 12.0\VC\INCLUDE\CRTDEFS.H
D:\VSPROGRAM\MICROSOFT VISUAL STUDIO 12.0\VC\INCLUDE\SAL.H
D:\VSPROGRAM\MICROSOFT VISUAL STUDIO 12.0\VC\INCLUDE\CONCURRENCYSAL.H
D:\VSPROGRAM\MICROSOFT VISUAL STUDIO 12.0\VC\INCLUDE\VADEFS.H
D:\VSPROGRAM\MICROSOFT VISUAL STUDIO 12.0\VC\INCLUDE\LIMITS.H
D:\VSPROGRAM\MICROSOFT VISUAL STUDIO 12.0\VC\INCLUDE\STRING.H
D:\VSPROGRAM\MICROSOFT VISUAL STUDIO 12.0\VC\INCLUDE\STDIO.H
D:\VSPROGRAM\MICROSOFT VISUAL STUDIO 12.0\VC\INCLUDE\SWPRINTF.INL
^D:\GITPOOL\KRKREXTRACT\KRKREXTRACT\KRKREXTRACTDLL\ONIG\ENC\ISO8859_11.C
D:\GITPOOL\KRKREXTRACT\KRKREXTRACT\KRKREXTRACTDLL\ONIG\REGENC.H
D:\GITPOOL\KRKREXTRACT\KRKREXTRACT\KRKREXTRACTDLL\ONIG\CONFIG.H
D:\GITPOOL\KRKREXTRACT\KRKREXTRACT\KRKREXTRACTDLL\ONIG\ONIGURUMA.H
^D:\GITPOOL\KRKREXTRACT\KRKREXTRACT\KRKREXTRACTDLL\ONIG\ENC\ISO8859_15.C
D:\GITPOOL\KRKREXTRACT\KRKREXTRACT\KRKREXTRACTDLL\ONIG\REGENC.H
D:\GITPOOL\KRKREXTRACT\KRKREXTRACT\KRKREXTRACTDLL\ONIG\CONFIG.H
D:\GITPOOL\KRKREXTRACT\KRKREXTRACT\KRKREXTRACTDLL\ONIG\ONIGURUMA.H
^D:\GITPOOL\KRKREXTRACT\KRKREXTRACT\KRKREXTRACTDLL\ONIG\ENC\UNICODE.C
D:\GITPOOL\KRKREXTRACT\KRKREXTRACT\KRKREXTRACTDLL\ONIG\REGINT.H
D:\GITPOOL\KRKREXTRACT\KRKREXTRACT\KRKREXTRACTDLL\ONIG\CONFIG.H
D:\VSPROGRAM\MICROSOFT VISUAL STUDIO 12.0\VC\INCLUDE\STDLIB.H
D:\VSPROGRAM\MICROSOFT VISUAL STUDIO 12.0\VC\INCLUDE\CRTDEFS.H
D:\VSPROGRAM\MICROSOFT VISUAL STUDIO 12.0\VC\INCLUDE\SAL.H
D:\VSPROGRAM\MICROSOFT VISUAL STUDIO 12.0\VC\INCLUDE\CONCURRENCYSAL.H
D:\VSPROGRAM\MICROSOFT VISUAL STUDIO 12.0\VC\INCLUDE\VADEFS.H
D:\VSPROGRAM\MICROSOFT VISUAL STUDIO 12.0\VC\INCLUDE\LIMITS.H
D:\VSPROGRAM\MICROSOFT VISUAL STUDIO 12.0\VC\INCLUDE\STRING.H
D:\VSPROGRAM\MICROSOFT VISUAL STUDIO 12.0\VC\INCLUDE\CTYPE.H
D:\VSPROGRAM\MICROSOFT VISUAL STUDIO 12.0\VC\INCLUDE\SYS\TYPES.H
D:\GITPOOL\KRKREXTRACT\KRKREXTRACT\KRKREXTRACTDLL\ONIG\REGENC.H
D:\GITPOOL\KRKREXTRACT\KRKREXTRACT\KRKREXTRACTDLL\ONIG\ONIGURUMA.H
D:\GITPOOL\KRKREXTRACT\KRKREXTRACT\KRKREXTRACTDLL\ONIG\ST.H
^D:\GITPOOL\KRKREXTRACT\KRKREXTRACT\KRKREXTRACTDLL\ONIG\ENC\ISO8859_14.C
D:\GITPOOL\KRKREXTRACT\KRKREXTRACT\KRKREXTRACTDLL\ONIG\REGENC.H
D:\GITPOOL\KRKREXTRACT\KRKREXTRACT\KRKREXTRACTDLL\ONIG\CONFIG.H
D:\GITPOOL\KRKREXTRACT\KRKREXTRACT\KRKREXTRACTDLL\ONIG\ONIGURUMA.H
^D:\GITPOOL\KRKREXTRACT\KRKREXTRACT\KRKREXTRACTDLL\ONIG\ENC\ISO8859_2.C
D:\GITPOOL\KRKREXTRACT\KRKREXTRACT\KRKREXTRACTDLL\ONIG\REGENC.H
D:\GITPOOL\KRKREXTRACT\KRKREXTRACT\KRKREXTRACTDLL\ONIG\CONFIG.H
D:\GITPOOL\KRKREXTRACT\KRKREXTRACT\KRKREXTRACTDLL\ONIG\ONIGURUMA.H
^D:\GITPOOL\KRKREXTRACT\KRKREXTRACT\KRKREXTRACTDLL\ONIG\REGEXEC.C
D:\GITPOOL\KRKREXTRACT\KRKREXTRACT\KRKREXTRACTDLL\ONIG\REGINT.H
D:\GITPOOL\KRKREXTRACT\KRKREXTRACT\KRKREXTRACTDLL\ONIG\CONFIG.H
D:\VSPROGRAM\MICROSOFT VISUAL STUDIO 12.0\VC\INCLUDE\STDLIB.H
D:\VSPROGRAM\MICROSOFT VISUAL STUDIO 12.0\VC\INCLUDE\CRTDEFS.H
D:\VSPROGRAM\MICROSOFT VISUAL STUDIO 12.0\VC\INCLUDE\SAL.H
D:\VSPROGRAM\MICROSOFT VISUAL STUDIO 12.0\VC\INCLUDE\CONCURRENCYSAL.H
D:\VSPROGRAM\MICROSOFT VISUAL STUDIO 12.0\VC\INCLUDE\VADEFS.H
D:\VSPROGRAM\MICROSOFT VISUAL STUDIO 12.0\VC\INCLUDE\LIMITS.H
D:\VSPROGRAM\MICROSOFT VISUAL STUDIO 12.0\VC\INCLUDE\STRING.H
D:\VSPROGRAM\MICROSOFT VISUAL STUDIO 12.0\VC\INCLUDE\CTYPE.H
D:\VSPROGRAM\MICROSOFT VISUAL STUDIO 12.0\VC\INCLUDE\SYS\TYPES.H
D:\GITPOOL\KRKREXTRACT\KRKREXTRACT\KRKREXTRACTDLL\ONIG\REGENC.H
D:\GITPOOL\KRKREXTRACT\KRKREXTRACT\KRKREXTRACTDLL\ONIG\ONIGURUMA.H
^D:\GITPOOL\KRKREXTRACT\KRKREXTRACT\KRKREXTRACTDLL\ONIG\ENC\CP1251.C
D:\GITPOOL\KRKREXTRACT\KRKREXTRACT\KRKREXTRACTDLL\ONIG\REGENC.H
D:\GITPOOL\KRKREXTRACT\KRKREXTRACT\KRKREXTRACTDLL\ONIG\CONFIG.H
D:\GITPOOL\KRKREXTRACT\KRKREXTRACT\KRKREXTRACTDLL\ONIG\ONIGURUMA.H
^D:\GITPOOL\KRKREXTRACT\KRKREXTRACT\KRKREXTRACTDLL\ONIG\ENC\KOI8_R.C
D:\GITPOOL\KRKREXTRACT\KRKREXTRACT\KRKREXTRACTDLL\ONIG\REGENC.H
D:\GITPOOL\KRKREXTRACT\KRKREXTRACT\KRKREXTRACTDLL\ONIG\CONFIG.H
D:\GITPOOL\KRKREXTRACT\KRKREXTRACT\KRKREXTRACTDLL\ONIG\ONIGURUMA.H
^D:\GITPOOL\KRKREXTRACT\KRKREXTRACT\KRKREXTRACTDLL\ONIG\REGERROR.C
D:\GITPOOL\KRKREXTRACT\KRKREXTRACT\KRKREXTRACTDLL\ONIG\REGINT.H
D:\GITPOOL\KRKREXTRACT\KRKREXTRACT\KRKREXTRACTDLL\ONIG\CONFIG.H
D:\VSPROGRAM\MICROSOFT VISUAL STUDIO 12.0\VC\INCLUDE\STDLIB.H
D:\VSPROGRAM\MICROSOFT VISUAL STUDIO 12.0\VC\INCLUDE\CRTDEFS.H
D:\VSPROGRAM\MICROSOFT VISUAL STUDIO 12.0\VC\INCLUDE\SAL.H
D:\VSPROGRAM\MICROSOFT VISUAL STUDIO 12.0\VC\INCLUDE\CONCURRENCYSAL.H
D:\VSPROGRAM\MICROSOFT VISUAL STUDIO 12.0\VC\INCLUDE\VADEFS.H
D:\VSPROGRAM\MICROSOFT VISUAL STUDIO 12.0\VC\INCLUDE\LIMITS.H
D:\VSPROGRAM\MICROSOFT VISUAL STUDIO 12.0\VC\INCLUDE\STRING.H
D:\VSPROGRAM\MICROSOFT VISUAL STUDIO 12.0\VC\INCLUDE\CTYPE.H
D:\VSPROGRAM\MICROSOFT VISUAL STUDIO 12.0\VC\INCLUDE\SYS\TYPES.H
D:\GITPOOL\KRKREXTRACT\KRKREXTRACT\KRKREXTRACTDLL\ONIG\REGENC.H
D:\GITPOOL\KRKREXTRACT\KRKREXTRACT\KRKREXTRACTDLL\ONIG\ONIGURUMA.H
D:\VSPROGRAM\MICROSOFT VISUAL STUDIO 12.0\VC\INCLUDE\STDIO.H
D:\VSPROGRAM\MICROSOFT VISUAL STUDIO 12.0\VC\INCLUDE\SWPRINTF.INL
D:\VSPROGRAM\MICROSOFT VISUAL STUDIO 12.0\VC\INCLUDE\STDARG.H
^D:\GITPOOL\KRKREXTRACT\KRKREXTRACT\KRKREXTRACTDLL\ONIG\ENC\EUC_JP.C
D:\GITPOOL\KRKREXTRACT\KRKREXTRACT\KRKREXTRACTDLL\ONIG\REGINT.H
D:\GITPOOL\KRKREXTRACT\KRKREXTRACT\KRKREXTRACTDLL\ONIG\CONFIG.H
D:\VSPROGRAM\MICROSOFT VISUAL STUDIO 12.0\VC\INCLUDE\STDLIB.H
D:\VSPROGRAM\MICROSOFT VISUAL STUDIO 12.0\VC\INCLUDE\CRTDEFS.H
D:\VSPROGRAM\MICROSOFT VISUAL STUDIO 12.0\VC\INCLUDE\SAL.H
D:\VSPROGRAM\MICROSOFT VISUAL STUDIO 12.0\VC\INCLUDE\CONCURRENCYSAL.H
D:\VSPROGRAM\MICROSOFT VISUAL STUDIO 12.0\VC\INCLUDE\VADEFS.H
D:\VSPROGRAM\MICROSOFT VISUAL STUDIO 12.0\VC\INCLUDE\LIMITS.H
D:\VSPROGRAM\MICROSOFT VISUAL STUDIO 12.0\VC\INCLUDE\STRING.H
D:\VSPROGRAM\MICROSOFT VISUAL STUDIO 12.0\VC\INCLUDE\CTYPE.H
D:\VSPROGRAM\MICROSOFT VISUAL STUDIO 12.0\VC\INCLUDE\SYS\TYPES.H
D:\GITPOOL\KRKREXTRACT\KRKREXTRACT\KRKREXTRACTDLL\ONIG\REGENC.H
D:\GITPOOL\KRKREXTRACT\KRKREXTRACT\KRKREXTRACTDLL\ONIG\ONIGURUMA.H
^D:\GITPOOL\KRKREXTRACT\KRKREXTRACT\KRKREXTRACTDLL\ONIG\ENC\ISO8859_4.C
D:\GITPOOL\KRKREXTRACT\KRKREXTRACT\KRKREXTRACTDLL\ONIG\REGENC.H
D:\GITPOOL\KRKREXTRACT\KRKREXTRACT\KRKREXTRACTDLL\ONIG\CONFIG.H
D:\GITPOOL\KRKREXTRACT\KRKREXTRACT\KRKREXTRACTDLL\ONIG\ONIGURUMA.H
^D:\GITPOOL\KRKREXTRACT\KRKREXTRACT\KRKREXTRACTDLL\ONIG\ENC\UTF16_BE.C
D:\GITPOOL\KRKREXTRACT\KRKREXTRACT\KRKREXTRACTDLL\ONIG\REGENC.H
D:\GITPOOL\KRKREXTRACT\KRKREXTRACT\KRKREXTRACTDLL\ONIG\CONFIG.H
D:\GITPOOL\KRKREXTRACT\KRKREXTRACT\KRKREXTRACTDLL\ONIG\ONIGURUMA.H
^D:\GITPOOL\KRKREXTRACT\KRKREXTRACT\KRKREXTRACTDLL\ONIG\REGGNU.C
D:\GITPOOL\KRKREXTRACT\KRKREXTRACT\KRKREXTRACTDLL\ONIG\REGINT.H
D:\GITPOOL\KRKREXTRACT\KRKREXTRACT\KRKREXTRACTDLL\ONIG\CONFIG.H
D:\VSPROGRAM\MICROSOFT VISUAL STUDIO 12.0\VC\INCLUDE\STDLIB.H
D:\VSPROGRAM\MICROSOFT VISUAL STUDIO 12.0\VC\INCLUDE\CRTDEFS.H
D:\VSPROGRAM\MICROSOFT VISUAL STUDIO 12.0\VC\INCLUDE\SAL.H
D:\VSPROGRAM\MICROSOFT VISUAL STUDIO 12.0\VC\INCLUDE\CONCURRENCYSAL.H
D:\VSPROGRAM\MICROSOFT VISUAL STUDIO 12.0\VC\INCLUDE\VADEFS.H
D:\VSPROGRAM\MICROSOFT VISUAL STUDIO 12.0\VC\INCLUDE\LIMITS.H
D:\VSPROGRAM\MICROSOFT VISUAL STUDIO 12.0\VC\INCLUDE\STRING.H
D:\VSPROGRAM\MICROSOFT VISUAL STUDIO 12.0\VC\INCLUDE\CTYPE.H
D:\VSPROGRAM\MICROSOFT VISUAL STUDIO 12.0\VC\INCLUDE\SYS\TYPES.H
D:\GITPOOL\KRKREXTRACT\KRKREXTRACT\KRKREXTRACTDLL\ONIG\REGENC.H
D:\GITPOOL\KRKREXTRACT\KRKREXTRACT\KRKREXTRACTDLL\ONIG\ONIGURUMA.H
D:\GITPOOL\KRKREXTRACT\KRKREXTRACT\KRKREXTRACTDLL\ONIG\ONIGGNU.H
^D:\GITPOOL\KRKREXTRACT\KRKREXTRACT\KRKREXTRACTDLL\ONIG\ST.C
D:\VSPROGRAM\MICROSOFT VISUAL STUDIO 12.0\VC\INCLUDE\STDIO.H
D:\VSPROGRAM\MICROSOFT VISUAL STUDIO 12.0\VC\INCLUDE\CRTDEFS.H
D:\VSPROGRAM\MICROSOFT VISUAL STUDIO 12.0\VC\INCLUDE\SAL.H
D:\VSPROGRAM\MICROSOFT VISUAL STUDIO 12.0\VC\INCLUDE\CONCURRENCYSAL.H
D:\VSPROGRAM\MICROSOFT VISUAL STUDIO 12.0\VC\INCLUDE\VADEFS.H
D:\VSPROGRAM\MICROSOFT VISUAL STUDIO 12.0\VC\INCLUDE\SWPRINTF.INL
D:\VSPROGRAM\MICROSOFT VISUAL STUDIO 12.0\VC\INCLUDE\STDLIB.H
D:\VSPROGRAM\MICROSOFT VISUAL STUDIO 12.0\VC\INCLUDE\LIMITS.H
D:\VSPROGRAM\MICROSOFT VISUAL STUDIO 12.0\VC\INCLUDE\STRING.H
D:\VSPROGRAM\MICROSOFT VISUAL STUDIO 12.0\VC\INCLUDE\MALLOC.H
D:\GITPOOL\KRKREXTRACT\KRKREXTRACT\KRKREXTRACTDLL\ONIG\REGINT.H
D:\GITPOOL\KRKREXTRACT\KRKREXTRACT\KRKREXTRACTDLL\ONIG\CONFIG.H
D:\VSPROGRAM\MICROSOFT VISUAL STUDIO 12.0\VC\INCLUDE\CTYPE.H
D:\VSPROGRAM\MICROSOFT VISUAL STUDIO 12.0\VC\INCLUDE\SYS\TYPES.H
D:\GITPOOL\KRKREXTRACT\KRKREXTRACT\KRKREXTRACTDLL\ONIG\REGENC.H
D:\GITPOOL\KRKREXTRACT\KRKREXTRACT\KRKREXTRACTDLL\ONIG\ONIGURUMA.H
D:\GITPOOL\KRKREXTRACT\KRKREXTRACT\KRKREXTRACTDLL\ONIG\ST.H
