^D:\GITPOOL\KRKREXTRACT\KRKREXTRACT\KRKREXTRACTDLL\FAKEPNG.CPP|D:\GITPOOL\KRKREXTRACT\KRKREXTRACT\KRKREXTRACTDLL\KRKRDUMPER.CPP|D:\GITPOOL\KRKREXTRACT\KRKREXTRACT\KRKREXTRACTDLL\KRKREXTRACT.CPP|D:\GITPOOL\KRKREXTRACT\KRKREXTRACT\KRKREXTRACTDLL\KRKRPACKER.CPP|D:\GITPOOL\KRKREXTRACT\KRKREXTRACT\KRKREXTRACTDLL\KRKRTEXTDECODE.CPP|D:\GITPOOL\KRKREXTRACT\KRKREXTRACT\KRKREXTRACTDLL\KRKRUNIVERSALDUMPER.CPP|D:\GITPOOL\KRKREXTRACT\KRKREXTRACT\KRKREXTRACTDLL\KRKRUNIVERSALPATCH.CPP|D:\GITPOOL\KRKREXTRACT\KRKREXTRACT\KRKREXTRACTDLL\MAIN.CPP|D:\GITPOOL\KRKREXTRACT\KRKREXTRACT\KRKREXTRACTDLL\PSBWORKER.CPP|D:\GITPOOL\KRKREXTRACT\KRKREXTRACT\KRKREXTRACTDLL\XP3PARSER.CPP
D:\GITPOOL\KRKREXTRACT\KRKREXTRACT\KRKREXTRACTDLL\RELEASE\VC120.PDB
D:\GITPOOL\KRKREXTRACT\KRKREXTRACT\KRKREXTRACTDLL\RELEASE\XP3PARSER.OBJ
D:\GITPOOL\KRKREXTRACT\KRKREXTRACT\KRKREXTRACTDLL\RELEASE\PSBWORKER.OBJ
D:\GITPOOL\KRKREXTRACT\KRKREXTRACT\KRKREXTRACTDLL\RELEASE\MAIN.OBJ
D:\GITPOOL\KRKREXTRACT\KRKREXTRACT\KRKREXTRACTDLL\RELEASE\KRKRUNIVERSALPATCH.OBJ
D:\GITPOOL\KRKREXTRACT\KRKREXTRACT\KRKREXTRACTDLL\RELEASE\KRKRUNIVERSALDUMPER.OBJ
D:\GITPOOL\KRKREXTRACT\KRKREXTRACT\KRKREXTRACTDLL\RELEASE\KRKRTEXTDECODE.OBJ
D:\GITPOOL\KRKREXTRACT\KRKREXTRACT\KRKREXTRACTDLL\RELEASE\KRKRPACKER.OBJ
D:\GITPOOL\KRKREXTRACT\KRKREXTRACT\KRKREXTRACTDLL\RELEASE\KRKREXTRACT.OBJ
D:\GITPOOL\KRKREXTRACT\KRKREXTRACT\KRKREXTRACTDLL\RELEASE\KRKRDUMPER.OBJ
D:\GITPOOL\KRKREXTRACT\KRKREXTRACT\KRKREXTRACTDLL\RELEASE\FAKEPNG.OBJ
^D:\GITPOOL\KRKREXTRACT\KRKREXTRACT\KRKREXTRACTDLL\KRKREXTRACT.CPP|D:\GITPOOL\KRKREXTRACT\KRKREXTRACT\KRKREXTRACTDLL\MAIN.CPP
D:\GITPOOL\KRKREXTRACT\KRKREXTRACT\KRKREXTRACTDLL\RELEASE\VC120.PDB
D:\GITPOOL\KRKREXTRACT\KRKREXTRACT\KRKREXTRACTDLL\RELEASE\MAIN.OBJ
D:\GITPOOL\KRKREXTRACT\KRKREXTRACT\KRKREXTRACTDLL\RELEASE\KRKREXTRACT.OBJ
^D:\GITPOOL\KRKREXTRACT\KRKREXTRACT\KRKREXTRACTDLL\ADLER32.CPP|D:\GITPOOL\KRKREXTRACT\KRKREXTRACT\KRKREXTRACTDLL\AMVEXTRACTOR.CPP|D:\GITPOOL\KRKREXTRACT\KRKREXTRACT\KRKREXTRACTDLL\COMPRESS.CPP|D:\GITPOOL\KRKREXTRACT\KRKREXTRACT\KRKREXTRACTDLL\CRC32.CPP|D:\GITPOOL\KRKREXTRACT\KRKREXTRACT\KRKREXTRACTDLL\CRC64.CPP|D:\GITPOOL\KRKREXTRACT\KRKREXTRACT\KRKREXTRACTDLL\DEFLATE.CPP|D:\GITPOOL\KRKREXTRACT\KRKREXTRACT\KRKREXTRACTDLL\FAKEPNG.CPP|D:\GITPOOL\KRKREXTRACT\KRKREXTRACT\KRKREXTRACTDLL\HANDLETABLE.CPP|D:\GITPOOL\KRKREXTRACT\KRKREXTRACT\KRKREXTRACTDLL\IMAGEWORKERNCB.CPP|D:\GITPOOL\KRKREXTRACT\KRKREXTRACT\KRKREXTRACTDLL\INFFAST.CPP|D:\GITPOOL\KRKREXTRACT\KRKREXTRACT\KRKREXTRACTDLL\INFLATE.CPP|D:\GITPOOL\KRKREXTRACT\KRKREXTRACT\KRKREXTRACTDLL\INFTREES.CPP|D:\GITPOOL\KRKREXTRACT\KRKREXTRACT\KRKREXTRACTDLL\KRKRDUMPER.CPP|D:\GITPOOL\KRKREXTRACT\KRKREXTRACT\KRKREXTRACTDLL\KRKREXTRACT.CPP|D:\GITPOOL\KRKREXTRACT\KRKREXTRACT\KRKREXTRACTDLL\KRKRPACKER.CPP|D:\GITPOOL\KRKREXTRACT\KRKREXTRACT\KRKREXTRACTDLL\KRKRTEXTDECODE.CPP|D:\GITPOOL\KRKREXTRACT\KRKREXTRACT\KRKREXTRACTDLL\KRKRUNIVERSALDUMPER.CPP|D:\GITPOOL\KRKREXTRACT\KRKREXTRACT\KRKREXTRACTDLL\KRKRUNIVERSALPATCH.CPP|D:\GITPOOL\KRKREXTRACT\KRKREXTRACT\KRKREXTRACTDLL\LZ4.CPP|D:\GITPOOL\KRKREXTRACT\KRKREXTRACT\KRKREXTRACTDLL\LZ4FRAME.CPP|D:\GITPOOL\KRKREXTRACT\KRKREXTRACT\KRKREXTRACTDLL\LZ4HC.CPP|D:\GITPOOL\KRKREXTRACT\KRKREXTRACT\KRKREXTRACTDLL\MAIN.CPP|D:\GITPOOL\KRKREXTRACT\KRKREXTRACT\KRKREXTRACTDLL\MD5.CPP|D:\GITPOOL\KRKREXTRACT\KRKREXTRACT\KRKREXTRACTDLL\MT19937-64.CPP|D:\GITPOOL\KRKREXTRACT\KRKREXTRACT\KRKREXTRACTDLL\PEFILE.CPP|D:\GITPOOL\KRKREXTRACT\KRKREXTRACT\KRKREXTRACTDLL\PNGWORKER.CPP|D:\GITPOOL\KRKREXTRACT\KRKREXTRACT\KRKREXTRACTDLL\PSBDECOMPILERJSON.CPP|D:\GITPOOL\KRKREXTRACT\KRKREXTRACT\KRKREXTRACTDLL\PSBFILE.CPP|D:\GITPOOL\KRKREXTRACT\KRKREXTRACT\KRKREXTRACTDLL\PSBWORKER.CPP|D:\GITPOOL\KRKREXTRACT\KRKREXTRACT\KRKREXTRACTDLL\RIDDLEJOKER_DECODE.CPP|D:\GITPOOL\KRKREXTRACT\KRKREXTRACT\KRKREXTRACTDLL\SAVEPNG.CPP|D:\GITPOOL\KRKREXTRACT\KRKREXTRACT\KRKREXTRACTDLL\SAVETLG5.CPP|D:\GITPOOL\KRKREXTRACT\KRKREXTRACT\KRKREXTRACTDLL\SHA1.CPP|D:\GITPOOL\KRKREXTRACT\KRKREXTRACT\KRKREXTRACTDLL\SLIDE.CPP|D:\GITPOOL\KRKREXTRACT\KRKREXTRACT\KRKREXTRACTDLL\TJS2DISASM.CPP|D:\GITPOOL\KRKREXTRACT\KRKREXTRACT\KRKREXTRACTDLL\TJS2\TJS.CPP|D:\GITPOOL\KRKREXTRACT\KRKREXTRACT\KRKREXTRACTDLL\TJS2\TJS.TAB.CPP|D:\GITPOOL\KRKREXTRACT\KRKREXTRACT\KRKREXTRACTDLL\TJS2\TJSARRAY.CPP|D:\GITPOOL\KRKREXTRACT\KRKREXTRACT\KRKREXTRACTDLL\TJS2\TJSBINARYSERIALIZER.CPP|D:\GITPOOL\KRKREXTRACT\KRKREXTRACT\KRKREXTRACTDLL\TJS2\TJSBYTECODELOADER.CPP|D:\GITPOOL\KRKREXTRACT\KRKREXTRACT\KRKREXTRACTDLL\TJS2\TJSCOMPILECONTROL.CPP|D:\GITPOOL\KRKREXTRACT\KRKREXTRACT\KRKREXTRACTDLL\TJS2\TJSCONFIG.CPP|D:\GITPOOL\KRKREXTRACT\KRKREXTRACT\KRKREXTRACTDLL\TJS2\TJSCONSTARRAYDATA.CPP|D:\GITPOOL\KRKREXTRACT\KRKREXTRACT\KRKREXTRACTDLL\TJS2\TJSDATE.CPP|D:\GITPOOL\KRKREXTRACT\KRKREXTRACT\KRKREXTRACTDLL\TJS2\TJSDATE.TAB.CPP|D:\GITPOOL\KRKREXTRACT\KRKREXTRACT\KRKREXTRACTDLL\TJS2\TJSDATEPARSER.CPP|D:\GITPOOL\KRKREXTRACT\KRKREXTRACT\KRKREXTRACTDLL\TJS2\TJSDEBUG.CPP|D:\GITPOOL\KRKREXTRACT\KRKREXTRACT\KRKREXTRACTDLL\TJS2\TJSDICTIONARY.CPP|D:\GITPOOL\KRKREXTRACT\KRKREXTRACT\KRKREXTRACTDLL\TJS2\TJSDISASSEMBLE.CPP|D:\GITPOOL\KRKREXTRACT\KRKREXTRACT\KRKREXTRACTDLL\TJS2\TJSERROR.CPP|D:\GITPOOL\KRKREXTRACT\KRKREXTRACT\KRKREXTRACTDLL\TJS2\TJSEXCEPTION.CPP|D:\GITPOOL\KRKREXTRACT\KRKREXTRACT\KRKREXTRACTDLL\TJS2\TJSGLOBALSTRINGMAP.CPP|D:\GITPOOL\KRKREXTRACT\KRKREXTRACT\KRKREXTRACTDLL\TJS2\TJSINTERCODEEXEC.CPP|D:\GITPOOL\KRKREXTRACT\KRKREXTRACT\KRKREXTRACTDLL\TJS2\TJSINTERCODEGEN.CPP|D:\GITPOOL\KRKREXTRACT\KRKREXTRACT\KRKREXTRACTDLL\TJS2\TJSINTERFACE.CPP|D:\GITPOOL\KRKREXTRACT\KRKREXTRACT\KRKREXTRACTDLL\TJS2\TJSLEX.CPP|D:\GITPOOL\KRKREXTRACT\KRKREXTRACT\KRKREXTRACTDLL\TJS2\TJSMATH.CPP|D:\GITPOOL\KRKREXTRACT\KRKREXTRACT\KRKREXTRACTDLL\TJS2\TJSMESSAGE.CPP|D:\GITPOOL\KRKREXTRACT\KRKREXTRACT\KRKREXTRACTDLL\TJS2\TJSMT19937AR-COK.CPP|D:\GITPOOL\KRKREXTRACT\KRKREXTRACT\KRKREXTRACTDLL\TJS2\TJSNAMESPACE.CPP|D:\GITPOOL\KRKREXTRACT\KRKREXTRACT\KRKREXTRACTDLL\TJS2\TJSNATIVE.CPP|D:\GITPOOL\KRKREXTRACT\KRKREXTRACT\KRKREXTRACTDLL\TJS2\TJSOBJECT.CPP|D:\GITPOOL\KRKREXTRACT\KRKREXTRACT\KRKREXTRACTDLL\TJS2\TJSOBJECTEXTENDABLE.CPP|D:\GITPOOL\KRKREXTRACT\KRKREXTRACT\KRKREXTRACTDLL\TJS2\TJSOCTPACK.CPP|D:\GITPOOL\KRKREXTRACT\KRKREXTRACT\KRKREXTRACTDLL\TJS2\TJSPP.TAB.CPP|D:\GITPOOL\KRKREXTRACT\KRKREXTRACT\KRKREXTRACTDLL\TJS2\TJSRANDOMGENERATOR.CPP|D:\GITPOOL\KRKREXTRACT\KRKREXTRACT\KRKREXTRACTDLL\TJS2\TJSREGEXP.CPP|D:\GITPOOL\KRKREXTRACT\KRKREXTRACT\KRKREXTRACTDLL\TJS2\TJSSCRIPTBLOCK.CPP|D:\GITPOOL\KRKREXTRACT\KRKREXTRACT\KRKREXTRACTDLL\TJS2\TJSSCRIPTCACHE.CPP|D:\GITPOOL\KRKREXTRACT\KRKREXTRACT\KRKREXTRACTDLL\TJS2\TJSSTRING.CPP|D:\GITPOOL\KRKREXTRACT\KRKREXTRACT\KRKREXTRACTDLL\TJS2\TJSUTILS.CPP|D:\GITPOOL\KRKREXTRACT\KRKREXTRACT\KRKREXTRACTDLL\TJS2\TJSVARIANT.CPP|D:\GITPOOL\KRKREXTRACT\KRKREXTRACT\KRKREXTRACTDLL\TJS2\TJSVARIANTSTRING.CPP|D:\GITPOOL\KRKREXTRACT\KRKREXTRACT\KRKREXTRACTDLL\TLGDECODER.CPP|D:\GITPOOL\KRKREXTRACT\KRKREXTRACT\KRKREXTRACTDLL\TP_STUB.CPP|D:\GITPOOL\KRKREXTRACT\KRKREXTRACT\KRKREXTRACTDLL\TREE.CPP|D:\GITPOOL\KRKREXTRACT\KRKREXTRACT\KRKREXTRACTDLL\UNCOMPR.CPP|D:\GITPOOL\KRKREXTRACT\KRKREXTRACT\KRKREXTRACTDLL\UTILS.CPP|D:\GITPOOL\KRKREXTRACT\KRKREXTRACT\KRKREXTRACTDLL\XP3PARSER.CPP|D:\GITPOOL\KRKREXTRACT\KRKREXTRACT\KRKREXTRACTDLL\XXHASH.CPP|D:\GITPOOL\KRKREXTRACT\KRKREXTRACT\KRKREXTRACTDLL\ZUTIL.CPP
D:\GITPOOL\KRKREXTRACT\KRKREXTRACT\KRKREXTRACTDLL\RELEASE\VC120.PDB
D:\GITPOOL\KRKREXTRACT\KRKREXTRACT\KRKREXTRACTDLL\RELEASE\IMAGEWORKERNCB.OBJ
D:\GITPOOL\KRKREXTRACT\KRKREXTRACT\KRKREXTRACTDLL\RELEASE\COMPRESS.OBJ
D:\GITPOOL\KRKREXTRACT\KRKREXTRACT\KRKREXTRACTDLL\RELEASE\SHA1.OBJ
D:\GITPOOL\KRKREXTRACT\KRKREXTRACT\KRKREXTRACTDLL\RELEASE\MD5.OBJ
D:\GITPOOL\KRKREXTRACT\KRKREXTRACT\KRKREXTRACTDLL\RELEASE\TJSBYTECODELOADER.OBJ
D:\GITPOOL\KRKREXTRACT\KRKREXTRACT\KRKREXTRACTDLL\RELEASE\TJSBINARYSERIALIZER.OBJ
D:\GITPOOL\KRKREXTRACT\KRKREXTRACT\KRKREXTRACTDLL\RELEASE\TJSARRAY.OBJ
D:\GITPOOL\KRKREXTRACT\KRKREXTRACT\KRKREXTRACTDLL\RELEASE\TJS.TAB.OBJ
D:\GITPOOL\KRKREXTRACT\KRKREXTRACT\KRKREXTRACTDLL\RELEASE\TJS.OBJ
D:\GITPOOL\KRKREXTRACT\KRKREXTRACT\KRKREXTRACTDLL\RELEASE\SLIDE.OBJ
D:\GITPOOL\KRKREXTRACT\KRKREXTRACT\KRKREXTRACTDLL\RELEASE\PEFILE.OBJ
D:\GITPOOL\KRKREXTRACT\KRKREXTRACT\KRKREXTRACTDLL\RELEASE\MT19937-64.OBJ
D:\GITPOOL\KRKREXTRACT\KRKREXTRACT\KRKREXTRACTDLL\RELEASE\TJSNAMESPACE.OBJ
D:\GITPOOL\KRKREXTRACT\KRKREXTRACT\KRKREXTRACTDLL\RELEASE\TJSMT19937AR-COK.OBJ
D:\GITPOOL\KRKREXTRACT\KRKREXTRACT\KRKREXTRACTDLL\RELEASE\TJSMESSAGE.OBJ
D:\GITPOOL\KRKREXTRACT\KRKREXTRACT\KRKREXTRACTDLL\RELEASE\TJSMATH.OBJ
D:\GITPOOL\KRKREXTRACT\KRKREXTRACT\KRKREXTRACTDLL\RELEASE\TJSLEX.OBJ
D:\GITPOOL\KRKREXTRACT\KRKREXTRACT\KRKREXTRACTDLL\RELEASE\TJSINTERFACE.OBJ
D:\GITPOOL\KRKREXTRACT\KRKREXTRACT\KRKREXTRACTDLL\RELEASE\TJSINTERCODEGEN.OBJ
D:\GITPOOL\KRKREXTRACT\KRKREXTRACT\KRKREXTRACTDLL\RELEASE\TJSINTERCODEEXEC.OBJ
D:\GITPOOL\KRKREXTRACT\KRKREXTRACT\KRKREXTRACTDLL\RELEASE\TJSGLOBALSTRINGMAP.OBJ
D:\GITPOOL\KRKREXTRACT\KRKREXTRACT\KRKREXTRACTDLL\RELEASE\TJSEXCEPTION.OBJ
D:\GITPOOL\KRKREXTRACT\KRKREXTRACT\KRKREXTRACTDLL\RELEASE\TJSERROR.OBJ
D:\GITPOOL\KRKREXTRACT\KRKREXTRACT\KRKREXTRACTDLL\RELEASE\TJSDISASSEMBLE.OBJ
D:\GITPOOL\KRKREXTRACT\KRKREXTRACT\KRKREXTRACTDLL\RELEASE\TJSDICTIONARY.OBJ
D:\GITPOOL\KRKREXTRACT\KRKREXTRACT\KRKREXTRACTDLL\RELEASE\TJSDEBUG.OBJ
D:\GITPOOL\KRKREXTRACT\KRKREXTRACT\KRKREXTRACTDLL\RELEASE\TJSDATEPARSER.OBJ
D:\GITPOOL\KRKREXTRACT\KRKREXTRACT\KRKREXTRACTDLL\RELEASE\TJSDATE.TAB.OBJ
D:\GITPOOL\KRKREXTRACT\KRKREXTRACT\KRKREXTRACTDLL\RELEASE\TJSDATE.OBJ
D:\GITPOOL\KRKREXTRACT\KRKREXTRACT\KRKREXTRACTDLL\RELEASE\TJSCONSTARRAYDATA.OBJ
D:\GITPOOL\KRKREXTRACT\KRKREXTRACT\KRKREXTRACTDLL\RELEASE\TJSCONFIG.OBJ
D:\GITPOOL\KRKREXTRACT\KRKREXTRACT\KRKREXTRACTDLL\RELEASE\TJSCOMPILECONTROL.OBJ
D:\GITPOOL\KRKREXTRACT\KRKREXTRACT\KRKREXTRACTDLL\RELEASE\UTILS.OBJ
D:\GITPOOL\KRKREXTRACT\KRKREXTRACT\KRKREXTRACTDLL\RELEASE\UNCOMPR.OBJ
D:\GITPOOL\KRKREXTRACT\KRKREXTRACT\KRKREXTRACTDLL\RELEASE\TP_STUB.OBJ
D:\GITPOOL\KRKREXTRACT\KRKREXTRACT\KRKREXTRACTDLL\RELEASE\TJSVARIANTSTRING.OBJ
D:\GITPOOL\KRKREXTRACT\KRKREXTRACT\KRKREXTRACTDLL\RELEASE\TJSVARIANT.OBJ
D:\GITPOOL\KRKREXTRACT\KRKREXTRACT\KRKREXTRACTDLL\RELEASE\TJSUTILS.OBJ
D:\GITPOOL\KRKREXTRACT\KRKREXTRACT\KRKREXTRACTDLL\RELEASE\TJSSTRING.OBJ
D:\GITPOOL\KRKREXTRACT\KRKREXTRACT\KRKREXTRACTDLL\RELEASE\TJSSCRIPTCACHE.OBJ
D:\GITPOOL\KRKREXTRACT\KRKREXTRACT\KRKREXTRACTDLL\RELEASE\TJSSCRIPTBLOCK.OBJ
D:\GITPOOL\KRKREXTRACT\KRKREXTRACT\KRKREXTRACTDLL\RELEASE\TJSREGEXP.OBJ
D:\GITPOOL\KRKREXTRACT\KRKREXTRACT\KRKREXTRACTDLL\RELEASE\TJSRANDOMGENERATOR.OBJ
D:\GITPOOL\KRKREXTRACT\KRKREXTRACT\KRKREXTRACTDLL\RELEASE\TJSPP.TAB.OBJ
D:\GITPOOL\KRKREXTRACT\KRKREXTRACT\KRKREXTRACTDLL\RELEASE\TJSOCTPACK.OBJ
D:\GITPOOL\KRKREXTRACT\KRKREXTRACT\KRKREXTRACTDLL\RELEASE\TJSOBJECTEXTENDABLE.OBJ
D:\GITPOOL\KRKREXTRACT\KRKREXTRACT\KRKREXTRACTDLL\RELEASE\TJSOBJECT.OBJ
D:\GITPOOL\KRKREXTRACT\KRKREXTRACT\KRKREXTRACTDLL\RELEASE\TJSNATIVE.OBJ
^D:\GITPOOL\KRKREXTRACT\KRKREXTRACT\KRKREXTRACTDLL\TJS2\TJS.TAB.CPP
D:\GITPOOL\KRKREXTRACT\KRKREXTRACT\KRKREXTRACTDLL\RELEASE\TJS.TAB.OBJ
^D:\GITPOOL\KRKREXTRACT\KRKREXTRACT\KRKREXTRACTDLL\TJS2\TJSARRAY.CPP
D:\GITPOOL\KRKREXTRACT\KRKREXTRACT\KRKREXTRACTDLL\RELEASE\TJSARRAY.OBJ
^D:\GITPOOL\KRKREXTRACT\KRKREXTRACT\KRKREXTRACTDLL\TJS2\TJSBINARYSERIALIZER.CPP
D:\GITPOOL\KRKREXTRACT\KRKREXTRACT\KRKREXTRACTDLL\RELEASE\TJSBINARYSERIALIZER.OBJ
^D:\GITPOOL\KRKREXTRACT\KRKREXTRACT\KRKREXTRACTDLL\TJS2\TJSBYTECODELOADER.CPP
D:\GITPOOL\KRKREXTRACT\KRKREXTRACT\KRKREXTRACTDLL\RELEASE\TJSBYTECODELOADER.OBJ
^D:\GITPOOL\KRKREXTRACT\KRKREXTRACT\KRKREXTRACTDLL\TJS2\TJSCONFIG.CPP
D:\GITPOOL\KRKREXTRACT\KRKREXTRACT\KRKREXTRACTDLL\RELEASE\TJSCONFIG.OBJ
^D:\GITPOOL\KRKREXTRACT\KRKREXTRACT\KRKREXTRACTDLL\TJS2\TJSCONSTARRAYDATA.CPP
D:\GITPOOL\KRKREXTRACT\KRKREXTRACT\KRKREXTRACTDLL\RELEASE\TJSCONSTARRAYDATA.OBJ
^D:\GITPOOL\KRKREXTRACT\KRKREXTRACT\KRKREXTRACTDLL\TJS2\TJSDATE.CPP
D:\GITPOOL\KRKREXTRACT\KRKREXTRACT\KRKREXTRACTDLL\RELEASE\TJSDATE.OBJ
^D:\GITPOOL\KRKREXTRACT\KRKREXTRACT\KRKREXTRACTDLL\TJS2\TJSDATE.TAB.CPP
D:\GITPOOL\KRKREXTRACT\KRKREXTRACT\KRKREXTRACTDLL\RELEASE\TJSDATE.TAB.OBJ
^D:\GITPOOL\KRKREXTRACT\KRKREXTRACT\KRKREXTRACTDLL\TJS2\TJSDATEPARSER.CPP
D:\GITPOOL\KRKREXTRACT\KRKREXTRACT\KRKREXTRACTDLL\RELEASE\TJSDATEPARSER.OBJ
^D:\GITPOOL\KRKREXTRACT\KRKREXTRACT\KRKREXTRACTDLL\TJS2\TJSDEBUG.CPP
D:\GITPOOL\KRKREXTRACT\KRKREXTRACT\KRKREXTRACTDLL\RELEASE\TJSDEBUG.OBJ
^D:\GITPOOL\KRKREXTRACT\KRKREXTRACT\KRKREXTRACTDLL\TJS2\TJSDICTIONARY.CPP
D:\GITPOOL\KRKREXTRACT\KRKREXTRACT\KRKREXTRACTDLL\RELEASE\TJSDICTIONARY.OBJ
^D:\GITPOOL\KRKREXTRACT\KRKREXTRACT\KRKREXTRACTDLL\TJS2\TJSDISASSEMBLE.CPP
D:\GITPOOL\KRKREXTRACT\KRKREXTRACT\KRKREXTRACTDLL\RELEASE\TJSDISASSEMBLE.OBJ
^D:\GITPOOL\KRKREXTRACT\KRKREXTRACT\KRKREXTRACTDLL\TJS2\TJSERROR.CPP
D:\GITPOOL\KRKREXTRACT\KRKREXTRACT\KRKREXTRACTDLL\RELEASE\TJSERROR.OBJ
^D:\GITPOOL\KRKREXTRACT\KRKREXTRACT\KRKREXTRACTDLL\TJS2\TJSEXCEPTION.CPP
D:\GITPOOL\KRKREXTRACT\KRKREXTRACT\KRKREXTRACTDLL\RELEASE\TJSEXCEPTION.OBJ
^D:\GITPOOL\KRKREXTRACT\KRKREXTRACT\KRKREXTRACTDLL\TJS2\TJSGLOBALSTRINGMAP.CPP
D:\GITPOOL\KRKREXTRACT\KRKREXTRACT\KRKREXTRACTDLL\RELEASE\TJSGLOBALSTRINGMAP.OBJ
^D:\GITPOOL\KRKREXTRACT\KRKREXTRACT\KRKREXTRACTDLL\TJS2\TJSINTERCODEEXEC.CPP
D:\GITPOOL\KRKREXTRACT\KRKREXTRACT\KRKREXTRACTDLL\RELEASE\TJSINTERCODEEXEC.OBJ
^D:\GITPOOL\KRKREXTRACT\KRKREXTRACT\KRKREXTRACTDLL\TJS2\TJSINTERCODEGEN.CPP
D:\GITPOOL\KRKREXTRACT\KRKREXTRACT\KRKREXTRACTDLL\RELEASE\TJSINTERCODEGEN.OBJ
^D:\GITPOOL\KRKREXTRACT\KRKREXTRACT\KRKREXTRACTDLL\TJS2\TJSINTERFACE.CPP
D:\GITPOOL\KRKREXTRACT\KRKREXTRACT\KRKREXTRACTDLL\RELEASE\TJSINTERFACE.OBJ
^D:\GITPOOL\KRKREXTRACT\KRKREXTRACT\KRKREXTRACTDLL\TJS2\TJSLEX.CPP
D:\GITPOOL\KRKREXTRACT\KRKREXTRACT\KRKREXTRACTDLL\RELEASE\TJSLEX.OBJ
^D:\GITPOOL\KRKREXTRACT\KRKREXTRACT\KRKREXTRACTDLL\TJS2\TJSMATH.CPP
D:\GITPOOL\KRKREXTRACT\KRKREXTRACT\KRKREXTRACTDLL\RELEASE\TJSMATH.OBJ
^D:\GITPOOL\KRKREXTRACT\KRKREXTRACT\KRKREXTRACTDLL\TJS2\TJSMESSAGE.CPP
D:\GITPOOL\KRKREXTRACT\KRKREXTRACT\KRKREXTRACTDLL\RELEASE\TJSMESSAGE.OBJ
^D:\GITPOOL\KRKREXTRACT\KRKREXTRACT\KRKREXTRACTDLL\TJS2\TJSMT19937AR-COK.CPP
D:\GITPOOL\KRKREXTRACT\KRKREXTRACT\KRKREXTRACTDLL\RELEASE\TJSMT19937AR-COK.OBJ
^D:\GITPOOL\KRKREXTRACT\KRKREXTRACT\KRKREXTRACTDLL\TJS2\TJSNAMESPACE.CPP
D:\GITPOOL\KRKREXTRACT\KRKREXTRACT\KRKREXTRACTDLL\RELEASE\TJSNAMESPACE.OBJ
^D:\GITPOOL\KRKREXTRACT\KRKREXTRACT\KRKREXTRACTDLL\TJS2\TJSOBJECT.CPP
D:\GITPOOL\KRKREXTRACT\KRKREXTRACT\KRKREXTRACTDLL\RELEASE\TJSOBJECT.OBJ
^D:\GITPOOL\KRKREXTRACT\KRKREXTRACT\KRKREXTRACTDLL\TJS2\TJSOBJECTEXTENDABLE.CPP
D:\GITPOOL\KRKREXTRACT\KRKREXTRACT\KRKREXTRACTDLL\RELEASE\TJSOBJECTEXTENDABLE.OBJ
^D:\GITPOOL\KRKREXTRACT\KRKREXTRACT\KRKREXTRACTDLL\TJS2\TJSOCTPACK.CPP
D:\GITPOOL\KRKREXTRACT\KRKREXTRACT\KRKREXTRACTDLL\RELEASE\TJSOCTPACK.OBJ
^D:\GITPOOL\KRKREXTRACT\KRKREXTRACT\KRKREXTRACTDLL\TJS2\TJSPP.TAB.CPP
D:\GITPOOL\KRKREXTRACT\KRKREXTRACT\KRKREXTRACTDLL\RELEASE\TJSPP.TAB.OBJ
^D:\GITPOOL\KRKREXTRACT\KRKREXTRACT\KRKREXTRACTDLL\TJS2\TJSRANDOMGENERATOR.CPP
D:\GITPOOL\KRKREXTRACT\KRKREXTRACT\KRKREXTRACTDLL\RELEASE\TJSRANDOMGENERATOR.OBJ
^D:\GITPOOL\KRKREXTRACT\KRKREXTRACT\KRKREXTRACTDLL\TJS2\TJSREGEXP.CPP
D:\GITPOOL\KRKREXTRACT\KRKREXTRACT\KRKREXTRACTDLL\RELEASE\TJSREGEXP.OBJ
^D:\GITPOOL\KRKREXTRACT\KRKREXTRACT\KRKREXTRACTDLL\TJS2\TJSSCRIPTBLOCK.CPP
D:\GITPOOL\KRKREXTRACT\KRKREXTRACT\KRKREXTRACTDLL\RELEASE\TJSSCRIPTBLOCK.OBJ
^D:\GITPOOL\KRKREXTRACT\KRKREXTRACT\KRKREXTRACTDLL\TJS2\TJSSCRIPTCACHE.CPP
D:\GITPOOL\KRKREXTRACT\KRKREXTRACT\KRKREXTRACTDLL\RELEASE\TJSSCRIPTCACHE.OBJ
^D:\GITPOOL\KRKREXTRACT\KRKREXTRACT\KRKREXTRACTDLL\TJS2\TJSSTRING.CPP
D:\GITPOOL\KRKREXTRACT\KRKREXTRACT\KRKREXTRACTDLL\RELEASE\TJSSTRING.OBJ
^D:\GITPOOL\KRKREXTRACT\KRKREXTRACT\KRKREXTRACTDLL\TJS2\TJSUTILS.CPP
D:\GITPOOL\KRKREXTRACT\KRKREXTRACT\KRKREXTRACTDLL\RELEASE\TJSUTILS.OBJ
^D:\GITPOOL\KRKREXTRACT\KRKREXTRACT\KRKREXTRACTDLL\TJS2\TJSVARIANT.CPP
D:\GITPOOL\KRKREXTRACT\KRKREXTRACT\KRKREXTRACTDLL\RELEASE\TJSVARIANT.OBJ
^D:\GITPOOL\KRKREXTRACT\KRKREXTRACT\KRKREXTRACTDLL\TJS2\TJSVARIANTSTRING.CPP
D:\GITPOOL\KRKREXTRACT\KRKREXTRACT\KRKREXTRACTDLL\RELEASE\TJSVARIANTSTRING.OBJ
^D:\GITPOOL\KRKREXTRACT\KRKREXTRACT\KRKREXTRACTDLL\UTILS.CPP
D:\GITPOOL\KRKREXTRACT\KRKREXTRACT\KRKREXTRACTDLL\RELEASE\UTILS.OBJ
^D:\GITPOOL\KRKREXTRACT\KRKREXTRACT\KRKREXTRACTDLL\ADLER32.CPP|D:\GITPOOL\KRKREXTRACT\KRKREXTRACT\KRKREXTRACTDLL\AMVEXTRACTOR.CPP|D:\GITPOOL\KRKREXTRACT\KRKREXTRACT\KRKREXTRACTDLL\COMPRESS.CPP|D:\GITPOOL\KRKREXTRACT\KRKREXTRACT\KRKREXTRACTDLL\CRC32.CPP|D:\GITPOOL\KRKREXTRACT\KRKREXTRACT\KRKREXTRACTDLL\CRC64.CPP|D:\GITPOOL\KRKREXTRACT\KRKREXTRACT\KRKREXTRACTDLL\DEFLATE.CPP|D:\GITPOOL\KRKREXTRACT\KRKREXTRACT\KRKREXTRACTDLL\FAKEPNG.CPP|D:\GITPOOL\KRKREXTRACT\KRKREXTRACT\KRKREXTRACTDLL\HANDLETABLE.CPP|D:\GITPOOL\KRKREXTRACT\KRKREXTRACT\KRKREXTRACTDLL\IMAGEWORKERNCB.CPP|D:\GITPOOL\KRKREXTRACT\KRKREXTRACT\KRKREXTRACTDLL\INFFAST.CPP|D:\GITPOOL\KRKREXTRACT\KRKREXTRACT\KRKREXTRACTDLL\INFLATE.CPP|D:\GITPOOL\KRKREXTRACT\KRKREXTRACT\KRKREXTRACTDLL\INFTREES.CPP|D:\GITPOOL\KRKREXTRACT\KRKREXTRACT\KRKREXTRACTDLL\KRKRDUMPER.CPP|D:\GITPOOL\KRKREXTRACT\KRKREXTRACT\KRKREXTRACTDLL\KRKREXTRACT.CPP|D:\GITPOOL\KRKREXTRACT\KRKREXTRACT\KRKREXTRACTDLL\KRKRPACKER.CPP|D:\GITPOOL\KRKREXTRACT\KRKREXTRACT\KRKREXTRACTDLL\KRKRTEXTDECODE.CPP|D:\GITPOOL\KRKREXTRACT\KRKREXTRACT\KRKREXTRACTDLL\KRKRUNIVERSALDUMPER.CPP|D:\GITPOOL\KRKREXTRACT\KRKREXTRACT\KRKREXTRACTDLL\KRKRUNIVERSALPATCH.CPP|D:\GITPOOL\KRKREXTRACT\KRKREXTRACT\KRKREXTRACTDLL\LZ4.CPP|D:\GITPOOL\KRKREXTRACT\KRKREXTRACT\KRKREXTRACTDLL\LZ4FRAME.CPP|D:\GITPOOL\KRKREXTRACT\KRKREXTRACT\KRKREXTRACTDLL\LZ4HC.CPP|D:\GITPOOL\KRKREXTRACT\KRKREXTRACT\KRKREXTRACTDLL\MAIN.CPP|D:\GITPOOL\KRKREXTRACT\KRKREXTRACT\KRKREXTRACTDLL\MD5.CPP|D:\GITPOOL\KRKREXTRACT\KRKREXTRACT\KRKREXTRACTDLL\MT19937-64.CPP|D:\GITPOOL\KRKREXTRACT\KRKREXTRACT\KRKREXTRACTDLL\PEFILE.CPP|D:\GITPOOL\KRKREXTRACT\KRKREXTRACT\KRKREXTRACTDLL\PNGWORKER.CPP|D:\GITPOOL\KRKREXTRACT\KRKREXTRACT\KRKREXTRACTDLL\PSBDECOMPILERJSON.CPP|D:\GITPOOL\KRKREXTRACT\KRKREXTRACT\KRKREXTRACTDLL\PSBFILE.CPP|D:\GITPOOL\KRKREXTRACT\KRKREXTRACT\KRKREXTRACTDLL\PSBWORKER.CPP|D:\GITPOOL\KRKREXTRACT\KRKREXTRACT\KRKREXTRACTDLL\RIDDLEJOKER_DECODE.CPP|D:\GITPOOL\KRKREXTRACT\KRKREXTRACT\KRKREXTRACTDLL\SAVEPNG.CPP|D:\GITPOOL\KRKREXTRACT\KRKREXTRACT\KRKREXTRACTDLL\SAVETLG5.CPP|D:\GITPOOL\KRKREXTRACT\KRKREXTRACT\KRKREXTRACTDLL\SHA1.CPP|D:\GITPOOL\KRKREXTRACT\KRKREXTRACT\KRKREXTRACTDLL\SLIDE.CPP|D:\GITPOOL\KRKREXTRACT\KRKREXTRACT\KRKREXTRACTDLL\TJS2DISASM.CPP|D:\GITPOOL\KRKREXTRACT\KRKREXTRACT\KRKREXTRACTDLL\TJS2\TJS.CPP|D:\GITPOOL\KRKREXTRACT\KRKREXTRACT\KRKREXTRACTDLL\TJS2\TJSCOMPILECONTROL.CPP|D:\GITPOOL\KRKREXTRACT\KRKREXTRACT\KRKREXTRACTDLL\TJS2\TJSNATIVE.CPP|D:\GITPOOL\KRKREXTRACT\KRKREXTRACT\KRKREXTRACTDLL\TLGDECODER.CPP|D:\GITPOOL\KRKREXTRACT\KRKREXTRACT\KRKREXTRACTDLL\TP_STUB.CPP|D:\GITPOOL\KRKREXTRACT\KRKREXTRACT\KRKREXTRACTDLL\TREE.CPP|D:\GITPOOL\KRKREXTRACT\KRKREXTRACT\KRKREXTRACTDLL\UNCOMPR.CPP|D:\GITPOOL\KRKREXTRACT\KRKREXTRACT\KRKREXTRACTDLL\XP3PARSER.CPP|D:\GITPOOL\KRKREXTRACT\KRKREXTRACT\KRKREXTRACTDLL\XXHASH.CPP|D:\GITPOOL\KRKREXTRACT\KRKREXTRACT\KRKREXTRACTDLL\ZUTIL.CPP
D:\GITPOOL\KRKREXTRACT\KRKREXTRACT\KRKREXTRACTDLL\RELEASE\VC120.PDB
D:\GITPOOL\KRKREXTRACT\KRKREXTRACT\KRKREXTRACTDLL\RELEASE\KRKRUNIVERSALPATCH.OBJ
D:\GITPOOL\KRKREXTRACT\KRKREXTRACT\KRKREXTRACTDLL\RELEASE\KRKRTEXTDECODE.OBJ
D:\GITPOOL\KRKREXTRACT\KRKREXTRACT\KRKREXTRACTDLL\RELEASE\MAIN.OBJ
D:\GITPOOL\KRKREXTRACT\KRKREXTRACT\KRKREXTRACTDLL\RELEASE\KRKRUNIVERSALDUMPER.OBJ
D:\GITPOOL\KRKREXTRACT\KRKREXTRACT\KRKREXTRACTDLL\RELEASE\INFTREES.OBJ
D:\GITPOOL\KRKREXTRACT\KRKREXTRACT\KRKREXTRACTDLL\RELEASE\INFLATE.OBJ
D:\GITPOOL\KRKREXTRACT\KRKREXTRACT\KRKREXTRACTDLL\RELEASE\INFFAST.OBJ
D:\GITPOOL\KRKREXTRACT\KRKREXTRACT\KRKREXTRACTDLL\RELEASE\IMAGEWORKERNCB.OBJ
D:\GITPOOL\KRKREXTRACT\KRKREXTRACT\KRKREXTRACTDLL\RELEASE\KRKREXTRACT.OBJ
D:\GITPOOL\KRKREXTRACT\KRKREXTRACT\KRKREXTRACTDLL\RELEASE\HANDLETABLE.OBJ
D:\GITPOOL\KRKREXTRACT\KRKREXTRACT\KRKREXTRACTDLL\RELEASE\FAKEPNG.OBJ
D:\GITPOOL\KRKREXTRACT\KRKREXTRACT\KRKREXTRACTDLL\RELEASE\DEFLATE.OBJ
D:\GITPOOL\KRKREXTRACT\KRKREXTRACT\KRKREXTRACTDLL\RELEASE\CRC64.OBJ
D:\GITPOOL\KRKREXTRACT\KRKREXTRACT\KRKREXTRACTDLL\RELEASE\CRC32.OBJ
D:\GITPOOL\KRKREXTRACT\KRKREXTRACT\KRKREXTRACTDLL\RELEASE\COMPRESS.OBJ
D:\GITPOOL\KRKREXTRACT\KRKREXTRACT\KRKREXTRACTDLL\RELEASE\AMVEXTRACTOR.OBJ
D:\GITPOOL\KRKREXTRACT\KRKREXTRACT\KRKREXTRACTDLL\RELEASE\ADLER32.OBJ
D:\GITPOOL\KRKREXTRACT\KRKREXTRACT\KRKREXTRACTDLL\RELEASE\SHA1.OBJ
D:\GITPOOL\KRKREXTRACT\KRKREXTRACT\KRKREXTRACTDLL\RELEASE\RIDDLEJOKER_DECODE.OBJ
D:\GITPOOL\KRKREXTRACT\KRKREXTRACT\KRKREXTRACTDLL\RELEASE\MD5.OBJ
D:\GITPOOL\KRKREXTRACT\KRKREXTRACT\KRKREXTRACTDLL\RELEASE\TP_STUB.OBJ
D:\GITPOOL\KRKREXTRACT\KRKREXTRACT\KRKREXTRACTDLL\RELEASE\TLGDECODER.OBJ
D:\GITPOOL\KRKREXTRACT\KRKREXTRACT\KRKREXTRACTDLL\RELEASE\TJSNATIVE.OBJ
D:\GITPOOL\KRKREXTRACT\KRKREXTRACT\KRKREXTRACTDLL\RELEASE\TJSCOMPILECONTROL.OBJ
D:\GITPOOL\KRKREXTRACT\KRKREXTRACT\KRKREXTRACTDLL\RELEASE\TJS.OBJ
D:\GITPOOL\KRKREXTRACT\KRKREXTRACT\KRKREXTRACTDLL\RELEASE\TJS2DISASM.OBJ
D:\GITPOOL\KRKREXTRACT\KRKREXTRACT\KRKREXTRACTDLL\RELEASE\SLIDE.OBJ
D:\GITPOOL\KRKREXTRACT\KRKREXTRACT\KRKREXTRACTDLL\RELEASE\SAVETLG5.OBJ
D:\GITPOOL\KRKREXTRACT\KRKREXTRACT\KRKREXTRACTDLL\RELEASE\SAVEPNG.OBJ
D:\GITPOOL\KRKREXTRACT\KRKREXTRACT\KRKREXTRACTDLL\RELEASE\PSBWORKER.OBJ
D:\GITPOOL\KRKREXTRACT\KRKREXTRACT\KRKREXTRACTDLL\RELEASE\PSBFILE.OBJ
D:\GITPOOL\KRKREXTRACT\KRKREXTRACT\KRKREXTRACTDLL\RELEASE\PSBDECOMPILERJSON.OBJ
D:\GITPOOL\KRKREXTRACT\KRKREXTRACT\KRKREXTRACTDLL\RELEASE\PNGWORKER.OBJ
D:\GITPOOL\KRKREXTRACT\KRKREXTRACT\KRKREXTRACTDLL\RELEASE\PEFILE.OBJ
D:\GITPOOL\KRKREXTRACT\KRKREXTRACT\KRKREXTRACTDLL\RELEASE\KRKRDUMPER.OBJ
D:\GITPOOL\KRKREXTRACT\KRKREXTRACT\KRKREXTRACTDLL\RELEASE\KRKRPACKER.OBJ
D:\GITPOOL\KRKREXTRACT\KRKREXTRACT\KRKREXTRACTDLL\RELEASE\MT19937-64.OBJ
D:\GITPOOL\KRKREXTRACT\KRKREXTRACT\KRKREXTRACTDLL\RELEASE\LZ4HC.OBJ
D:\GITPOOL\KRKREXTRACT\KRKREXTRACT\KRKREXTRACTDLL\RELEASE\LZ4FRAME.OBJ
D:\GITPOOL\KRKREXTRACT\KRKREXTRACT\KRKREXTRACTDLL\RELEASE\LZ4.OBJ
D:\GITPOOL\KRKREXTRACT\KRKREXTRACT\KRKREXTRACTDLL\RELEASE\ZUTIL.OBJ
D:\GITPOOL\KRKREXTRACT\KRKREXTRACT\KRKREXTRACTDLL\RELEASE\XXHASH.OBJ
D:\GITPOOL\KRKREXTRACT\KRKREXTRACT\KRKREXTRACTDLL\RELEASE\XP3PARSER.OBJ
D:\GITPOOL\KRKREXTRACT\KRKREXTRACT\KRKREXTRACTDLL\RELEASE\UNCOMPR.OBJ
D:\GITPOOL\KRKREXTRACT\KRKREXTRACT\KRKREXTRACTDLL\RELEASE\TREE.OBJ
^D:\GITPOOL\KRKREXTRACT\KRKREXTRACT\KRKREXTRACTDLL\MD5.CPP
D:\GITPOOL\KRKREXTRACT\KRKREXTRACT\KRKREXTRACTDLL\RELEASE\VC120.PDB
^D:\GITPOOL\KRKREXTRACT\KRKREXTRACT\KRKREXTRACTDLL\RIDDLEJOKER_DECODE.CPP
D:\GITPOOL\KRKREXTRACT\KRKREXTRACT\KRKREXTRACTDLL\RELEASE\VC120.PDB
^D:\GITPOOL\KRKREXTRACT\KRKREXTRACT\KRKREXTRACTDLL\SHA1.CPP
D:\GITPOOL\KRKREXTRACT\KRKREXTRACT\KRKREXTRACTDLL\RELEASE\VC120.PDB
^D:\GITPOOL\KRKREXTRACT\KRKREXTRACT\KRKREXTRACTDLL\ADLER32.CPP
D:\GITPOOL\KRKREXTRACT\KRKREXTRACT\KRKREXTRACTDLL\RELEASE\VC120.PDB
^D:\GITPOOL\KRKREXTRACT\KRKREXTRACT\KRKREXTRACTDLL\AMVEXTRACTOR.CPP
D:\GITPOOL\KRKREXTRACT\KRKREXTRACT\KRKREXTRACTDLL\RELEASE\VC120.PDB
^D:\GITPOOL\KRKREXTRACT\KRKREXTRACT\KRKREXTRACTDLL\COMPRESS.CPP
D:\GITPOOL\KRKREXTRACT\KRKREXTRACT\KRKREXTRACTDLL\RELEASE\VC120.PDB
^D:\GITPOOL\KRKREXTRACT\KRKREXTRACT\KRKREXTRACTDLL\CRC32.CPP
D:\GITPOOL\KRKREXTRACT\KRKREXTRACT\KRKREXTRACTDLL\RELEASE\VC120.PDB
^D:\GITPOOL\KRKREXTRACT\KRKREXTRACT\KRKREXTRACTDLL\CRC64.CPP
D:\GITPOOL\KRKREXTRACT\KRKREXTRACT\KRKREXTRACTDLL\RELEASE\VC120.PDB
^D:\GITPOOL\KRKREXTRACT\KRKREXTRACT\KRKREXTRACTDLL\DEFLATE.CPP
D:\GITPOOL\KRKREXTRACT\KRKREXTRACT\KRKREXTRACTDLL\RELEASE\VC120.PDB
^D:\GITPOOL\KRKREXTRACT\KRKREXTRACT\KRKREXTRACTDLL\FAKEPNG.CPP
D:\GITPOOL\KRKREXTRACT\KRKREXTRACT\KRKREXTRACTDLL\RELEASE\VC120.PDB
^D:\GITPOOL\KRKREXTRACT\KRKREXTRACT\KRKREXTRACTDLL\HANDLETABLE.CPP
D:\GITPOOL\KRKREXTRACT\KRKREXTRACT\KRKREXTRACTDLL\RELEASE\VC120.PDB
^D:\GITPOOL\KRKREXTRACT\KRKREXTRACT\KRKREXTRACTDLL\KRKREXTRACT.CPP
D:\GITPOOL\KRKREXTRACT\KRKREXTRACT\KRKREXTRACTDLL\RELEASE\VC120.PDB
^D:\GITPOOL\KRKREXTRACT\KRKREXTRACT\KRKREXTRACTDLL\IMAGEWORKERNCB.CPP
D:\GITPOOL\KRKREXTRACT\KRKREXTRACT\KRKREXTRACTDLL\RELEASE\VC120.PDB
^D:\GITPOOL\KRKREXTRACT\KRKREXTRACT\KRKREXTRACTDLL\INFFAST.CPP
D:\GITPOOL\KRKREXTRACT\KRKREXTRACT\KRKREXTRACTDLL\RELEASE\VC120.PDB
^D:\GITPOOL\KRKREXTRACT\KRKREXTRACT\KRKREXTRACTDLL\INFLATE.CPP
D:\GITPOOL\KRKREXTRACT\KRKREXTRACT\KRKREXTRACTDLL\RELEASE\VC120.PDB
^D:\GITPOOL\KRKREXTRACT\KRKREXTRACT\KRKREXTRACTDLL\INFTREES.CPP
D:\GITPOOL\KRKREXTRACT\KRKREXTRACT\KRKREXTRACTDLL\RELEASE\VC120.PDB
^D:\GITPOOL\KRKREXTRACT\KRKREXTRACT\KRKREXTRACTDLL\KRKRUNIVERSALDUMPER.CPP
D:\GITPOOL\KRKREXTRACT\KRKREXTRACT\KRKREXTRACTDLL\RELEASE\VC120.PDB
^D:\GITPOOL\KRKREXTRACT\KRKREXTRACT\KRKREXTRACTDLL\MAIN.CPP
D:\GITPOOL\KRKREXTRACT\KRKREXTRACT\KRKREXTRACTDLL\RELEASE\VC120.PDB
^D:\GITPOOL\KRKREXTRACT\KRKREXTRACT\KRKREXTRACTDLL\KRKRTEXTDECODE.CPP
D:\GITPOOL\KRKREXTRACT\KRKREXTRACT\KRKREXTRACTDLL\RELEASE\VC120.PDB
^D:\GITPOOL\KRKREXTRACT\KRKREXTRACT\KRKREXTRACTDLL\KRKRUNIVERSALPATCH.CPP
D:\GITPOOL\KRKREXTRACT\KRKREXTRACT\KRKREXTRACTDLL\RELEASE\VC120.PDB
^D:\GITPOOL\KRKREXTRACT\KRKREXTRACT\KRKREXTRACTDLL\LZ4.CPP
D:\GITPOOL\KRKREXTRACT\KRKREXTRACT\KRKREXTRACTDLL\RELEASE\VC120.PDB
^D:\GITPOOL\KRKREXTRACT\KRKREXTRACT\KRKREXTRACTDLL\LZ4FRAME.CPP
D:\GITPOOL\KRKREXTRACT\KRKREXTRACT\KRKREXTRACTDLL\RELEASE\VC120.PDB
^D:\GITPOOL\KRKREXTRACT\KRKREXTRACT\KRKREXTRACTDLL\LZ4HC.CPP
D:\GITPOOL\KRKREXTRACT\KRKREXTRACT\KRKREXTRACTDLL\RELEASE\VC120.PDB
^D:\GITPOOL\KRKREXTRACT\KRKREXTRACT\KRKREXTRACTDLL\MT19937-64.CPP
D:\GITPOOL\KRKREXTRACT\KRKREXTRACT\KRKREXTRACTDLL\RELEASE\VC120.PDB
^D:\GITPOOL\KRKREXTRACT\KRKREXTRACT\KRKREXTRACTDLL\KRKRPACKER.CPP
D:\GITPOOL\KRKREXTRACT\KRKREXTRACT\KRKREXTRACTDLL\RELEASE\VC120.PDB
^D:\GITPOOL\KRKREXTRACT\KRKREXTRACT\KRKREXTRACTDLL\PEFILE.CPP
D:\GITPOOL\KRKREXTRACT\KRKREXTRACT\KRKREXTRACTDLL\RELEASE\VC120.PDB
^D:\GITPOOL\KRKREXTRACT\KRKREXTRACT\KRKREXTRACTDLL\PNGWORKER.CPP
D:\GITPOOL\KRKREXTRACT\KRKREXTRACT\KRKREXTRACTDLL\RELEASE\VC120.PDB
^D:\GITPOOL\KRKREXTRACT\KRKREXTRACT\KRKREXTRACTDLL\PSBDECOMPILERJSON.CPP
D:\GITPOOL\KRKREXTRACT\KRKREXTRACT\KRKREXTRACTDLL\RELEASE\VC120.PDB
^D:\GITPOOL\KRKREXTRACT\KRKREXTRACT\KRKREXTRACTDLL\PSBFILE.CPP
D:\GITPOOL\KRKREXTRACT\KRKREXTRACT\KRKREXTRACTDLL\RELEASE\VC120.PDB
^D:\GITPOOL\KRKREXTRACT\KRKREXTRACT\KRKREXTRACTDLL\PSBWORKER.CPP
D:\GITPOOL\KRKREXTRACT\KRKREXTRACT\KRKREXTRACTDLL\RELEASE\VC120.PDB
^D:\GITPOOL\KRKREXTRACT\KRKREXTRACT\KRKREXTRACTDLL\SAVEPNG.CPP
D:\GITPOOL\KRKREXTRACT\KRKREXTRACT\KRKREXTRACTDLL\RELEASE\VC120.PDB
^D:\GITPOOL\KRKREXTRACT\KRKREXTRACT\KRKREXTRACTDLL\SAVETLG5.CPP
D:\GITPOOL\KRKREXTRACT\KRKREXTRACT\KRKREXTRACTDLL\RELEASE\VC120.PDB
^D:\GITPOOL\KRKREXTRACT\KRKREXTRACT\KRKREXTRACTDLL\SLIDE.CPP
D:\GITPOOL\KRKREXTRACT\KRKREXTRACT\KRKREXTRACTDLL\RELEASE\VC120.PDB
^D:\GITPOOL\KRKREXTRACT\KRKREXTRACT\KRKREXTRACTDLL\TJS2DISASM.CPP
D:\GITPOOL\KRKREXTRACT\KRKREXTRACT\KRKREXTRACTDLL\RELEASE\VC120.PDB
^D:\GITPOOL\KRKREXTRACT\KRKREXTRACT\KRKREXTRACTDLL\TJS2\TJS.CPP
D:\GITPOOL\KRKREXTRACT\KRKREXTRACT\KRKREXTRACTDLL\RELEASE\VC120.PDB
^D:\GITPOOL\KRKREXTRACT\KRKREXTRACT\KRKREXTRACTDLL\TJS2\TJSCOMPILECONTROL.CPP
D:\GITPOOL\KRKREXTRACT\KRKREXTRACT\KRKREXTRACTDLL\RELEASE\VC120.PDB
^D:\GITPOOL\KRKREXTRACT\KRKREXTRACT\KRKREXTRACTDLL\TJS2\TJSNATIVE.CPP
D:\GITPOOL\KRKREXTRACT\KRKREXTRACT\KRKREXTRACTDLL\RELEASE\VC120.PDB
^D:\GITPOOL\KRKREXTRACT\KRKREXTRACT\KRKREXTRACTDLL\TLGDECODER.CPP
D:\GITPOOL\KRKREXTRACT\KRKREXTRACT\KRKREXTRACTDLL\RELEASE\VC120.PDB
^D:\GITPOOL\KRKREXTRACT\KRKREXTRACT\KRKREXTRACTDLL\TP_STUB.CPP
D:\GITPOOL\KRKREXTRACT\KRKREXTRACT\KRKREXTRACTDLL\RELEASE\VC120.PDB
^D:\GITPOOL\KRKREXTRACT\KRKREXTRACT\KRKREXTRACTDLL\TREE.CPP
D:\GITPOOL\KRKREXTRACT\KRKREXTRACT\KRKREXTRACTDLL\RELEASE\VC120.PDB
^D:\GITPOOL\KRKREXTRACT\KRKREXTRACT\KRKREXTRACTDLL\UNCOMPR.CPP
D:\GITPOOL\KRKREXTRACT\KRKREXTRACT\KRKREXTRACTDLL\RELEASE\VC120.PDB
^D:\GITPOOL\KRKREXTRACT\KRKREXTRACT\KRKREXTRACTDLL\XP3PARSER.CPP
D:\GITPOOL\KRKREXTRACT\KRKREXTRACT\KRKREXTRACTDLL\RELEASE\VC120.PDB
^D:\GITPOOL\KRKREXTRACT\KRKREXTRACT\KRKREXTRACTDLL\XXHASH.CPP
D:\GITPOOL\KRKREXTRACT\KRKREXTRACT\KRKREXTRACTDLL\RELEASE\VC120.PDB
^D:\GITPOOL\KRKREXTRACT\KRKREXTRACT\KRKREXTRACTDLL\ZUTIL.CPP
D:\GITPOOL\KRKREXTRACT\KRKREXTRACT\KRKREXTRACTDLL\RELEASE\VC120.PDB
^D:\GITPOOL\KRKREXTRACT\KRKREXTRACT\KRKREXTRACTDLL\KRKRDUMPER.CPP
D:\GITPOOL\KRKREXTRACT\KRKREXTRACT\KRKREXTRACTDLL\RELEASE\VC120.PDB
D:\GITPOOL\KRKREXTRACT\KRKREXTRACT\KRKREXTRACTDLL\RELEASE\KRKRDUMPER.OBJ
